好像明星呀，
好像明星呀，
好像明星呀，
一样美美哒!!!
好像明星呀，
一样美美哒!!!
好像明星呀，
一样美美哒!!!
美女好
好像明星呀，
一样美美哒!!!
美女好
好像明星呀，
一样美美哒!!!
美女好
好像明星呀，
一样美美哒!!!
美女好
一样美美哒!!!
美女好
一样美美哒!!!
美女好
主播喜欢金牛男吗哈
一样美美哒!!!
美女好
主播喜欢金牛男吗哈
一样美美哒!!!
美女好
主播喜欢金牛男吗哈
一样美美哒!!!
美女好
主播喜欢金牛男吗哈
一样美美哒!!!
美女好
主播喜欢金牛男吗哈
一样美美哒!!!
美女好
主播喜欢金牛男吗哈
一样美美哒!!!
美女好
主播喜欢金牛男吗哈
一样美美哒!!!
美女好
主播喜欢金牛男吗哈
美女好
主播喜欢金牛男吗哈
姐你喜欢什么类型的男生!!!
美女好
主播喜欢金牛男吗哈
姐你喜欢什么类型的男生!!!
主播喜欢金牛男吗哈
姐你喜欢什么类型的男生!!!
主播喜欢金牛男吗哈
姐你喜欢什么类型的男生!!!
主播喜欢金牛男吗哈
姐你喜欢什么类型的男生!!!
主播喜欢金牛男吗哈
姐你喜欢什么类型的男生!!!
主播喜欢金牛男吗哈
姐你喜欢什么类型的男生!!!
姐你喜欢什么类型的男生!!!
其实我住你隔壁，哈哈啊啊
姐你喜欢什么类型的男生!!!
其实我住你隔壁，哈哈啊啊
姐你喜欢什么类型的男生!!!
其实我住你隔壁，哈哈啊啊
姐你喜欢什么类型的男生!!!
其实我住你隔壁，哈哈啊啊
姐你喜欢什么类型的男生!!!
其实我住你隔壁，哈哈啊啊
姐你喜欢什么类型的男生!!!
其实我住你隔壁，哈哈啊啊
姐你喜欢什么类型的男生!!!
其实我住你隔壁，哈哈啊啊
姐你喜欢什么类型的男生!!!
其实我住你隔壁，哈哈啊啊
其实我住你隔壁，哈哈啊啊
从看过果儿后！我就走了不归路
其实我住你隔壁，哈哈啊啊
从看过果儿后！我就走了不归路
报道啦啊啊啊啊
其实我住你隔壁，哈哈啊啊
从看过果儿后！我就走了不归路
报道啦啊啊啊啊
其实我住你隔壁，哈哈啊啊
从看过果儿后！我就走了不归路
报道啦啊啊啊啊
其实我住你隔壁，哈哈啊啊
从看过果儿后！我就走了不归路
报道啦啊啊啊啊
其实我住你隔壁，哈哈啊啊
从看过果儿后！我就走了不归路
报道啦啊啊啊啊
其实我住你隔壁，哈哈啊啊
从看过果儿后！我就走了不归路
报道啦啊啊啊啊
美女息怒···
从看过果儿后！我就走了不归路
报道啦啊啊啊啊
美女息怒···
从看过果儿后！我就走了不归路
报道啦啊啊啊啊
美女息怒···
从看过果儿后！我就走了不归路
报道啦啊啊啊啊
美女息怒···
从看过果儿后！我就走了不归路
报道啦啊啊啊啊
美女息怒···
从看过果儿后！我就走了不归路
报道啦啊啊啊啊
美女息怒···
从看过果儿后！我就走了不归路
报道啦啊啊啊啊
美女息怒···
从看过果儿后！我就走了不归路
报道啦啊啊啊啊
美女息怒···
从看过果儿后！我就走了不归路
报道啦啊啊啊啊
美女息怒···
报道啦啊啊啊啊
美女息怒···
美女息怒···
主播平时爱运动不。。。。
美女息怒···
主播平时爱运动不。。。。
美女息怒···
主播平时爱运动不。。。。
美女息怒···
主播平时爱运动不。。。。
美女息怒···
主播平时爱运动不。。。。
主播平时爱运动不。。。。
主播平时爱运动不。。。。
主播平时爱运动不。。。。
晚安啦
主播平时爱运动不。。。。
晚安啦
主播平时爱运动不。。。。
晚安啦
主播平时爱运动不。。。。
晚安啦
主播平时爱运动不。。。。
晚安啦
主播平时爱运动不。。。。
晚安啦
主播平时爱运动不。。。。
晚安啦
主播平时爱运动不。。。。
晚安啦
晚安啦
路转粉
晚安啦
路转粉
晚安啦
路转粉
晚安啦
路转粉
晚安啦
路转粉
晚安啦
路转粉
晚安啦
路转粉
路转粉
接地气。。。
路转粉
接地气。。。
路转粉
接地气。。。
路转粉
接地气。。。
路转粉
接地气。。。
路转粉
接地气。。。
路转粉
接地气。。。
路转粉
接地气。。。
接地气。。。
喝了这杯再来三杯呀呀
接地气。。。
喝了这杯再来三杯呀呀
接地气。。。
喝了这杯再来三杯呀呀
接地气。。。
喝了这杯再来三杯呀呀
接地气。。。
喝了这杯再来三杯呀呀
接地气。。。
喝了这杯再来三杯呀呀
接地气。。。
喝了这杯再来三杯呀呀
喝了这杯再来三杯呀呀
双眼皮是割的吗~~
喝了这杯再来三杯呀呀
双眼皮是割的吗~~
喝了这杯再来三杯呀呀
双眼皮是割的吗~~
喝了这杯再来三杯呀呀
双眼皮是割的吗~~
喝了这杯再来三杯呀呀
双眼皮是割的吗~~
喝了这杯再来三杯呀呀
双眼皮是割的吗~~
喝了这杯再来三杯呀呀
双眼皮是割的吗~~
喝了这杯再来三杯呀呀
双眼皮是割的吗~~
双眼皮是割的吗~~
喜欢林俊杰的歌吗···
双眼皮是割的吗~~
喜欢林俊杰的歌吗···
双眼皮是割的吗~~
喜欢林俊杰的歌吗···
双眼皮是割的吗~~
喜欢林俊杰的歌吗···
双眼皮是割的吗~~
喜欢林俊杰的歌吗···
双眼皮是割的吗~~
喜欢林俊杰的歌吗···
双眼皮是割的吗~~
喜欢林俊杰的歌吗···
喜欢林俊杰的歌吗···
你的观察力很强!。。。。
喜欢林俊杰的歌吗···
你的观察力很强!。。。。
喜欢林俊杰的歌吗···
你的观察力很强!。。。。
喜欢林俊杰的歌吗···
你的观察力很强!。。。。
喜欢林俊杰的歌吗···
你的观察力很强!。。。。
喜欢林俊杰的歌吗···
你的观察力很强!。。。。
喜欢林俊杰的歌吗···
你的观察力很强!。。。。
喜欢林俊杰的歌吗···
你的观察力很强!。。。。
你的观察力很强!。。。。
越看越美
你的观察力很强!。。。。
越看越美
賣膏藥時間
你的观察力很强!。。。。
越看越美
賣膏藥時間
你的观察力很强!。。。。
越看越美
賣膏藥時間
你的观察力很强!。。。。
越看越美
賣膏藥時間
你的观察力很强!。。。。
越看越美
賣膏藥時間
你的观察力很强!。。。。
越看越美
賣膏藥時間
越看越美
賣膏藥時間
喜欢林俊杰的歌吗!!!!
越看越美
賣膏藥時間
喜欢林俊杰的歌吗!!!!
越看越美
賣膏藥時間
喜欢林俊杰的歌吗!!!!
越看越美
賣膏藥時間
喜欢林俊杰的歌吗!!!!
越看越美
賣膏藥時間
喜欢林俊杰的歌吗!!!!
越看越美
賣膏藥時間
喜欢林俊杰的歌吗!!!!
越看越美
賣膏藥時間
喜欢林俊杰的歌吗!!!!
越看越美
賣膏藥時間
喜欢林俊杰的歌吗!!!!
賣膏藥時間
喜欢林俊杰的歌吗!!!!
喜欢跆拳道吗....
喜欢林俊杰的歌吗!!!!
喜欢跆拳道吗....
喜欢林俊杰的歌吗!!!!
喜欢跆拳道吗....
喜欢林俊杰的歌吗!!!!
喜欢跆拳道吗....
喜欢林俊杰的歌吗!!!!
喜欢跆拳道吗....
喜欢林俊杰的歌吗!!!!
喜欢跆拳道吗....
喜欢林俊杰的歌吗!!!!
喜欢跆拳道吗....
喜欢跆拳道吗....
小女够漂亮呀
喜欢跆拳道吗....
小女够漂亮呀
喜欢跆拳道吗....
小女够漂亮呀
喜欢跆拳道吗....
小女够漂亮呀
喜欢跆拳道吗....
小女够漂亮呀
喜欢跆拳道吗....
小女够漂亮呀
喜欢跆拳道吗....
小女够漂亮呀
喜欢跆拳道吗....
小女够漂亮呀
小女够漂亮呀
我朋友说你人说你说话好听~~~
小女够漂亮呀
我朋友说你人说你说话好听~~~
小女够漂亮呀
我朋友说你人说你说话好听~~~
小女够漂亮呀
我朋友说你人说你说话好听~~~
小女够漂亮呀
我朋友说你人说你说话好听~~~
小女够漂亮呀
我朋友说你人说你说话好听~~~
小女够漂亮呀
我朋友说你人说你说话好听~~~
我朋友说你人说你说话好听~~~
之前在电视上模特选秀看过你
今天遇到很多不开心的事，求安慰啊啊
我朋友说你人说你说话好听~~~
之前在电视上模特选秀看过你
今天遇到很多不开心的事，求安慰啊啊
我朋友说你人说你说话好听~~~
之前在电视上模特选秀看过你
今天遇到很多不开心的事，求安慰啊啊
我朋友说你人说你说话好听~~~
之前在电视上模特选秀看过你
今天遇到很多不开心的事，求安慰啊啊
我朋友说你人说你说话好听~~~
之前在电视上模特选秀看过你
今天遇到很多不开心的事，求安慰啊啊
我朋友说你人说你说话好听~~~
之前在电视上模特选秀看过你
今天遇到很多不开心的事，求安慰啊啊
我朋友说你人说你说话好听~~~
之前在电视上模特选秀看过你
今天遇到很多不开心的事，求安慰啊啊
我朋友说你人说你说话好听~~~
之前在电视上模特选秀看过你
今天遇到很多不开心的事，求安慰啊啊
之前在电视上模特选秀看过你
今天遇到很多不开心的事，求安慰啊啊
主播现在是在家里吗~~~~
之前在电视上模特选秀看过你
今天遇到很多不开心的事，求安慰啊啊
主播现在是在家里吗~~~~
之前在电视上模特选秀看过你
今天遇到很多不开心的事，求安慰啊啊
主播现在是在家里吗~~~~
之前在电视上模特选秀看过你
今天遇到很多不开心的事，求安慰啊啊
主播现在是在家里吗~~~~
之前在电视上模特选秀看过你
今天遇到很多不开心的事，求安慰啊啊
主播现在是在家里吗~~~~
之前在电视上模特选秀看过你
今天遇到很多不开心的事，求安慰啊啊
主播现在是在家里吗~~~~
之前在电视上模特选秀看过你
今天遇到很多不开心的事，求安慰啊啊
主播现在是在家里吗~~~~
主播现在是在家里吗~~~~
主播现在是在家里吗~~~~
明年要去韩国留学啦
主播现在是在家里吗~~~~
明年要去韩国留学啦
主播现在是在家里吗~~~~
明年要去韩国留学啦
主播现在是在家里吗~~~~
明年要去韩国留学啦
主播现在是在家里吗~~~~
明年要去韩国留学啦
主播现在是在家里吗~~~~
明年要去韩国留学啦
主播现在是在家里吗~~~~
明年要去韩国留学啦
你喜欢去哪里旅游
明年要去韩国留学啦
你喜欢去哪里旅游
明年要去韩国留学啦
你喜欢去哪里旅游
明年要去韩国留学啦
你喜欢去哪里旅游
明年要去韩国留学啦
你喜欢去哪里旅游
明年要去韩国留学啦
你喜欢去哪里旅游
明年要去韩国留学啦
你喜欢去哪里旅游
明年要去韩国留学啦
你喜欢去哪里旅游
明年要去韩国留学啦
你喜欢去哪里旅游
你喜欢去哪里旅游
无所谓，你开心最重要那那那
你喜欢去哪里旅游
无所谓，你开心最重要那那那
你喜欢去哪里旅游
无所谓，你开心最重要那那那
你喜欢去哪里旅游
无所谓，你开心最重要那那那
你喜欢去哪里旅游
无所谓，你开心最重要那那那
你喜欢去哪里旅游
无所谓，你开心最重要那那那
无所谓，你开心最重要那那那
无所谓，你开心最重要那那那
无所谓，你开心最重要那那那
无所谓，你开心最重要那那那
无所谓，你开心最重要那那那
无所谓，你开心最重要那那那
无所谓，你开心最重要那那那
无所谓，你开心最重要那那那
无所谓，你开心最重要那那那
主播你猜我是男的女的??
主播你猜我是男的女的??
主播你猜我是男的女的??
主播你猜我是男的女的??
主播你猜我是男的女的??
主播你猜我是男的女的??
主播你猜我是男的女的??
主播你猜我是男的女的??
主播你猜我是男的女的??
可以教下怎么化眉毛！！！！
主播你猜我是男的女的??
可以教下怎么化眉毛！！！！
主播你猜我是男的女的??
可以教下怎么化眉毛！！！！
主播你猜我是男的女的??
可以教下怎么化眉毛！！！！
主播你猜我是男的女的??
可以教下怎么化眉毛！！！！
主播你猜我是男的女的??
可以教下怎么化眉毛！！！！
主播你猜我是男的女的??
可以教下怎么化眉毛！！！！
可以教下怎么化眉毛！！！！
可以推荐下化妆品吗
可以教下怎么化眉毛！！！！
可以推荐下化妆品吗
可以教下怎么化眉毛！！！！
可以推荐下化妆品吗
可以教下怎么化眉毛！！！！
可以推荐下化妆品吗
可以教下怎么化眉毛！！！！
可以推荐下化妆品吗
可以教下怎么化眉毛！！！！
可以推荐下化妆品吗
可以教下怎么化眉毛！！！！
可以推荐下化妆品吗
可以教下怎么化眉毛！！！！
可以推荐下化妆品吗
可以推荐下化妆品吗
本官今晚就翻你的牌了。
可以推荐下化妆品吗
本官今晚就翻你的牌了。
可以推荐下化妆品吗
本官今晚就翻你的牌了。
可以推荐下化妆品吗
本官今晚就翻你的牌了。
可以推荐下化妆品吗
本官今晚就翻你的牌了。
可以推荐下化妆品吗
本官今晚就翻你的牌了。
可以推荐下化妆品吗
本官今晚就翻你的牌了。
本官今晚就翻你的牌了。
聊天好厉害。。。
本官今晚就翻你的牌了。
聊天好厉害。。。
本官今晚就翻你的牌了。
聊天好厉害。。。
本官今晚就翻你的牌了。
聊天好厉害。。。
本官今晚就翻你的牌了。
聊天好厉害。。。
本官今晚就翻你的牌了。
聊天好厉害。。。
本官今晚就翻你的牌了。
聊天好厉害。。。
本官今晚就翻你的牌了。
聊天好厉害。。。
聊天好厉害。。。
主播经常去韩国吗啊
聊天好厉害。。。
主播经常去韩国吗啊
聊天好厉害。。。
主播经常去韩国吗啊
聊天好厉害。。。
主播经常去韩国吗啊
聊天好厉害。。。
主播经常去韩国吗啊
聊天好厉害。。。
主播经常去韩国吗啊
聊天好厉害。。。
主播经常去韩国吗啊
主播经常去韩国吗啊
清纯女神。
主播经常去韩国吗啊
清纯女神。
主播经常去韩国吗啊
清纯女神。
主播经常去韩国吗啊
清纯女神。
主播经常去韩国吗啊
清纯女神。
主播经常去韩国吗啊
清纯女神。
主播经常去韩国吗啊
清纯女神。
主播经常去韩国吗啊
清纯女神。
清纯女神。
哈哈同姓哈
清纯女神。
哈哈同姓哈
清纯女神。
哈哈同姓哈
清纯女神。
哈哈同姓哈
清纯女神。
哈哈同姓哈
清纯女神。
哈哈同姓哈
清纯女神。
哈哈同姓哈
哈哈同姓哈
同款帽子·
哈哈同姓哈
同款帽子·
哈哈同姓哈
同款帽子·
哈哈同姓哈
同款帽子·
哈哈同姓哈
同款帽子·
哈哈同姓哈
同款帽子·
哈哈同姓哈
同款帽子·
哈哈同姓哈
同款帽子·
同款帽子·
你给人感觉艺术家....
同款帽子·
你给人感觉艺术家....
同款帽子·
你给人感觉艺术家....
同款帽子·
你给人感觉艺术家....
同款帽子·
你给人感觉艺术家....
同款帽子·
你给人感觉艺术家....
同款帽子·
你给人感觉艺术家....
你给人感觉艺术家....
你给人感觉艺术家....
你给人感觉艺术家....
你给人感觉艺术家....
你给人感觉艺术家....
你给人感觉艺术家....
你给人感觉艺术家....
你给人感觉艺术家....
主播是网红吗啊啊啊啊
主播是网红吗啊啊啊啊
主播是网红吗啊啊啊啊
主播是网红吗啊啊啊啊
主播是网红吗啊啊啊啊
主播是网红吗啊啊啊啊
主播是网红吗啊啊啊啊
主播是网红吗啊啊啊啊
你的眼睛真有神!!!!
主播是网红吗啊啊啊啊
你的眼睛真有神!!!!
主播是网红吗啊啊啊啊
你的眼睛真有神!!!!
主播是网红吗啊啊啊啊
你的眼睛真有神!!!!
主播是网红吗啊啊啊啊
你的眼睛真有神!!!!
主播是网红吗啊啊啊啊
你的眼睛真有神!!!!
主播是网红吗啊啊啊啊
你的眼睛真有神!!!!
主播是网红吗啊啊啊啊
你的眼睛真有神!!!!
你的眼睛真有神!!!!
你的眼睛真有神!!!!
看不见呀卡卡滴··
你的眼睛真有神!!!!
看不见呀卡卡滴··
你的眼睛真有神!!!!
看不见呀卡卡滴··
你的眼睛真有神!!!!
看不见呀卡卡滴··
你的眼睛真有神!!!!
看不见呀卡卡滴··
你的眼睛真有神!!!!
看不见呀卡卡滴··
看不见呀卡卡滴··
陪我们聊聊天呀姐！！！！
看不见呀卡卡滴··
陪我们聊聊天呀姐！！！！
看不见呀卡卡滴··
陪我们聊聊天呀姐！！！！
看不见呀卡卡滴··
陪我们聊聊天呀姐！！！！
看不见呀卡卡滴··
陪我们聊聊天呀姐！！！！
看不见呀卡卡滴··
陪我们聊聊天呀姐！！！！
看不见呀卡卡滴··
陪我们聊聊天呀姐！！！！
看不见呀卡卡滴··
陪我们聊聊天呀姐！！！！
看不见呀卡卡滴··
陪我们聊聊天呀姐！！！！
主播长得好美啊....
陪我们聊聊天呀姐！！！！
主播长得好美啊....
陪我们聊聊天呀姐！！！！
主播长得好美啊....
陪我们聊聊天呀姐！！！！
主播长得好美啊....
陪我们聊聊天呀姐！！！！
主播长得好美啊....
陪我们聊聊天呀姐！！！！
主播长得好美啊....
陪我们聊聊天呀姐！！！！
主播长得好美啊....
主播长得好美啊....
主播长得好美啊....
我希望你可以开心的做自己
主播长得好美啊....
我希望你可以开心的做自己
主播长得好美啊....
我希望你可以开心的做自己
主播长得好美啊....
我希望你可以开心的做自己
主播长得好美啊....
我希望你可以开心的做自己
主播长得好美啊....
我希望你可以开心的做自己
主播长得好美啊....
我希望你可以开心的做自己
好看。
我希望你可以开心的做自己
好看。
我希望你可以开心的做自己
好看。
我希望你可以开心的做自己
好看。
我希望你可以开心的做自己
好看。
我希望你可以开心的做自己
好看。
我希望你可以开心的做自己
好看。
我希望你可以开心的做自己
好看。
我希望你可以开心的做自己
好看。
好看。
我姐穿啥都美！！！！
好看。
我姐穿啥都美！！！！
好看。
我姐穿啥都美！！！！
好看。
我姐穿啥都美！！！！
好看。
我姐穿啥都美！！！！
好看。
我姐穿啥都美！！！！
我姐穿啥都美！！！！
我姐穿啥都美！！！！
我姐穿啥都美！！！！
我是你的小嫩粉啊啊啊
我姐穿啥都美！！！！
我是你的小嫩粉啊啊啊
我姐穿啥都美！！！！
我是你的小嫩粉啊啊啊
我姐穿啥都美！！！！
我是你的小嫩粉啊啊啊
我姐穿啥都美！！！！
我是你的小嫩粉啊啊啊
我姐穿啥都美！！！！
我是你的小嫩粉啊啊啊
我姐穿啥都美！！！！
我是你的小嫩粉啊啊啊
我是你的小嫩粉啊啊啊
今天真的不开心那那
我是你的小嫩粉啊啊啊
今天真的不开心那那
我是你的小嫩粉啊啊啊
今天真的不开心那那
我是你的小嫩粉啊啊啊
今天真的不开心那那
我是你的小嫩粉啊啊啊
今天真的不开心那那
我是你的小嫩粉啊啊啊
今天真的不开心那那
我是你的小嫩粉啊啊啊
今天真的不开心那那
我是你的小嫩粉啊啊啊
今天真的不开心那那
今天真的不开心那那
可以分享下减肥秘诀不那那那
今天真的不开心那那
可以分享下减肥秘诀不那那那
今天真的不开心那那
可以分享下减肥秘诀不那那那
今天真的不开心那那
可以分享下减肥秘诀不那那那
今天真的不开心那那
可以分享下减肥秘诀不那那那
今天真的不开心那那
可以分享下减肥秘诀不那那那
今天真的不开心那那
可以分享下减肥秘诀不那那那
可以分享下减肥秘诀不那那那
好想去韩国呀???
可以分享下减肥秘诀不那那那
好想去韩国呀???
可以分享下减肥秘诀不那那那
好想去韩国呀???
可以分享下减肥秘诀不那那那
好想去韩国呀???
可以分享下减肥秘诀不那那那
好想去韩国呀???
可以分享下减肥秘诀不那那那
好想去韩国呀???
可以分享下减肥秘诀不那那那
好想去韩国呀???
可以分享下减肥秘诀不那那那
好想去韩国呀???
好想去韩国呀???
主播搬家了吗··
好想去韩国呀???
主播搬家了吗··
好想去韩国呀???
主播搬家了吗··
好想去韩国呀???
主播搬家了吗··
好想去韩国呀???
主播搬家了吗··
好想去韩国呀???
主播搬家了吗··
好想去韩国呀???
主播搬家了吗··
主播搬家了吗··
你给人感觉艺术家····
主播搬家了吗··
你给人感觉艺术家····
主播搬家了吗··
你给人感觉艺术家····
主播搬家了吗··
你给人感觉艺术家····
主播搬家了吗··
你给人感觉艺术家····
主播搬家了吗··
你给人感觉艺术家····
主播搬家了吗··
你给人感觉艺术家····
主播搬家了吗··
你给人感觉艺术家····
你给人感觉艺术家····
主播有姐姐吗啊啊
你给人感觉艺术家····
主播有姐姐吗啊啊
你给人感觉艺术家····
主播有姐姐吗啊啊
你给人感觉艺术家····
主播有姐姐吗啊啊
你给人感觉艺术家····
主播有姐姐吗啊啊
你给人感觉艺术家····
主播有姐姐吗啊啊
你给人感觉艺术家····
主播有姐姐吗啊啊
主播有姐姐吗啊啊
嘟嘟嘴好可爱，
主播有姐姐吗啊啊
嘟嘟嘴好可爱，
主播有姐姐吗啊啊
嘟嘟嘴好可爱，
主播有姐姐吗啊啊
嘟嘟嘴好可爱，
主播有姐姐吗啊啊
嘟嘟嘴好可爱，
主播有姐姐吗啊啊
嘟嘟嘴好可爱，
主播有姐姐吗啊啊
嘟嘟嘴好可爱，
主播有姐姐吗啊啊
嘟嘟嘴好可爱，
嘟嘟嘴好可爱，
你怎么这么逗啊呀
嘟嘟嘴好可爱，
你怎么这么逗啊呀
嘟嘟嘴好可爱，
你怎么这么逗啊呀
嘟嘟嘴好可爱，
你怎么这么逗啊呀
嘟嘟嘴好可爱，
你怎么这么逗啊呀
嘟嘟嘴好可爱，
你怎么这么逗啊呀
嘟嘟嘴好可爱，
你怎么这么逗啊呀
你怎么这么逗啊呀
你怎么这么逗啊呀
你怎么这么逗啊呀
你怎么这么逗啊呀
你怎么这么逗啊呀
你怎么这么逗啊呀
你怎么这么逗啊呀
你怎么这么逗啊呀
出去上网了，下次见那
出去上网了，下次见那
出去上网了，下次见那
出去上网了，下次见那
出去上网了，下次见那
出去上网了，下次见那
出去上网了，下次见那
出去上网了，下次见那
出去上网了，下次见那
经常去酒吧不，姐那
出去上网了，下次见那
经常去酒吧不，姐那
出去上网了，下次见那
经常去酒吧不，姐那
出去上网了，下次见那
经常去酒吧不，姐那
出去上网了，下次见那
经常去酒吧不，姐那
出去上网了，下次见那
经常去酒吧不，姐那
出去上网了，下次见那
经常去酒吧不，姐那
经常去酒吧不，姐那
你怎么辣么美
经常去酒吧不，姐那
你怎么辣么美
经常去酒吧不，姐那
你怎么辣么美
经常去酒吧不，姐那
你怎么辣么美
经常去酒吧不，姐那
你怎么辣么美
经常去酒吧不，姐那
你怎么辣么美
经常去酒吧不，姐那
你怎么辣么美
经常去酒吧不，姐那
你怎么辣么美
你怎么辣么美
一般底妆用什么呢
你怎么辣么美
一般底妆用什么呢
你怎么辣么美
一般底妆用什么呢
你怎么辣么美
一般底妆用什么呢
你怎么辣么美
一般底妆用什么呢
你怎么辣么美
一般底妆用什么呢
你怎么辣么美
一般底妆用什么呢
一般底妆用什么呢
一般底妆用什么呢
一般底妆用什么呢
一般底妆用什么呢
一般底妆用什么呢
一般底妆用什么呢
一般底妆用什么呢
一般底妆用什么呢
你的作品真棒!呀呀呀
你的作品真棒!呀呀呀
你的作品真棒!呀呀呀
你的作品真棒!呀呀呀
你的作品真棒!呀呀呀
你的作品真棒!呀呀呀
你的作品真棒!呀呀呀
你的作品真棒!呀呀呀
这是？那那
你的作品真棒!呀呀呀
这是？那那
你的作品真棒!呀呀呀
这是？那那
你的作品真棒!呀呀呀
这是？那那
你的作品真棒!呀呀呀
这是？那那
你的作品真棒!呀呀呀
这是？那那
你的作品真棒!呀呀呀
这是？那那
你的作品真棒!呀呀呀
这是？那那
这是？那那
这是？那那
关注你啦美女啊啊啊
这是？那那
关注你啦美女啊啊啊
这是？那那
关注你啦美女啊啊啊
这是？那那
关注你啦美女啊啊啊
这是？那那
关注你啦美女啊啊啊
这是？那那
关注你啦美女啊啊啊
多吃点，主播太瘦了呀呀呀
关注你啦美女啊啊啊
多吃点，主播太瘦了呀呀呀
关注你啦美女啊啊啊
多吃点，主播太瘦了呀呀呀
关注你啦美女啊啊啊
多吃点，主播太瘦了呀呀呀
关注你啦美女啊啊啊
多吃点，主播太瘦了呀呀呀
关注你啦美女啊啊啊
多吃点，主播太瘦了呀呀呀
关注你啦美女啊啊啊
多吃点，主播太瘦了呀呀呀
关注你啦美女啊啊啊
多吃点，主播太瘦了呀呀呀
关注你啦美女啊啊啊
多吃点，主播太瘦了呀呀呀
关注你啦美女啊啊啊
多吃点，主播太瘦了呀呀呀
多吃点，主播太瘦了呀呀呀
眉毛是深褐色吗~~~~
多吃点，主播太瘦了呀呀呀
眉毛是深褐色吗~~~~
多吃点，主播太瘦了呀呀呀
眉毛是深褐色吗~~~~
多吃点，主播太瘦了呀呀呀
眉毛是深褐色吗~~~~
多吃点，主播太瘦了呀呀呀
眉毛是深褐色吗~~~~
我有果儿的高清无圣光
眉毛是深褐色吗~~~~
我有果儿的高清无圣光
眉毛是深褐色吗~~~~
我有果儿的高清无圣光
眉毛是深褐色吗~~~~
我有果儿的高清无圣光
美女你一般在哪买衣服那那
眉毛是深褐色吗~~~~
我有果儿的高清无圣光
美女你一般在哪买衣服那那
眉毛是深褐色吗~~~~
我有果儿的高清无圣光
美女你一般在哪买衣服那那
眉毛是深褐色吗~~~~
我有果儿的高清无圣光
美女你一般在哪买衣服那那
眉毛是深褐色吗~~~~
我有果儿的高清无圣光
美女你一般在哪买衣服那那
眉毛是深褐色吗~~~~
我有果儿的高清无圣光
美女你一般在哪买衣服那那
眉毛是深褐色吗~~~~
我有果儿的高清无圣光
美女你一般在哪买衣服那那
眉毛是深褐色吗~~~~
我有果儿的高清无圣光
美女你一般在哪买衣服那那
我有果儿的高清无圣光
美女你一般在哪买衣服那那
主播你指甲在哪做的啊那那那那
我有果儿的高清无圣光
美女你一般在哪买衣服那那
主播你指甲在哪做的啊那那那那
我有果儿的高清无圣光
美女你一般在哪买衣服那那
主播你指甲在哪做的啊那那那那
我有果儿的高清无圣光
美女你一般在哪买衣服那那
主播你指甲在哪做的啊那那那那
美女你一般在哪买衣服那那
主播你指甲在哪做的啊那那那那
美女你一般在哪买衣服那那
主播你指甲在哪做的啊那那那那
美女你一般在哪买衣服那那
主播你指甲在哪做的啊那那那那
主播你指甲在哪做的啊那那那那
你爸妈会看你直播吗...
主播你指甲在哪做的啊那那那那
你爸妈会看你直播吗...
主播你指甲在哪做的啊那那那那
你爸妈会看你直播吗...
主播你指甲在哪做的啊那那那那
你爸妈会看你直播吗...
主播你指甲在哪做的啊那那那那
你爸妈会看你直播吗...
主播你指甲在哪做的啊那那那那
你爸妈会看你直播吗...
主播你指甲在哪做的啊那那那那
你爸妈会看你直播吗...
主播你指甲在哪做的啊那那那那
你爸妈会看你直播吗...
你爸妈会看你直播吗...
主播搬家了吗....
你爸妈会看你直播吗...
主播搬家了吗....
你爸妈会看你直播吗...
主播搬家了吗....
你爸妈会看你直播吗...
主播搬家了吗....
你爸妈会看你直播吗...
主播搬家了吗....
你爸妈会看你直播吗...
主播搬家了吗....
你爸妈会看你直播吗...
主播搬家了吗....
主播搬家了吗....
看到我发的吗·
主播搬家了吗....
看到我发的吗·
主播搬家了吗....
看到我发的吗·
主播搬家了吗....
看到我发的吗·
主播搬家了吗....
看到我发的吗·
主播搬家了吗....
看到我发的吗·
主播搬家了吗....
看到我发的吗·
主播搬家了吗....
看到我发的吗·
看到我发的吗·
想看腿！！！
看到我发的吗·
想看腿！！！
看到我发的吗·
想看腿！！！
看到我发的吗·
想看腿！！！
看到我发的吗·
想看腿！！！
看到我发的吗·
想看腿！！！
看到我发的吗·
想看腿！！！
想看腿！！！
想看腿！！！
想看腿！！！
想看腿！！！
想看腿！！！
想看腿！！！
想看腿！！！
想看腿！！！
主播缺男朋友不
主播缺男朋友不
主播缺男朋友不
主播缺男朋友不
主播缺男朋友不
主播缺男朋友不
主播缺男朋友不
主播缺男朋友不
你的形体真健美!???
主播缺男朋友不
你的形体真健美!???
主播缺男朋友不
你的形体真健美!???
主播缺男朋友不
你的形体真健美!???
主播缺男朋友不
你的形体真健美!???
主播缺男朋友不
你的形体真健美!???
主播缺男朋友不
你的形体真健美!???
主播缺男朋友不
你的形体真健美!???
你的形体真健美!???
妈呀，吓死了
你的形体真健美!???
妈呀，吓死了
你的形体真健美!???
妈呀，吓死了
你的形体真健美!???
妈呀，吓死了
你的形体真健美!???
妈呀，吓死了
你的形体真健美!???
妈呀，吓死了
你的形体真健美!???
妈呀，吓死了
二级
妈呀，吓死了
二级
你很有女人味。那那
妈呀，吓死了
二级
你很有女人味。那那
妈呀，吓死了
二级
你很有女人味。那那
妈呀，吓死了
二级
你很有女人味。那那
妈呀，吓死了
二级
你很有女人味。那那
妈呀，吓死了
二级
你很有女人味。那那
妈呀，吓死了
二级
你很有女人味。那那
妈呀，吓死了
二级
你很有女人味。那那
二级
你很有女人味。那那
姐别在意别人的眼光哈哈哈哈
二级
你很有女人味。那那
姐别在意别人的眼光哈哈哈哈
二级
你很有女人味。那那
姐别在意别人的眼光哈哈哈哈
二级
你很有女人味。那那
姐别在意别人的眼光哈哈哈哈
二级
你很有女人味。那那
姐别在意别人的眼光哈哈哈哈
二级
你很有女人味。那那
姐别在意别人的眼光哈哈哈哈
你很有女人味。那那
姐别在意别人的眼光哈哈哈哈
姐别在意别人的眼光哈哈哈哈
路转粉!!
姐别在意别人的眼光哈哈哈哈
路转粉!!
姐别在意别人的眼光哈哈哈哈
路转粉!!
姐别在意别人的眼光哈哈哈哈
路转粉!!
姐别在意别人的眼光哈哈哈哈
路转粉!!
姐别在意别人的眼光哈哈哈哈
路转粉!!
姐别在意别人的眼光哈哈哈哈
路转粉!!
姐别在意别人的眼光哈哈哈哈
路转粉!!
路转粉!!
好man的妹子.
路转粉!!
好man的妹子.
路转粉!!
好man的妹子.
路转粉!!
好man的妹子.
路转粉!!
好man的妹子.
路转粉!!
好man的妹子.
路转粉!!
好man的妹子.
好man的妹子.
整夜成宿成宿不停的看你直播???
好man的妹子.
整夜成宿成宿不停的看你直播???
好man的妹子.
整夜成宿成宿不停的看你直播???
好man的妹子.
整夜成宿成宿不停的看你直播???
好man的妹子.
整夜成宿成宿不停的看你直播???
好man的妹子.
整夜成宿成宿不停的看你直播???
好man的妹子.
整夜成宿成宿不停的看你直播???
好man的妹子.
整夜成宿成宿不停的看你直播???
整夜成宿成宿不停的看你直播???
清纯女神~~
整夜成宿成宿不停的看你直播???
清纯女神~~
整夜成宿成宿不停的看你直播???
清纯女神~~
整夜成宿成宿不停的看你直播???
清纯女神~~
整夜成宿成宿不停的看你直播???
清纯女神~~
整夜成宿成宿不停的看你直播???
清纯女神~~
整夜成宿成宿不停的看你直播???
清纯女神~~
清纯女神~~
我朋友说你人说你说话好听那那那
清纯女神~~
我朋友说你人说你说话好听那那那
清纯女神~~
我朋友说你人说你说话好听那那那
清纯女神~~
我朋友说你人说你说话好听那那那
清纯女神~~
我朋友说你人说你说话好听那那那
清纯女神~~
我朋友说你人说你说话好听那那那
清纯女神~~
我朋友说你人说你说话好听那那那
清纯女神~~
我朋友说你人说你说话好听那那那
我朋友说你人说你说话好听那那那
我朋友说你人说你说话好听那那那
今天直播来的好晚，，
我朋友说你人说你说话好听那那那
今天直播来的好晚，，
我朋友说你人说你说话好听那那那
今天直播来的好晚，，
我朋友说你人说你说话好听那那那
今天直播来的好晚，，
我朋友说你人说你说话好听那那那
今天直播来的好晚，，
我朋友说你人说你说话好听那那那
今天直播来的好晚，，
手好美啊!
今天直播来的好晚，，
手好美啊!
今天直播来的好晚，，
手好美啊!
今天直播来的好晚，，
手好美啊!
今天直播来的好晚，，
手好美啊!
今天直播来的好晚，，
手好美啊!
今天直播来的好晚，，
手好美啊!
今天直播来的好晚，，
手好美啊!
今天直播来的好晚，，
手好美啊!
今天直播来的好晚，，
手好美啊!
手好美啊!
今天真的不开心~~~
手好美啊!
今天真的不开心~~~
手好美啊!
今天真的不开心~~~
手好美啊!
今天真的不开心~~~
手好美啊!
今天真的不开心~~~
今天真的不开心~~~
今天真的不开心~~~
今天真的不开心~~~
主播喜欢哪个明星!!!
今天真的不开心~~~
主播喜欢哪个明星!!!
今天真的不开心~~~
主播喜欢哪个明星!!!
今天真的不开心~~~
主播喜欢哪个明星!!!
今天真的不开心~~~
主播喜欢哪个明星!!!
今天真的不开心~~~
主播喜欢哪个明星!!!
今天真的不开心~~~
主播喜欢哪个明星!!!
今天真的不开心~~~
主播喜欢哪个明星!!!
主播喜欢哪个明星!!!
看看环境
主播喜欢哪个明星!!!
看看环境
主播喜欢哪个明星!!!
看看环境
主播喜欢哪个明星!!!
看看环境
主播喜欢哪个明星!!!
看看环境
主播喜欢哪个明星!!!
看看环境
主播喜欢哪个明星!!!
看看环境
看看环境
南京有啥好玩的地方不！！！！
看看环境
南京有啥好玩的地方不！！！！
看看环境
南京有啥好玩的地方不！！！！
看看环境
南京有啥好玩的地方不！！！！
看看环境
南京有啥好玩的地方不！！！！
看看环境
南京有啥好玩的地方不！！！！
看看环境
南京有啥好玩的地方不！！！！
看看环境
南京有啥好玩的地方不！！！！
南京有啥好玩的地方不！！！！
哈哈唠嗑那那那那
南京有啥好玩的地方不！！！！
哈哈唠嗑那那那那
南京有啥好玩的地方不！！！！
哈哈唠嗑那那那那
南京有啥好玩的地方不！！！！
哈哈唠嗑那那那那
南京有啥好玩的地方不！！！！
哈哈唠嗑那那那那
南京有啥好玩的地方不！！！！
哈哈唠嗑那那那那
南京有啥好玩的地方不！！！！
哈哈唠嗑那那那那
哈哈唠嗑那那那那
你缺老公吗???
哈哈唠嗑那那那那
你缺老公吗???
哈哈唠嗑那那那那
你缺老公吗???
哈哈唠嗑那那那那
你缺老公吗???
哈哈唠嗑那那那那
你缺老公吗???
哈哈唠嗑那那那那
你缺老公吗???
哈哈唠嗑那那那那
你缺老公吗???
哈哈唠嗑那那那那
你缺老公吗???
你缺老公吗???
今天真的不开心，
你缺老公吗???
今天真的不开心，
你缺老公吗???
今天真的不开心，
你缺老公吗???
今天真的不开心，
你缺老公吗???
今天真的不开心，
你缺老公吗???
今天真的不开心，
你缺老公吗???
今天真的不开心，
今天真的不开心，
马甲线女神那那
今天真的不开心，
马甲线女神那那
今天真的不开心，
马甲线女神那那
今天真的不开心，
马甲线女神那那
今天真的不开心，
马甲线女神那那
今天真的不开心，
马甲线女神那那
今天真的不开心，
马甲线女神那那
今天真的不开心，
马甲线女神那那
马甲线女神那那
最近忙到失眠!!!
马甲线女神那那
最近忙到失眠!!!
马甲线女神那那
最近忙到失眠!!!
马甲线女神那那
最近忙到失眠!!!
马甲线女神那那
最近忙到失眠!!!
马甲线女神那那
最近忙到失眠!!!
马甲线女神那那
最近忙到失眠!!!
最近忙到失眠!!!
哈喽我来啦呀呀呀呀
最近忙到失眠!!!
哈喽我来啦呀呀呀呀
最近忙到失眠!!!
哈喽我来啦呀呀呀呀
最近忙到失眠!!!
哈喽我来啦呀呀呀呀
最近忙到失眠!!!
哈喽我来啦呀呀呀呀
最近忙到失眠!!!
哈喽我来啦呀呀呀呀
最近忙到失眠!!!
哈喽我来啦呀呀呀呀
最近忙到失眠!!!
哈喽我来啦呀呀呀呀
哈喽我来啦呀呀呀呀
你今天给了我很多的惊喜!···
哈喽我来啦呀呀呀呀
你今天给了我很多的惊喜!···
哈喽我来啦呀呀呀呀
你今天给了我很多的惊喜!···
哈喽我来啦呀呀呀呀
你今天给了我很多的惊喜!···
哈喽我来啦呀呀呀呀
你今天给了我很多的惊喜!···
哈喽我来啦呀呀呀呀
你今天给了我很多的惊喜!···
哈喽我来啦呀呀呀呀
你今天给了我很多的惊喜!···
你今天给了我很多的惊喜!···
整过容吗主播哈哈哈
你今天给了我很多的惊喜!···
整过容吗主播哈哈哈
你今天给了我很多的惊喜!···
整过容吗主播哈哈哈
你今天给了我很多的惊喜!···
整过容吗主播哈哈哈
你今天给了我很多的惊喜!···
整过容吗主播哈哈哈
你今天给了我很多的惊喜!···
整过容吗主播哈哈哈
你今天给了我很多的惊喜!···
整过容吗主播哈哈哈
你今天给了我很多的惊喜!···
整过容吗主播哈哈哈
整过容吗主播哈哈哈
哈哈唠嗑???
整过容吗主播哈哈哈
哈哈唠嗑???
整过容吗主播哈哈哈
哈哈唠嗑???
整过容吗主播哈哈哈
哈哈唠嗑???
整过容吗主播哈哈哈
哈哈唠嗑???
整过容吗主播哈哈哈
哈哈唠嗑???
整过容吗主播哈哈哈
哈哈唠嗑???
哈哈唠嗑???
你的形体真健美!???
哈哈唠嗑???
你的形体真健美!???
哈哈唠嗑???
你的形体真健美!???
哈哈唠嗑???
你的形体真健美!???
哈哈唠嗑???
你的形体真健美!???
哈哈唠嗑???
你的形体真健美!???
哈哈唠嗑???
你的形体真健美!???
哈哈唠嗑???
你的形体真健美!???
你的形体真健美!???
明天和意外不知哪个会先来，我会努力!!!!
你的形体真健美!???
明天和意外不知哪个会先来，我会努力!!!!
你的形体真健美!???
明天和意外不知哪个会先来，我会努力!!!!
你的形体真健美!???
明天和意外不知哪个会先来，我会努力!!!!
你的形体真健美!???
明天和意外不知哪个会先来，我会努力!!!!
你的形体真健美!???
明天和意外不知哪个会先来，我会努力!!!!
你的形体真健美!???
明天和意外不知哪个会先来，我会努力!!!!
明天和意外不知哪个会先来，我会努力!!!!
美女息怒，，
明天和意外不知哪个会先来，我会努力!!!!
美女息怒，，
明天和意外不知哪个会先来，我会努力!!!!
美女息怒，，
明天和意外不知哪个会先来，我会努力!!!!
美女息怒，，
明天和意外不知哪个会先来，我会努力!!!!
美女息怒，，
明天和意外不知哪个会先来，我会努力!!!!
美女息怒，，
明天和意外不知哪个会先来，我会努力!!!!
美女息怒，，
明天和意外不知哪个会先来，我会努力!!!!
美女息怒，，
美女息怒，，
嘿嘿我来了呀
美女息怒，，
嘿嘿我来了呀
美女息怒，，
嘿嘿我来了呀
我
美女息怒，，
嘿嘿我来了呀
我
美女息怒，，
嘿嘿我来了呀
我
美女息怒，，
嘿嘿我来了呀
我
美女息怒，，
嘿嘿我来了呀
我
嘿嘿我来了呀
我
主播是摩羯座么哈哈
嘿嘿我来了呀
我
主播是摩羯座么哈哈
嘿嘿我来了呀
我
主播是摩羯座么哈哈
嘿嘿我来了呀
我
主播是摩羯座么哈哈
嘿嘿我来了呀
我
主播是摩羯座么哈哈
嘿嘿我来了呀
我
主播是摩羯座么哈哈
嘿嘿我来了呀
我
主播是摩羯座么哈哈
嘿嘿我来了呀
我
主播是摩羯座么哈哈
我
主播是摩羯座么哈哈
我
主播是摩羯座么哈哈
主播近视吗，，
主播是摩羯座么哈哈
主播近视吗，，
主播是摩羯座么哈哈
主播近视吗，，
主播是摩羯座么哈哈
主播近视吗，，
主播是摩羯座么哈哈
主播近视吗，，
主播是摩羯座么哈哈
主播近视吗，，
你真是一个才女。啊啊啊
主播近视吗，，
你真是一个才女。啊啊啊
主播近视吗，，
你真是一个才女。啊啊啊
主播近视吗，，
你真是一个才女。啊啊啊
主播近视吗，，
你真是一个才女。啊啊啊
主播近视吗，，
你真是一个才女。啊啊啊
主播近视吗，，
你真是一个才女。啊啊啊
主播近视吗，，
你真是一个才女。啊啊啊
主播近视吗，，
你真是一个才女。啊啊啊
主播近视吗，，
你真是一个才女。啊啊啊
你真是一个才女。啊啊啊
主播长发及腰吗呀呀呀呀
你真是一个才女。啊啊啊
主播长发及腰吗呀呀呀呀
你真是一个才女。啊啊啊
主播长发及腰吗呀呀呀呀
你真是一个才女。啊啊啊
主播长发及腰吗呀呀呀呀
你真是一个才女。啊啊啊
主播长发及腰吗呀呀呀呀
主播长发及腰吗呀呀呀呀
哈哈
主播长发及腰吗呀呀呀呀
哈哈
主播长发及腰吗呀呀呀呀
哈哈
哈哈主播真逗.
主播长发及腰吗呀呀呀呀
哈哈
哈哈主播真逗.
主播长发及腰吗呀呀呀呀
哈哈
哈哈主播真逗.
主播长发及腰吗呀呀呀呀
哈哈
哈哈主播真逗.
主播长发及腰吗呀呀呀呀
哈哈
哈哈主播真逗.
主播长发及腰吗呀呀呀呀
哈哈
哈哈主播真逗.
直播打广告也不错呀
主播长发及腰吗呀呀呀呀
哈哈
哈哈主播真逗.
直播打广告也不错呀
主播长发及腰吗呀呀呀呀
哈哈
哈哈主播真逗.
直播打广告也不错呀
哈哈
哈哈主播真逗.
直播打广告也不错呀
哈哈
哈哈主播真逗.
直播打广告也不错呀
头发好呀!!!!
哈哈
哈哈主播真逗.
直播打广告也不错呀
头发好呀!!!!
哈哈
哈哈主播真逗.
直播打广告也不错呀
头发好呀!!!!
哈哈
哈哈主播真逗.
直播打广告也不错呀
头发好呀!!!!
哈哈主播真逗.
直播打广告也不错呀
头发好呀!!!!
哈哈主播真逗.
直播打广告也不错呀
头发好呀!!!!
直播打广告也不错呀
头发好呀!!!!
今天怎么这么嗨，，，
直播打广告也不错呀
头发好呀!!!!
今天怎么这么嗨，，，
直播打广告也不错呀
头发好呀!!!!
今天怎么这么嗨，，，
直播打广告也不错呀
头发好呀!!!!
今天怎么这么嗨，，，
直播打广告也不错呀
头发好呀!!!!
今天怎么这么嗨，，，
头发好呀!!!!
今天怎么这么嗨，，，
头发好呀!!!!
今天怎么这么嗨，，，
头发好呀!!!!
今天怎么这么嗨，，，
头发好呀!!!!
今天怎么这么嗨，，，
报道啦!!!
今天怎么这么嗨，，，
报道啦!!!
今天怎么这么嗨，，，
报道啦!!!
今天怎么这么嗨，，，
报道啦!!!
今天怎么这么嗨，，，
报道啦!!!
今天怎么这么嗨，，，
报道啦!!!
今天怎么这么嗨，，，
报道啦!!!
报道啦!!!
做得好极了!
报道啦!!!
做得好极了!
报道啦!!!
做得好极了!
报道啦!!!
做得好极了!
报道啦!!!
做得好极了!
报道啦!!!
做得好极了!
报道啦!!!
做得好极了!
报道啦!!!
做得好极了!
做得好极了!
手残党总画不好眼线
做得好极了!
手残党总画不好眼线
做得好极了!
手残党总画不好眼线
做得好极了!
手残党总画不好眼线
做得好极了!
手残党总画不好眼线
做得好极了!
手残党总画不好眼线
做得好极了!
手残党总画不好眼线
手残党总画不好眼线
主播素颜吗
手残党总画不好眼线
主播素颜吗
手残党总画不好眼线
主播素颜吗
手残党总画不好眼线
主播素颜吗
手残党总画不好眼线
主播素颜吗
手残党总画不好眼线
主播素颜吗
手残党总画不好眼线
主播素颜吗
手残党总画不好眼线
主播素颜吗
主播素颜吗
主播素颜吗
大
主播素颜吗
大
主播素颜吗
大
主播素颜吗
大
主播素颜吗
大
主播素颜吗
大
大
大
你真是一个才女。
大
你真是一个才女。
大
你真是一个才女。
大
你真是一个才女。
大
你真是一个才女。
大
你真是一个才女。
大
你真是一个才女。
大
你真是一个才女。
美女息怒....
你真是一个才女。
美女息怒....
你真是一个才女。
美女息怒....
你真是一个才女。
美女息怒....
你真是一个才女。
美女息怒....
你真是一个才女。
美女息怒....
你真是一个才女。
美女息怒....
你真是一个才女。
美女息怒....
美女息怒....
其实我住你隔壁，哈哈···
美女息怒....
其实我住你隔壁，哈哈···
美女息怒....
其实我住你隔壁，哈哈···
美女息怒....
其实我住你隔壁，哈哈···
美女息怒....
其实我住你隔壁，哈哈···
美女息怒....
其实我住你隔壁，哈哈···
美女息怒....
其实我住你隔壁，哈哈···
其实我住你隔壁，哈哈···
憋说话，吻我
其实我住你隔壁，哈哈···
憋说话，吻我
其实我住你隔壁，哈哈···
憋说话，吻我
其实我住你隔壁，哈哈···
憋说话，吻我
其实我住你隔壁，哈哈···
憋说话，吻我
其实我住你隔壁，哈哈···
憋说话，吻我
其实我住你隔壁，哈哈···
憋说话，吻我
其实我住你隔壁，哈哈···
憋说话，吻我
憋说话，吻我
鞋子是哪个牌子啊~
憋说话，吻我
鞋子是哪个牌子啊~
憋说话，吻我
鞋子是哪个牌子啊~
憋说话，吻我
鞋子是哪个牌子啊~
憋说话，吻我
鞋子是哪个牌子啊~
憋说话，吻我
鞋子是哪个牌子啊~
憋说话，吻我
鞋子是哪个牌子啊~
鞋子是哪个牌子啊~
主播体重多少啊!!!!
鞋子是哪个牌子啊~
主播体重多少啊!!!!
鞋子是哪个牌子啊~
主播体重多少啊!!!!
鞋子是哪个牌子啊~
主播体重多少啊!!!!
鞋子是哪个牌子啊~
主播体重多少啊!!!!
鞋子是哪个牌子啊~
主播体重多少啊!!!!
鞋子是哪个牌子啊~
主播体重多少啊!!!!
鞋子是哪个牌子啊~
主播体重多少啊!!!!
主播体重多少啊!!!!
主播的风格真的好~~~
主播体重多少啊!!!!
主播的风格真的好~~~
主播体重多少啊!!!!
主播的风格真的好~~~
主播体重多少啊!!!!
主播的风格真的好~~~
主播体重多少啊!!!!
主播的风格真的好~~~
主播体重多少啊!!!!
主播的风格真的好~~~
主播体重多少啊!!!!
主播的风格真的好~~~
主播的风格真的好~~~
晚安，明天见呀呀
主播的风格真的好~~~
晚安，明天见呀呀
主播的风格真的好~~~
晚安，明天见呀呀
主播的风格真的好~~~
晚安，明天见呀呀
主播的风格真的好~~~
晚安，明天见呀呀
主播的风格真的好~~~
晚安，明天见呀呀
主播的风格真的好~~~
晚安，明天见呀呀
主播的风格真的好~~~
晚安，明天见呀呀
晚安，明天见呀呀
啊啊啊，帅的我都弯了呀
晚安，明天见呀呀
啊啊啊，帅的我都弯了呀
晚安，明天见呀呀
啊啊啊，帅的我都弯了呀
晚安，明天见呀呀
啊啊啊，帅的我都弯了呀
晚安，明天见呀呀
啊啊啊，帅的我都弯了呀
晚安，明天见呀呀
啊啊啊，帅的我都弯了呀
晚安，明天见呀呀
啊啊啊，帅的我都弯了呀
啊啊啊，帅的我都弯了呀
啊啊啊，帅的我都弯了呀
清纯女神，，
啊啊啊，帅的我都弯了呀
清纯女神，，
啊啊啊，帅的我都弯了呀
清纯女神，，
啊啊啊，帅的我都弯了呀
清纯女神，，
啊啊啊，帅的我都弯了呀
清纯女神，，
啊啊啊，帅的我都弯了呀
清纯女神，，
可以分享下减肥秘诀不..
啊啊啊，帅的我都弯了呀
清纯女神，，
可以分享下减肥秘诀不..
清纯女神，，
可以分享下减肥秘诀不..
清纯女神，，
可以分享下减肥秘诀不..
清纯女神，，
可以分享下减肥秘诀不..
清纯女神，，
可以分享下减肥秘诀不..
清纯女神，，
可以分享下减肥秘诀不..
清纯女神，，
可以分享下减肥秘诀不..
清纯女神，，
可以分享下减肥秘诀不..
清纯女神，，
可以分享下减肥秘诀不..
可以分享下减肥秘诀不..
静静地听你聊天那那那
可以分享下减肥秘诀不..
静静地听你聊天那那那
可以分享下减肥秘诀不..
静静地听你聊天那那那
可以分享下减肥秘诀不..
静静地听你聊天那那那
可以分享下减肥秘诀不..
静静地听你聊天那那那
静静地听你聊天那那那
静静地听你聊天那那那
静静地听你聊天那那那
静静地听你聊天那那那
本官今晚就翻你的牌了
静静地听你聊天那那那
本官今晚就翻你的牌了
静静地听你聊天那那那
本官今晚就翻你的牌了
静静地听你聊天那那那
本官今晚就翻你的牌了
静静地听你聊天那那那
本官今晚就翻你的牌了
静静地听你聊天那那那
本官今晚就翻你的牌了
静静地听你聊天那那那
本官今晚就翻你的牌了
本官今晚就翻你的牌了
眉毛是纹的吗
本官今晚就翻你的牌了
眉毛是纹的吗
本官今晚就翻你的牌了
眉毛是纹的吗
本官今晚就翻你的牌了
眉毛是纹的吗
本官今晚就翻你的牌了
眉毛是纹的吗
本官今晚就翻你的牌了
眉毛是纹的吗
本官今晚就翻你的牌了
眉毛是纹的吗
本官今晚就翻你的牌了
眉毛是纹的吗
眉毛是纹的吗
活泼又不失雅致。，
眉毛是纹的吗
活泼又不失雅致。，
眉毛是纹的吗
活泼又不失雅致。，
眉毛是纹的吗
活泼又不失雅致。，
在那个城市
眉毛是纹的吗
活泼又不失雅致。，
在那个城市
眉毛是纹的吗
活泼又不失雅致。，
在那个城市
眉毛是纹的吗
活泼又不失雅致。，
在那个城市
活泼又不失雅致。，
在那个城市
主播眼睛好大...
活泼又不失雅致。，
在那个城市
主播眼睛好大...
活泼又不失雅致。，
在那个城市
主播眼睛好大...
活泼又不失雅致。，
在那个城市
主播眼睛好大...
活泼又不失雅致。，
在那个城市
主播眼睛好大...
活泼又不失雅致。，
在那个城市
主播眼睛好大...
活泼又不失雅致。，
在那个城市
主播眼睛好大...
活泼又不失雅致。，
在那个城市
主播眼睛好大...
在那个城市
主播眼睛好大...
今天下雨了，好烦。。。。
在那个城市
主播眼睛好大...
今天下雨了，好烦。。。。
在那个城市
主播眼睛好大...
今天下雨了，好烦。。。。
主播眼睛好大...
今天下雨了，好烦。。。。
主播眼睛好大...
今天下雨了，好烦。。。。
主播眼睛好大...
今天下雨了，好烦。。。。
主播眼睛好大...
今天下雨了，好烦。。。。
今天下雨了，好烦。。。。
我对你的表现非常满意。
今天下雨了，好烦。。。。
我对你的表现非常满意。
今天下雨了，好烦。。。。
我对你的表现非常满意。
今天下雨了，好烦。。。。
我对你的表现非常满意。
今天下雨了，好烦。。。。
我对你的表现非常满意。
今天下雨了，好烦。。。。
我对你的表现非常满意。
今天下雨了，好烦。。。。
我对你的表现非常满意。
今天下雨了，好烦。。。。
我对你的表现非常满意。
我对你的表现非常满意。
这是在哪。。
我对你的表现非常满意。
这是在哪。。
我对你的表现非常满意。
这是在哪。。
我对你的表现非常满意。
这是在哪。。
我对你的表现非常满意。
这是在哪。。
我对你的表现非常满意。
这是在哪。。
我对你的表现非常满意。
这是在哪。。
这是在哪。。
啊啊啊，帅的我都弯了哈
这是在哪。。
啊啊啊，帅的我都弯了哈
这是在哪。。
啊啊啊，帅的我都弯了哈
这是在哪。。
啊啊啊，帅的我都弯了哈
这是在哪。。
啊啊啊，帅的我都弯了哈
这是在哪。。
啊啊啊，帅的我都弯了哈
这是在哪。。
啊啊啊，帅的我都弯了哈
这是在哪。。
啊啊啊，帅的我都弯了哈
啊啊啊，帅的我都弯了哈
对自己自信点!!!!
啊啊啊，帅的我都弯了哈
对自己自信点!!!!
啊啊啊，帅的我都弯了哈
对自己自信点!!!!
啊啊啊，帅的我都弯了哈
对自己自信点!!!!
啊啊啊，帅的我都弯了哈
对自己自信点!!!!
啊啊啊，帅的我都弯了哈
对自己自信点!!!!
啊啊啊，帅的我都弯了哈
对自己自信点!!!!
对自己自信点!!!!
你的笑容很温柔！！！！
对自己自信点!!!!
你的笑容很温柔！！！！
对自己自信点!!!!
你的笑容很温柔！！！！
对自己自信点!!!!
你的笑容很温柔！！！！
对自己自信点!!!!
你的笑容很温柔！！！！
对自己自信点!!!!
你的笑容很温柔！！！！
对自己自信点!!!!
你的笑容很温柔！！！！
对自己自信点!!!!
你的笑容很温柔！！！！
你的笑容很温柔！！！！
你缺老公吗
你的笑容很温柔！！！！
你缺老公吗
你的笑容很温柔！！！！
你缺老公吗
你的笑容很温柔！！！！
你缺老公吗
你的笑容很温柔！！！！
你缺老公吗
你的笑容很温柔！！！！
你缺老公吗
你的笑容很温柔！！！！
你缺老公吗
你缺老公吗
可以教下怎么化眉毛....
你缺老公吗
可以教下怎么化眉毛....
你缺老公吗
可以教下怎么化眉毛....
你缺老公吗
可以教下怎么化眉毛....
你缺老公吗
可以教下怎么化眉毛....
你缺老公吗
可以教下怎么化眉毛....
你缺老公吗
可以教下怎么化眉毛....
你缺老公吗
可以教下怎么化眉毛....
可以教下怎么化眉毛....
主播经常去韩国吗啊
可以教下怎么化眉毛....
主播经常去韩国吗啊
可以教下怎么化眉毛....
主播经常去韩国吗啊
可以教下怎么化眉毛....
主播经常去韩国吗啊
可以教下怎么化眉毛....
主播经常去韩国吗啊
可以教下怎么化眉毛....
主播经常去韩国吗啊
可以教下怎么化眉毛....
主播经常去韩国吗啊
主播经常去韩国吗啊
你的作品真棒!?
主播经常去韩国吗啊
你的作品真棒!?
主播经常去韩国吗啊
你的作品真棒!?
主播经常去韩国吗啊
你的作品真棒!?
主播经常去韩国吗啊
你的作品真棒!?
主播经常去韩国吗啊
你的作品真棒!?
主播经常去韩国吗啊
你的作品真棒!?
主播经常去韩国吗啊
你的作品真棒!?
你的作品真棒!?
喜欢主播的风格....
你的作品真棒!?
喜欢主播的风格....
你的作品真棒!?
喜欢主播的风格....
你的作品真棒!?
喜欢主播的风格....
你的作品真棒!?
喜欢主播的风格....
你的作品真棒!?
喜欢主播的风格....
你的作品真棒!?
喜欢主播的风格....
喜欢主播的风格....
喜欢天然美女
喜欢主播的风格....
喜欢天然美女
喜欢主播的风格....
喜欢天然美女
喜欢主播的风格....
喜欢天然美女
主播好美，就是穿得太保守
喜欢主播的风格....
喜欢天然美女
主播好美，就是穿得太保守
喜欢主播的风格....
喜欢天然美女
主播好美，就是穿得太保守
喜欢主播的风格....
喜欢天然美女
主播好美，就是穿得太保守
喜欢主播的风格....
喜欢天然美女
主播好美，就是穿得太保守
喜欢天然美女
主播好美，就是穿得太保守
听说下雨天和炸鸡更配!!
喜欢天然美女
主播好美，就是穿得太保守
听说下雨天和炸鸡更配!!
喜欢天然美女
主播好美，就是穿得太保守
听说下雨天和炸鸡更配!!
喜欢天然美女
主播好美，就是穿得太保守
听说下雨天和炸鸡更配!!
喜欢天然美女
主播好美，就是穿得太保守
听说下雨天和炸鸡更配!!
喜欢天然美女
主播好美，就是穿得太保守
听说下雨天和炸鸡更配!!
喜欢天然美女
主播好美，就是穿得太保守
听说下雨天和炸鸡更配!!
主播好美，就是穿得太保守
听说下雨天和炸鸡更配!!
主播好美，就是穿得太保守
听说下雨天和炸鸡更配!!
完美girl~~~~
主播好美，就是穿得太保守
听说下雨天和炸鸡更配!!
完美girl~~~~
听说下雨天和炸鸡更配!!
完美girl~~~~
听说下雨天和炸鸡更配!!
完美girl~~~~
听说下雨天和炸鸡更配!!
完美girl~~~~
听说下雨天和炸鸡更配!!
完美girl~~~~
听说下雨天和炸鸡更配!!
完美girl~~~~
城市套路太深，我要回农村
完美girl~~~~
城市套路太深，我要回农村
完美girl~~~~
城市套路太深，我要回农村
完美girl~~~~
城市套路太深，我要回农村
完美girl~~~~
城市套路太深，我要回农村
完美girl~~~~
城市套路太深，我要回农村
完美girl~~~~
城市套路太深，我要回农村
完美girl~~~~
城市套路太深，我要回农村
完美girl~~~~
城市套路太深，我要回农村
城市套路太深，我要回农村
笑起来像我前女友。。。
城市套路太深，我要回农村
笑起来像我前女友。。。
城市套路太深，我要回农村
笑起来像我前女友。。。
城市套路太深，我要回农村
笑起来像我前女友。。。
城市套路太深，我要回农村
笑起来像我前女友。。。
城市套路太深，我要回农村
笑起来像我前女友。。。
笑起来像我前女友。。。
笑起来像我前女友。。。
笑起来像我前女友。。。
晃的我头好晕呀呀
笑起来像我前女友。。。
晃的我头好晕呀呀
笑起来像我前女友。。。
晃的我头好晕呀呀
笑起来像我前女友。。。
晃的我头好晕呀呀
笑起来像我前女友。。。
晃的我头好晕呀呀
笑起来像我前女友。。。
晃的我头好晕呀呀
笑起来像我前女友。。。
晃的我头好晕呀呀
晃的我头好晕呀呀
身材这么好
妈呀，吓死了那那
晃的我头好晕呀呀
身材这么好
妈呀，吓死了那那
晃的我头好晕呀呀
身材这么好
妈呀，吓死了那那
晃的我头好晕呀呀
身材这么好
妈呀，吓死了那那
晃的我头好晕呀呀
身材这么好
妈呀，吓死了那那
晃的我头好晕呀呀
身材这么好
妈呀，吓死了那那
晃的我头好晕呀呀
身材这么好
妈呀，吓死了那那
晃的我头好晕呀呀
身材这么好
妈呀，吓死了那那
身材这么好
妈呀，吓死了那那
嘿嘿我来了
身材这么好
妈呀，吓死了那那
嘿嘿我来了
身材这么好
妈呀，吓死了那那
嘿嘿我来了
身材这么好
妈呀，吓死了那那
嘿嘿我来了
身材这么好
妈呀，吓死了那那
嘿嘿我来了
身材这么好
妈呀，吓死了那那
嘿嘿我来了
身材这么好
妈呀，吓死了那那
嘿嘿我来了
嘿嘿我来了
你的穿着打扮真有品味。
嘿嘿我来了
你的穿着打扮真有品味。
以后看直播不怕营养不够了
嘿嘿我来了
你的穿着打扮真有品味。
以后看直播不怕营养不够了
嘿嘿我来了
你的穿着打扮真有品味。
以后看直播不怕营养不够了
嘿嘿我来了
你的穿着打扮真有品味。
以后看直播不怕营养不够了
嘿嘿我来了
你的穿着打扮真有品味。
以后看直播不怕营养不够了
嘿嘿我来了
你的穿着打扮真有品味。
以后看直播不怕营养不够了
嘿嘿我来了
你的穿着打扮真有品味。
以后看直播不怕营养不够了
你的穿着打扮真有品味。
以后看直播不怕营养不够了
哈哈同姓那那那那
你的穿着打扮真有品味。
以后看直播不怕营养不够了
哈哈同姓那那那那
你的穿着打扮真有品味。
以后看直播不怕营养不够了
哈哈同姓那那那那
你的穿着打扮真有品味。
以后看直播不怕营养不够了
哈哈同姓那那那那
你的穿着打扮真有品味。
以后看直播不怕营养不够了
哈哈同姓那那那那
你的穿着打扮真有品味。
以后看直播不怕营养不够了
哈哈同姓那那那那
你的穿着打扮真有品味。
以后看直播不怕营养不够了
哈哈同姓那那那那
以后看直播不怕营养不够了
哈哈同姓那那那那
哪里人呀主播，
哈哈同姓那那那那
哪里人呀主播，
哈哈同姓那那那那
哪里人呀主播，
哈哈同姓那那那那
哪里人呀主播，
哈哈同姓那那那那
哪里人呀主播，
哈哈同姓那那那那
哪里人呀主播，
哈哈同姓那那那那
哪里人呀主播，
哈哈同姓那那那那
哪里人呀主播，
哪里人呀主播，
明年要去韩国留学啦哈哈哈
哪里人呀主播，
明年要去韩国留学啦哈哈哈
哪里人呀主播，
明年要去韩国留学啦哈哈哈
哪里人呀主播，
明年要去韩国留学啦哈哈哈
哪里人呀主播，
明年要去韩国留学啦哈哈哈
哪里人呀主播，
明年要去韩国留学啦哈哈哈
哪里人呀主播，
明年要去韩国留学啦哈哈哈
明年要去韩国留学啦哈哈哈
我只爱你一个人啊啊啊啊
明年要去韩国留学啦哈哈哈
我只爱你一个人啊啊啊啊
明年要去韩国留学啦哈哈哈
我只爱你一个人啊啊啊啊
明年要去韩国留学啦哈哈哈
我只爱你一个人啊啊啊啊
明年要去韩国留学啦哈哈哈
我只爱你一个人啊啊啊啊
明年要去韩国留学啦哈哈哈
我只爱你一个人啊啊啊啊
明年要去韩国留学啦哈哈哈
我只爱你一个人啊啊啊啊
明年要去韩国留学啦哈哈哈
我只爱你一个人啊啊啊啊
我只爱你一个人啊啊啊啊
主播平时化妆吗
我只爱你一个人啊啊啊啊
主播平时化妆吗
我只爱你一个人啊啊啊啊
主播平时化妆吗
我只爱你一个人啊啊啊啊
主播平时化妆吗
我只爱你一个人啊啊啊啊
主播平时化妆吗
我只爱你一个人啊啊啊啊
主播平时化妆吗
我只爱你一个人啊啊啊啊
主播平时化妆吗
主播平时化妆吗
下巴好好看
主播平时化妆吗
下巴好好看
主播平时化妆吗
下巴好好看
主播平时化妆吗
下巴好好看
主播平时化妆吗
下巴好好看
主播平时化妆吗
下巴好好看
主播平时化妆吗
下巴好好看
主播平时化妆吗
下巴好好看
下巴好好看
美女结婚了吗
下巴好好看
美女结婚了吗
下巴好好看
美女结婚了吗
下巴好好看
美女结婚了吗
下巴好好看
美女结婚了吗
下巴好好看
美女结婚了吗
下巴好好看
美女结婚了吗
美女结婚了吗
可爱而随意。啊啊啊啊
美女结婚了吗
可爱而随意。啊啊啊啊
美女结婚了吗
可爱而随意。啊啊啊啊
美女结婚了吗
可爱而随意。啊啊啊啊
美女结婚了吗
可爱而随意。啊啊啊啊
美女结婚了吗
可爱而随意。啊啊啊啊
美女结婚了吗
可爱而随意。啊啊啊啊
美女结婚了吗
可爱而随意。啊啊啊啊
可爱而随意。啊啊啊啊
憋说大实话！！
可爱而随意。啊啊啊啊
憋说大实话！！
可爱而随意。啊啊啊啊
憋说大实话！！
可爱而随意。啊啊啊啊
憋说大实话！！
可爱而随意。啊啊啊啊
憋说大实话！！
可爱而随意。啊啊啊啊
憋说大实话！！
可爱而随意。啊啊啊啊
憋说大实话！！
憋说大实话！！
主播搬家了吗~~~
憋说大实话！！
主播搬家了吗~~~
憋说大实话！！
主播搬家了吗~~~
憋说大实话！！
主播搬家了吗~~~
憋说大实话！！
主播搬家了吗~~~
憋说大实话！！
主播搬家了吗~~~
憋说大实话！！
主播搬家了吗~~~
憋说大实话！！
主播搬家了吗~~~
主播搬家了吗~~~
哈哈哈哈哈啊啊
主播搬家了吗~~~
哈哈哈哈哈啊啊
主播搬家了吗~~~
哈哈哈哈哈啊啊
主播搬家了吗~~~
哈哈哈哈哈啊啊
主播搬家了吗~~~
哈哈哈哈哈啊啊
主播搬家了吗~~~
哈哈哈哈哈啊啊
主播搬家了吗~~~
哈哈哈哈哈啊啊
哈哈哈哈哈啊啊
悄悄地来哈哈哈哈
哈哈哈哈哈啊啊
悄悄地来哈哈哈哈
哈哈哈哈哈啊啊
悄悄地来哈哈哈哈
哈哈哈哈哈啊啊
悄悄地来哈哈哈哈
哈哈哈哈哈啊啊
悄悄地来哈哈哈哈
哈哈哈哈哈啊啊
悄悄地来哈哈哈哈
哈哈哈哈哈啊啊
悄悄地来哈哈哈哈
哈哈哈哈哈啊啊
悄悄地来哈哈哈哈
悄悄地来哈哈哈哈
主播你是学艺术的吗....
悄悄地来哈哈哈哈
主播你是学艺术的吗....
悄悄地来哈哈哈哈
主播你是学艺术的吗....
悄悄地来哈哈哈哈
主播你是学艺术的吗....
悄悄地来哈哈哈哈
主播你是学艺术的吗....
悄悄地来哈哈哈哈
主播你是学艺术的吗....
悄悄地来哈哈哈哈
主播你是学艺术的吗....
主播你是学艺术的吗....
主播你是学艺术的吗....
主播喜欢金牛男吗??
主播你是学艺术的吗....
主播喜欢金牛男吗??
主播你是学艺术的吗....
主播喜欢金牛男吗??
主播你是学艺术的吗....
主播喜欢金牛男吗??
主播你是学艺术的吗....
主播喜欢金牛男吗??
主播你是学艺术的吗....
主播喜欢金牛男吗??
主播你是学艺术的吗....
主播喜欢金牛男吗??
辣妹子辣，辣妹子辣呀呀
主播喜欢金牛男吗??
辣妹子辣，辣妹子辣呀呀
主播喜欢金牛男吗??
辣妹子辣，辣妹子辣呀呀
主播喜欢金牛男吗??
辣妹子辣，辣妹子辣呀呀
主播喜欢金牛男吗??
辣妹子辣，辣妹子辣呀呀
装端正
主播喜欢金牛男吗??
辣妹子辣，辣妹子辣呀呀
装端正
主播喜欢金牛男吗??
辣妹子辣，辣妹子辣呀呀
装端正
主播喜欢金牛男吗??
辣妹子辣，辣妹子辣呀呀
装端正
主播喜欢金牛男吗??
辣妹子辣，辣妹子辣呀呀
装端正
辣妹子辣，辣妹子辣呀呀
装端正
姐你人气好高哈哈
辣妹子辣，辣妹子辣呀呀
装端正
姐你人气好高哈哈
辣妹子辣，辣妹子辣呀呀
装端正
姐你人气好高哈哈
辣妹子辣，辣妹子辣呀呀
装端正
姐你人气好高哈哈
辣妹子辣，辣妹子辣呀呀
装端正
姐你人气好高哈哈
辣妹子辣，辣妹子辣呀呀
装端正
姐你人气好高哈哈
装端正
姐你人气好高哈哈
装端正
姐你人气好高哈哈
装端正
姐你人气好高哈哈
脸好小啊啊啊
装端正
姐你人气好高哈哈
脸好小啊啊啊
姐你人气好高哈哈
脸好小啊啊啊
姐你人气好高哈哈
脸好小啊啊啊
姐你人气好高哈哈
脸好小啊啊啊
姐你人气好高哈哈
脸好小啊啊啊
姐你人气好高哈哈
脸好小啊啊啊
脸好小啊啊啊
多大了啊你!!!!
脸好小啊啊啊
多大了啊你!!!!
脸好小啊啊啊
多大了啊你!!!!
脸好小啊啊啊
多大了啊你!!!!
脸好小啊啊啊
多大了啊你!!!!
脸好小啊啊啊
多大了啊你!!!!
脸好小啊啊啊
多大了啊你!!!!
脸好小啊啊啊
多大了啊你!!!!
多大了啊你!!!!
喜欢你··
多大了啊你!!!!
喜欢你··
多大了啊你!!!!
喜欢你··
多大了啊你!!!!
喜欢你··
多大了啊你!!!!
喜欢你··
多大了啊你!!!!
喜欢你··
多大了啊你!!!!
喜欢你··
喜欢你··
你走路现的你很有气质。!!!
喜欢你··
你走路现的你很有气质。!!!
喜欢你··
你走路现的你很有气质。!!!
喜欢你··
你走路现的你很有气质。!!!
喜欢你··
你走路现的你很有气质。!!!
喜欢你··
你走路现的你很有气质。!!!
喜欢你··
你走路现的你很有气质。!!!
喜欢你··
你走路现的你很有气质。!!!
你走路现的你很有气质。!!!
做我女朋友不那那
你走路现的你很有气质。!!!
做我女朋友不那那
你走路现的你很有气质。!!!
做我女朋友不那那
你走路现的你很有气质。!!!
做我女朋友不那那
你走路现的你很有气质。!!!
做我女朋友不那那
你走路现的你很有气质。!!!
做我女朋友不那那
你走路现的你很有气质。!!!
做我女朋友不那那
做我女朋友不那那
宝宝好可耐
做我女朋友不那那
宝宝好可耐
做我女朋友不那那
宝宝好可耐
做我女朋友不那那
宝宝好可耐
做我女朋友不那那
宝宝好可耐
做我女朋友不那那
宝宝好可耐
做我女朋友不那那
宝宝好可耐
做我女朋友不那那
宝宝好可耐
宝宝好可耐
好像明星呀~~
宝宝好可耐
好像明星呀~~
宝宝好可耐
好像明星呀~~
宝宝好可耐
好像明星呀~~
宝宝好可耐
好像明星呀~~
宝宝好可耐
好像明星呀~~
宝宝好可耐
好像明星呀~~
好像明星呀~~
好像明星呀~~
主播是网红吗那那那
好像明星呀~~
主播是网红吗那那那
好像明星呀~~
主播是网红吗那那那
好像明星呀~~
主播是网红吗那那那
好像明星呀~~
主播是网红吗那那那
好像明星呀~~
主播是网红吗那那那
好像明星呀~~
主播是网红吗那那那
主播是网红吗那那那
晃的我头好晕呀
主播是网红吗那那那
晃的我头好晕呀
主播是网红吗那那那
晃的我头好晕呀
主播是网红吗那那那
晃的我头好晕呀
主播是网红吗那那那
晃的我头好晕呀
主播是网红吗那那那
晃的我头好晕呀
主播是网红吗那那那
晃的我头好晕呀
主播是网红吗那那那
晃的我头好晕呀
晃的我头好晕呀
太晚啦，睡了哦晚安~~~
晃的我头好晕呀
太晚啦，睡了哦晚安~~~
晃的我头好晕呀
太晚啦，睡了哦晚安~~~
晃的我头好晕呀
太晚啦，睡了哦晚安~~~
晃的我头好晕呀
太晚啦，睡了哦晚安~~~
晃的我头好晕呀
太晚啦，睡了哦晚安~~~
晃的我头好晕呀
太晚啦，睡了哦晚安~~~
太晚啦，睡了哦晚安~~~
我们同名耶。。。
太晚啦，睡了哦晚安~~~
我们同名耶。。。
太晚啦，睡了哦晚安~~~
我们同名耶。。。
太晚啦，睡了哦晚安~~~
我们同名耶。。。
太晚啦，睡了哦晚安~~~
我们同名耶。。。
太晚啦，睡了哦晚安~~~
我们同名耶。。。
太晚啦，睡了哦晚安~~~
我们同名耶。。。
太晚啦，睡了哦晚安~~~
我们同名耶。。。
我们同名耶。。。
同款兔牙
我们同名耶。。。
同款兔牙
我们同名耶。。。
同款兔牙
我们同名耶。。。
同款兔牙
我们同名耶。。。
同款兔牙
我们同名耶。。。
同款兔牙
我们同名耶。。。
同款兔牙
同款兔牙
美美哒宝呀呀呀呀
同款兔牙
美美哒宝呀呀呀呀
同款兔牙
美美哒宝呀呀呀呀
同款兔牙
美美哒宝呀呀呀呀
同款兔牙
美美哒宝呀呀呀呀
同款兔牙
美美哒宝呀呀呀呀
同款兔牙
美美哒宝呀呀呀呀
同款兔牙
美美哒宝呀呀呀呀
美美哒宝呀呀呀呀
你真可爱!呀呀呀呀
美美哒宝呀呀呀呀
你真可爱!呀呀呀呀
美美哒宝呀呀呀呀
你真可爱!呀呀呀呀
美美哒宝呀呀呀呀
你真可爱!呀呀呀呀
美美哒宝呀呀呀呀
你真可爱!呀呀呀呀
美美哒宝呀呀呀呀
你真可爱!呀呀呀呀
美美哒宝呀呀呀呀
你真可爱!呀呀呀呀
你真可爱!呀呀呀呀
怎么连麦呀宝宝那那
你真可爱!呀呀呀呀
怎么连麦呀宝宝那那
你真可爱!呀呀呀呀
怎么连麦呀宝宝那那
你真可爱!呀呀呀呀
怎么连麦呀宝宝那那
你真可爱!呀呀呀呀
怎么连麦呀宝宝那那
你真可爱!呀呀呀呀
怎么连麦呀宝宝那那
你真可爱!呀呀呀呀
怎么连麦呀宝宝那那
你真可爱!呀呀呀呀
怎么连麦呀宝宝那那
怎么连麦呀宝宝那那
今天直播来的好晚啊啊啊啊
怎么连麦呀宝宝那那
今天直播来的好晚啊啊啊啊
怎么连麦呀宝宝那那
今天直播来的好晚啊啊啊啊
怎么连麦呀宝宝那那
今天直播来的好晚啊啊啊啊
怎么连麦呀宝宝那那
今天直播来的好晚啊啊啊啊
怎么连麦呀宝宝那那
今天直播来的好晚啊啊啊啊
怎么连麦呀宝宝那那
今天直播来的好晚啊啊啊啊
今天直播来的好晚啊啊啊啊
这口音我给满分~
今天直播来的好晚啊啊啊啊
这口音我给满分~
今天直播来的好晚啊啊啊啊
这口音我给满分~
今天直播来的好晚啊啊啊啊
这口音我给满分~
今天直播来的好晚啊啊啊啊
这口音我给满分~
今天直播来的好晚啊啊啊啊
这口音我给满分~
今天直播来的好晚啊啊啊啊
这口音我给满分~
今天直播来的好晚啊啊啊啊
这口音我给满分~
这口音我给满分~
这口音我给满分~
主播来聊个十块钱呗····
蓬蓬裙
这口音我给满分~
主播来聊个十块钱呗····
蓬蓬裙
这口音我给满分~
主播来聊个十块钱呗····
蓬蓬裙
这口音我给满分~
主播来聊个十块钱呗····
蓬蓬裙
这口音我给满分~
主播来聊个十块钱呗····
蓬蓬裙
这口音我给满分~
主播来聊个十块钱呗····
蓬蓬裙
肉肉女
主播来聊个十块钱呗····
蓬蓬裙
肉肉女
主播来聊个十块钱呗····
蓬蓬裙
肉肉女
主播来聊个十块钱呗····
蓬蓬裙
肉肉女
主播来聊个十块钱呗····
蓬蓬裙
肉肉女
主播来聊个十块钱呗····
蓬蓬裙
肉肉女
主播来聊个十块钱呗····
蓬蓬裙
肉肉女
主播来聊个十块钱呗····
蓬蓬裙
肉肉女
主播来聊个十块钱呗····
蓬蓬裙
肉肉女
主播来聊个十块钱呗····
蓬蓬裙
肉肉女
肉肉女
你很有想法哦!··
肉肉女
你很有想法哦!··
肉肉女
你很有想法哦!··
肉肉女
你很有想法哦!··
肉肉女
你很有想法哦!··
你很有想法哦!··
你很有想法哦!··
你很有想法哦!··
明天和意外不知哪个会先来，我会努力！！
你很有想法哦!··
明天和意外不知哪个会先来，我会努力！！
你很有想法哦!··
明天和意外不知哪个会先来，我会努力！！
你很有想法哦!··
明天和意外不知哪个会先来，我会努力！！
你很有想法哦!··
明天和意外不知哪个会先来，我会努力！！
你很有想法哦!··
明天和意外不知哪个会先来，我会努力！！
你很有想法哦!··
明天和意外不知哪个会先来，我会努力！！
你很有想法哦!··
明天和意外不知哪个会先来，我会努力！！
明天和意外不知哪个会先来，我会努力！！
我要去凑热闹，，，，
明天和意外不知哪个会先来，我会努力！！
我要去凑热闹，，，，
明天和意外不知哪个会先来，我会努力！！
我要去凑热闹，，，，
明天和意外不知哪个会先来，我会努力！！
我要去凑热闹，，，，
明天和意外不知哪个会先来，我会努力！！
我要去凑热闹，，，，
明天和意外不知哪个会先来，我会努力！！
我要去凑热闹，，，，
明天和意外不知哪个会先来，我会努力！！
我要去凑热闹，，，，
我要去凑热闹，，，，
脸好白呀···
我要去凑热闹，，，，
脸好白呀···
我要去凑热闹，，，，
脸好白呀···
我要去凑热闹，，，，
脸好白呀···
我要去凑热闹，，，，
脸好白呀···
我要去凑热闹，，，，
脸好白呀···
我要去凑热闹，，，，
脸好白呀···
我要去凑热闹，，，，
脸好白呀···
脸好白呀···
主播体重多少啊~~~~
脸好白呀···
主播体重多少啊~~~~
脸好白呀···
主播体重多少啊~~~~
脸好白呀···
主播体重多少啊~~~~
脸好白呀···
主播体重多少啊~~~~
脸好白呀···
主播体重多少啊~~~~
谁要
脸好白呀···
主播体重多少啊~~~~
谁要
主播体重多少啊~~~~
谁要
喜欢橘色口红
主播体重多少啊~~~~
谁要
喜欢橘色口红
主播体重多少啊~~~~
谁要
喜欢橘色口红
主播体重多少啊~~~~
谁要
喜欢橘色口红
主播体重多少啊~~~~
谁要
喜欢橘色口红
主播体重多少啊~~~~
谁要
喜欢橘色口红
主播体重多少啊~~~~
谁要
喜欢橘色口红
主播体重多少啊~~~~
谁要
喜欢橘色口红
谁要
喜欢橘色口红
卖肾给你刷礼物。。。。
谁要
喜欢橘色口红
卖肾给你刷礼物。。。。
谁要
喜欢橘色口红
卖肾给你刷礼物。。。。
谁要
喜欢橘色口红
卖肾给你刷礼物。。。。
谁要
喜欢橘色口红
卖肾给你刷礼物。。。。
喜欢橘色口红
卖肾给你刷礼物。。。。
喜欢橘色口红
卖肾给你刷礼物。。。。
卖肾给你刷礼物。。。。
蓝受香菇，
卖肾给你刷礼物。。。。
蓝受香菇，
卖肾给你刷礼物。。。。
蓝受香菇，
卖肾给你刷礼物。。。。
蓝受香菇，
卖肾给你刷礼物。。。。
蓝受香菇，
卖肾给你刷礼物。。。。
蓝受香菇，
卖肾给你刷礼物。。。。
蓝受香菇，
卖肾给你刷礼物。。。。
蓝受香菇，
蓝受香菇，
好萌呀！！
蓝受香菇，
好萌呀！！
蓝受香菇，
好萌呀！！
蓝受香菇，
好萌呀！！
蓝受香菇，
好萌呀！！
蓝受香菇，
好萌呀！！
蓝受香菇，
好萌呀！！
好萌呀！！
人气好高呀?
好萌呀！！
人气好高呀?
好萌呀！！
人气好高呀?
好萌呀！！
人气好高呀?
好萌呀！！
人气好高呀?
好萌呀！！
人气好高呀?
好萌呀！！
人气好高呀?
好萌呀！！
人气好高呀?
两位都凶
人气好高呀?
两位都凶
哪款气垫bb好用！！
人气好高呀?
两位都凶
哪款气垫bb好用！！
人气好高呀?
两位都凶
哪款气垫bb好用！！
人气好高呀?
两位都凶
哪款气垫bb好用！！
人气好高呀?
两位都凶
哪款气垫bb好用！！
人气好高呀?
两位都凶
哪款气垫bb好用！！
人气好高呀?
两位都凶
哪款气垫bb好用！！
两位都凶
哪款气垫bb好用！！
主播头发是什么颜色???
两位都凶
哪款气垫bb好用！！
主播头发是什么颜色???
两位都凶
哪款气垫bb好用！！
主播头发是什么颜色???
两位都凶
哪款气垫bb好用！！
主播头发是什么颜色???
两位都凶
哪款气垫bb好用！！
主播头发是什么颜色???
两位都凶
哪款气垫bb好用！！
主播头发是什么颜色???
两位都凶
哪款气垫bb好用！！
主播头发是什么颜色???
哪款气垫bb好用！！
主播头发是什么颜色???
主播头发是什么颜色???
想去接发，有推荐的店吗~~
主播头发是什么颜色???
想去接发，有推荐的店吗~~
主播头发是什么颜色???
想去接发，有推荐的店吗~~
主播头发是什么颜色???
想去接发，有推荐的店吗~~
主播头发是什么颜色???
想去接发，有推荐的店吗~~
主播头发是什么颜色???
想去接发，有推荐的店吗~~
主播头发是什么颜色???
想去接发，有推荐的店吗~~
你在干嘛
想去接发，有推荐的店吗~~
你在干嘛
自古美人配美酒！
想去接发，有推荐的店吗~~
你在干嘛
自古美人配美酒！
想去接发，有推荐的店吗~~
你在干嘛
自古美人配美酒！
想去接发，有推荐的店吗~~
你在干嘛
自古美人配美酒！
想去接发，有推荐的店吗~~
你在干嘛
自古美人配美酒！
想去接发，有推荐的店吗~~
你在干嘛
自古美人配美酒！
想去接发，有推荐的店吗~~
你在干嘛
自古美人配美酒！
想去接发，有推荐的店吗~~
你在干嘛
自古美人配美酒！
你在干嘛
自古美人配美酒！
你在干嘛
自古美人配美酒！
你在干嘛
自古美人配美酒！
你在干嘛
自古美人配美酒！
你在干嘛
自古美人配美酒！
你在干嘛
自古美人配美酒！
自古美人配美酒！
怎么好几天没播了呀，干嘛去啦?
怎么好几天没播了呀，干嘛去啦?
怎么好几天没播了呀，干嘛去啦?
怎么好几天没播了呀，干嘛去啦?
怎么好几天没播了呀，干嘛去啦?
怎么好几天没播了呀，干嘛去啦?
怎么好几天没播了呀，干嘛去啦?
怎么好几天没播了呀，干嘛去啦?
怎么好几天没播了呀，干嘛去啦?
来聊个一块钱的·
怎么好几天没播了呀，干嘛去啦?
来聊个一块钱的·
怎么好几天没播了呀，干嘛去啦?
来聊个一块钱的·
怎么好几天没播了呀，干嘛去啦?
来聊个一块钱的·
怎么好几天没播了呀，干嘛去啦?
来聊个一块钱的·
怎么好几天没播了呀，干嘛去啦?
来聊个一块钱的·
怎么好几天没播了呀，干嘛去啦?
来聊个一块钱的·
来聊个一块钱的·
来聊个一块钱的·
来聊个一块钱的·
来聊个一块钱的·
来聊个一块钱的·
来聊个一块钱的·
来聊个一块钱的·
来聊个一块钱的·
