^_^^_^
?
??????????
???????????????
.
..
....
(★^㉨^★)
(⁎⁍̴̛ᴗ⁍̴̛⁎)
(⁎⚈᷀᷁ᴗ⚈᷀᷁⁎)
…
☺ ☺ ☺
😘
👻 👻 👻
😃 😃 😃 😃
😍 😍 😍 😍 😍 😍
🎂 🎂 🎂 🎂 🎂 🎂 🎂 🎂
😁 😁 😁 😁 😁 😁 😁 😁 😁
？？
😍😘
。。，
😍😍😍
。。。。。
😍😍😍😍
🎂🎂🎂……
😭😭😭😭😭
❤❤❤❤❤❤❤
😔😔😔😔😔😔
👯‍♂️👯‍♂️
💖💖💖💖💖💖💖
❤️❤️❤️❤️❤️
🍻🍻🍻🍻🍻🍻🍻🐗
😘😘😘😘😘😘😘😘😘
🎂🎂🎂🎂🎂🎂🎂🎂🎂🎂🎂
👏🏻👏🏻👋🏻👋🏻👋🏻✋🏻
👄👄👄👄👄👄👄👄👄👄👄👄👄👄👄
🎂🎂🎂🎂🎂🎂🎂🎂🎂🎂🎂🍭🍭🍭🍭🍭🍭
❤️❤️❤️❤️❤️❤️❤️❤️🍓🍓🍓🍓🍓🍓🍓
😊😊😊😊😊😊😊😊😊😊😊😊😊😊😊😊😊😊😊😊
0505
1
100M的光纤带不动这个直播
11
1111
12
13131313131313131313131313131313131...
13哥生日快乐
18岁人刚刚成人
1996
21
22222
22 看你刘星长大的 哈哈😄
23333
2️⃣5️⃣
25了
25加油
25啦该找女朋友啦
25岁了，时间过得好快吖
25岁生日快乐
25岁生日快乐永远的刘星
25岁的你很好
25岁的你生日快乐
(๑°3°๑)
30了就不爱你了
⁽˙³˙⁾◟(๑•́ ₃ •̀๑)◞⁽˙³˙⁾
333
33333335525
(*￣3￣)╭♡❀小花花砸你
4
441555953
4g吧
4G吧。
4g走一波
5
6
66
666
6666
66666
666666
6666666666666
66666666666666666666666
7
88
886
😜8888888
911
92
҉٩(*^㉨^*)۶
9卡
a真的会看
boom shaka laka
CF
CF约吗
d
Ddfd
Feliz cumpleaños
food
。h。|
haoka卡
happy
happy birthday
happy birthdayhappy birthdayhappy b...
Happy birthday Z Y S
hello
Hello
hello一山
hhhhh
hi
Hi
hihihi
hi，生日快乐
hi，高能少年
h帅
jin tian sheng ri ma
k
k。
K
ka
ka ka
ka ka ka ka ka ka ka ka ka a ka ka ...
ka ka kka ka ka ka ka ka ka kka ka
kasiwole
kazhule
KKK
la la la
liuxing
l'm hear 甘甘
l卡
mua
my love
need argv: [in_url_file]
(⊙o⊙)…
ok
OK
oo
Owhat开屏是你哎
ppt
shengeikuailk
shsngē 累了吗
sshangsh我喜欢lam我喜欢
s卡的啥也听不到
^V^
vv
vvvv
woli山啊
wow
wuling宝贝儿
wuli哥
wuli山山
WuLi张一山
xh喜欢你
xiangxinni
yan ji bu cuo
yi huang er guo a
you say what is what… …………………………………...
you too
yuzui
π_π
( ,,´･㉨･)ﾉ"(´っω･｀｡)摸头
( •̥́ ㉨ •̀ू )嘤嘤嘤~
一一
一三
一下子出来这么多
一个😄
一个字.就是干！
一切尽在不言中，
一到你说事情 就卡
一副老大爷的气派
一动不动呢
一卡一卡的
一卡就想给你截屏╭( ′• o •′ )╭☞就是这个人！
一句话 爱你 爱你 爱你
一句话都听不完
一定
一定会去做的，真的特别特别好的这个事情！
一定会帮你实现的
一定会看的
一定帮你实现
一定干
一定支持
一定看
一山
一山一山
一山一山一山一一山一山一山山一山一山一山一山一山一山一山一山
一山 一山 一山 一山
一山一山一山一山亮晶晶
一山一山一山加油加油加油↖(^ω^)↗↖(^ω^)↗↖(^ω
一山一山亮晶晶
一山一山亮晶晶 生日快乐~
一山，一山，最帅
一山不说话了
一山么么哒
一山你好
一山你好😊
一山你的理想生活是什么
一山你的黑眼圈好严重
一山，你看起来好累啊，去休息吧，生日快乐
一山兄，晚上好
一山加油
一山，加油
一山加油↖(^ω^)↗↖(^ω^)↗↖(^ω^)↗↖(^ω^
一山又帅了
一山哥
一山哥，你们在哪录节目，长安哪？我想去看你
一山哥你在东莞是吗
一山哥，你在干什么
一山哥你的理想生活是什么
一山哥 俊凯呢
一山哥划船去😂😂
一山哥，加油！加油！加油！
一山哥可以回我吗！
一山哥哥
一山哥哥！
一山哥哥 余罪3什么时候播啊
一山哥哥好
一山哥哥微博上送你的一封信 收到了吗
一山哥哥微博上送你的一封信 收到了吗 看了
一山哥哥微博上送你的一封信 收到了吗 看了吗
一山哥哥怎么不动了
一山哥哥我爱你生日快乐
一山哥哥生日快乐
一山哥哥 生日快乐
一山哥哥，生日快乐
一山哥哥生日快乐！
一山哥哥生日快乐🎂
一山哥哥生日快乐，知道你说的是啥
一山哥，喜欢打篮球吗
一山哥好
一山哥好帅
一山哥我从小就喜欢你了
一山哥我爱你
一山哥支持你！
一山哥旁边是谁啊
一山哥，来自芦苇的祝福生日快乐！
一山哥生日快乐
一山哥，生日快乐
一山哥，生日快乐，越来越帅
一山哥 生日快樂
一山哥真棒
一山啊
一山！喜欢你演的刘星
一山好峰光！
一山，好帅
一山好锋光
一山好锋光~!~~!!!!!!!
一山好锋光~!~!~!~!~!~!
一山好锋光~!~!~!~!~!~!~!!
一山好锋光~!@
一山好锋光-
一山好锋光,,,.
一山好锋光!~!!!!~
一山好锋光..,,,,,,,
一山好锋光'
一山好锋光';;
一山好锋光'''
一山好锋光\
一山好锋光棒
一山宝宝
一山宝宝，你的小凯宝宝呢
一山宝宝生日快乐
一山宝宝，生日快乐
🎭一山小兄弟🎭
一山帅哥
一山很中肯实在，主持人就虚多了
一山，很有心
一山我从小就vj一山一山我从小就喜欢你
一山我爱你
一山 早点休息吧 今天生日呢
一山更比一山高，努力呀
一山最帅
一山最帅，
一山最棒
一山，正在剪你和杨紫的高能呢
一山爱你
一山。爱你。永远支持你
一山特别帅
一山现在还在播？
一山生日快乐
一山 生日快乐
一山，生日快乐
一山生日快乐！
一山生日快乐😙
一山生日快乐，天天开心
一山，生日快乐，永远开心
一山电话
一山，真好，棒棒哒
一山真棒
一山累吗
一山老公
一山胸，生日快乐呀💋 超爱你那个撇撇的气质👄
一山表白❤️
一山要娶老婆了
一山要娶老婆拉这个年龄
一山谢谢你对小凯的照顾！
一山身日快乐
一晃而过啊
一点都不动了
一生只爱一山一人
一直卡
一直卡一直重复
一直卡着
一直听不见
一直开心
一直很喜欢
一直恩
一直播人一多就卡
一直播是真卡
一直播特么太卡
一直支持你
一直期待七个我
一直看
一直重复
一看就是在宾馆
一秒一卡
一认真就变双眼皮，啊哈哈
一起做
一起加油吧
一起努力
一起努力 加油
一起干
一辈子记住你
😁一边加班，一边看着你
一边吃一边聊啊
一边大
一边看你演的电视剧《我的父亲我的兵》，一边看直播
一进来就卡
一进来就是老干部发言
三个字
三个注意身体
三哥，加油
三哥直播要唱歌才有意思
三岁
三遍最后一遍卡住了
上帝不会亏待努力的人的啦
下冰雹
下饭
下饭神器
不
不一样的就是
不会吧
不会把金钱给他们吧
不动了
不卡
不卡！
不卡不卡
不卡啦
不好
不好了
不好意思来晚了
不对啊
不开心花钱买罪受
不弄了
不得了爱上你无法自拔了
不想播
不懂
不拍家有儿女吗？
不播了吗
不敢相信是4G
不是一般的卡啊 你们也是吗
不是刚才卡是一直在卡
不是吧
不是呀，你是全部
不是天蝎坐的吗
不是我们的问题
不是我卡吧
不是染个我？
不是过几个月就高考了吗
不看了，。1卡的一逼哦
不知说啥
不知道
不知道不知道
不知道没听着
不管怎么说都支持你
不能
不能看啊
不能这样啊
不行
不要
不要啊，我才刚来
不要太累！！！！！！
不要感谢可生疏了
不要走啊
不过还是喜欢你啊
与你相遇很幸运
专业，不错不错😊
世界上所有事情都不及你啊老公
东莞
中考过后，北京偶遇你哈哈😄
丸子
丸子我爱你
丸子爱你
丸子爱你哟
为什么不回复我们
为什么不说话
为什么余罪看不了
为什么卡？
为什么就看你的直播卡呢？
为什么很卡😂
为什么感觉这么卡啊
为什么我只能看到下巴
为什么我看不到脸
为什么看不到人啊
为什么看不到啊
为什么还不找女朋友😂😂😂😂
为什么这么卡
为什么这么卡？
为什么这么卡呀
为什么这么卡呢😯
为什么这么喜欢你么
为什么那么卡
为何那么卡
为你的公益行为大大点赞👍👍👍👍👍👍👍👍👍
为啥会这么卡呢
为啥卡
为啥咋么卡
为啥在电视里看就觉得像地主家的傻儿子，这样直播就好帅⊙▽⊙
为啥我这边一直重复
为啥老卡
为啥还不吃？
为啥这么卡
为啥这么卡呀！
为毛卡住了
为毛这么卡
为自己 为未来
丽姐
举高点
么么
么么么
么么么么
么么么么么么
么么么么么么么么么么么么么么么么么么么么么么么么么么么么么么
么么么么么么哒
么么么么哒
么么哒
么么哒么么哒么么哒么么哒么么哒么么哒么么哒么么哒么么哒么么哒
么么哒。梦想梦想梦想
么么扎
么人了
么哒
么声音
也做饭
也感谢你以那么好的姿态出现在大家面前 勉励大家 加油
也成熟好多啊
也要照顾好你自己
了不起
二哥
二哥二哥
二哥你这是堕落了啊
二哥你黑眼圈好重
二哥 唱歌唱歌
二哥，声音真好听
二哥好
二哥好帅
二哥好帅呀
二哥好帅啊
二哥 最棒了
二哥生日快乐
二哥，生日快乐
二啊你
二嫂在哪里
二维码
二维码发微博
二维码扫不了
二维码看不清
二维码高点举，被送的礼物挡住了，二维码是干嘛的
于最
交个女朋友
京腔啊啊啊啊啊啊
亲闺蜜巨喜欢你 希望能要到你的签名
人也太多了
人呢
人呢？
人呢？？
人呢！！！
人哪
人哪人们
人啦
人嘞
人多，卡人多，卡
人多的卡疯了
人太多
人太多la
人太多了
人太多了 ～
人太多了哈哈哈哈
人太多卡
人太多卡住了
人太多卡的吗？
人太多太卡，撤了哥
人太多，服务器不行？
人好多
人好多人好多
人好多，总卡，好多人都很喜欢你，真好，加油
人家又不是歌手
人家都听不到看不见
人民的名义，黄毛都让你演呢
人生有意义真好
人生第一次看直播，
人类
人那
人长的这么快
什么
什么不好看
什么呀
什么呢
什么 就收尾了？我才来
什么意思
什么戏
什么时候交女朋友
什么时候去吃饭呀不饿啊你
什么时候拍余罪啊
什么时候播
什么时候播，想看！什么时候播，想看！什么时候播，想看！
什么时候来安徽呀
什么时候来成都玩啊？
什么时候还会直播
什么时候还直播
什么破网速，卡啊，扎心啊
什么网络啊.可以的
什么鬼
什么鬼⚆_⚆
什么鬼啊
仇人
今？
今个还在看高能少年团
今天也我的生日，生日快乐
今天也是我生日
今天也是我生日😊
今天也是我生日哦
今天也是我生日啊啊啊
今天也是我生日 好幸运啊
今天你生日啊
今天发型特别酷
今天吃的啥饭
今天听说我同学他爸和杨紫她爸是同事，辗转四个人咱俩就有关系
今天就去做公益了！5.5一定要过的有意义！
今天我也是生日
今天我也生日！
今天我也过生日，山哥同乐
今天我生日😂
今天玩的開心嗎🙋
今天生日咋过的呐？？
今天生日早点休息
今天的发型好帅
今天看到你了
今天看到你们了，好开心
今天还给你点歌了
今年呢
今晚听了很多鸡汤阿
今晚怎么过生日呀
今晚高能不见不散
从小就喜欢你拍的戏，生日快乐一山，你是最棒的
从小看你戏长大的，哈哈哈哈哈哈
从小看你长大的
从小看刘星长大
从小看家有儿女，完了我坐沙发哭了好久，说liu xing mei yo...
从小跟你一起长大
从小跟你一起长大！👄
他
他在东莞
他好了好了
他爱我
代表小凯发来祝贺，生日快乐
以后一直开开心心
以后东莞开演唱会
以后多直播
以后多直播把
以后的路还长
任他这么卡？？？
休息下
休息休息
休息吧
休息吧~ 大哥 😘
休眠
众人火柴高
优秀
会的会的
会看哒
会看的
估计人太多
但是一定不要挂
但还是看得很开心
住了
何止是有点
余zu超期待春风
余儿
余罪
余罪？？？？？
余罪2什么时候上
余罪2什么时候出啊
余罪2啥时候出！！
余罪2啥时候播
余罪3
余罪33333333
余罪3什么时候上映
余罪3什么时候出
余罪3什么时候播呀
余罪3呢？
余罪3啥时候上映哎
余罪3啥时候播呀
余罪3多会出呀
余罪3多会出呀余罪3多会出呀余罪3多会出呀
余罪3好久来？
余罪3快拍完了吗？？？
余罪3是不是请不起你不拍了
余罪3有没有消息呀
余罪3还播吗
余罪3⃣️ 还有吗
余罪三
余罪三上映吗
余罪三什么时候上映
余罪三什么时候上映呀
余罪三什么时候上映？山哥
余罪三什么时候播
余罪三余罪三余罪三余罪三余罪三余罪三余罪三
余罪三多会儿开播啊好期待啊
余罪三拍吗
余罪为啥禁播了
余罪二什么时候播出
余罪什么时候出
余罪什么时候拍
余罪什么时候播
余罪什么时候播出
余罪余罪余罪呢？？？！！！
余罪出吗？
余罪加油
余罪呢
余罪呢？
余罪咋还没出呢
余罪唱歌
余罪唱那就这样吧
余罪啥时候播
余罪啥时候播呀
余罪夏东海被陆毅抓了
余罪好啊
余罪 永远挺你
余罪第三季？
余罪第三季什么时候出
余罪还出么
余罪还有3吗
余罪还有吗
余醉
你
你一笑脸咋那么多褶子
你不吃吗？
你为什么这么帅
你也今天过生日啊？我小姨也是哦(*ˉ︶ˉ*)
你也吃饭吧
你也开心！
你也快找到女朋友吧
你也是
你也要好好的
你也要开心
你今天多少岁啊一三
你从小就看家有儿女
你他妈真帅
你们刷的我都没法截图了
你们卡吗
你们发的也忒快了
你们在东莞对不对，走了吗？
你们怎么都在看我老公直播呢！
你们有病啊，刷这么快，这么卡
你们来广州了吗？
你们那边人进去看下
你们都卡不卡
你会越来越好的
你來了東莞了
你做做法我们很赞同
你做好自己就行
你像个表情包
你像没睡醒一样…
你先去吃饭吧
你先吃饭 我们等你
你先退出，重新弄一次
你再聚一下我要截图扫描
你再说一边啊，刚刚来，不知道你说了什么
你再说一遍吧
你再说啥啊你再说傻啊
你刚才说过了
你别光顾着聊天，边吃饭
你卡
你卡住了
你卡成了四倍快进
你卡成鬼畜了 山
你卡还是我们卡
你卡还是我卡啊
你去休息，吃点饭吧，这样你太累啊
你去吃饭吧
你去吃饭吧，不能看你饿着啊
你去吃饭吧去吃饭吧
你去那～跟你走
你又帅了
你又瘦啦！没有好好吃饭吧
你又老了
你又讲啦
你可以直播吃饭的e
你吃饭去吧
你吃饭吧
你吃饭没
你咋了
你咋在东莞
你和俊凯特别好，希望你们一直好好的
你和我哥一样大
你和我姥爷一天生日，哈哈啊哈哈
你和杨紫怎么了
你和杨紫是兄妹关系。
你和高能在一起吗
你唱歌嘛
你喜欢你的小凯宝宝吗？
你喜欢啥样的
你回答问题吧
你困么
你困了就睡觉吧
你在东莞
你在东莞？
你在东莞呀！
你在东莞哪
你在东莞哪里呀
你在东莞哪里啊？我也在东莞
你在哪
你在哪呢
你在哪里
你在哪里？
你在干嘛
你在干嘛呢
你在广东吗山哥
你在我眼里最好
你在東莞？
你在深圳吗
你在说些什么哦
你在说什么，我听不见，太卡啦😳😳
你声音苏哭😭
你多大
你多高啊哥
你太卡啦
你太温暖啦！
你好
你好，
你好^ω^
你好啊
你好好休息
你好好哦
你好帅
你好帅呀
你好帅哦
你好帅啊啊啊啊
你好帅，生日快乐
你好棒
你姐送你什么生日礼物和礼物啊 粉丝都想知道
你定一下
你家住哪儿 我去偶遇你
你家在哪？
你家小凯宝宝嘞
你小凯宝宝呢 你的小凯宝宝呢
你就是你，不一样的烟火！爱你。
你就是我的愿望
你居然在东莞！
你已经卡到外星了
你已经暂停了
你开心快乐就好😘
你很像一个人
你很出色啊
你很好看感冒啦
你很棒
你很瘦
你很细心，我喜欢你
你快去吃饭吧
你快去吧
你快吃吧
你快吃饭吧
你怎么找到那些小朋友呢问题是
你怎么蹲着
你怎么这么帅
你怎么那么好看呀
你手机是不是有问题
你才是我的梦想
你找个信号好点地方哥
你找个女朋友吧
你把脸往上点 都看不到啦
你拍家有儿女一的时候几岁？
你拍的电影好好看，加油!
你拍的都好看
你收到最多的是卡
你是一个很有正能量的人！
你是不是傻
你是个好男人
你是刚录完高能少年团吗？衣服的logo
你是困了吗
你是张一山吗
你是我最喜欢的男星 没有之一
你是我的偶像
你是我的童年
你是最棒的
你是没睡觉吧
你是猪吗
你是真的张一山
你最好啦
你最帅
你最棒
你最棒！！！！
你最棒了
你最近在拍什么戏
你最近好吗
你有没有觉得你这几年跟打了鸡血一样？
你没睡好觉吗
你活泼点
你演什么我都看
你演的电视剧确实可以
你特别棒，我特别喜欢你
你现在出类拔萃了已经
你现在在东莞
你现在在哪呢？
你现在在哪啊
你现在在哪里
你现在在家？
你现在在干嘛
你现在累不
你生日啊？
你用的流量还是用的WiFi啊！
你的价值很大
你的作品都很好看
你的俊凯宝宝呢
你的凯宝宝呢?
你的凯宝宝呢？
你的努力，我们都看的到，棒棒的你
你的努力我都喜欢
你的双眼皮不见啦
你的嘴呢哥
你的声音很好听！
你的声音贼性感
你的太卡啦
你的妥协都是值得的
你的宝宝呢
你的小凯宝宝呢
你的愿望就是我们的愿望！
你的我问题啊废物
你的牙齿好看
你的生日是母亲的受难日
你的直播咋这么卡啊
你的网路不好
你的脚呢好了没
你的都看 ❤
你看的到吗
你看着好困
你看着好困a
你看着好困a 早点睡觉吧山哥
你真好看
你真帅，生日快乐！
你真有爱心
你真棒
你真棒👍
你真棒棒
你真的是张一山吗
你睁不开你的眼睛吗
你累了
你能看到我说话吗
你能看清楚弹幕嘛
你能看见我说话不
你能祝我生日快乐吗，一山哥哥，我今天也过生日
你腿好了吗？
你腿好了吗？你腿好了吗？😶
你自己想干嘛
你若安好，便是晴天
你衣服也没换啊，刚看到俊凯的微博
你要不先去吃饭吧
你要不要去看看
你要开心啊!拜拜！早点睡
你要成为我的屏保了
你要继续加油噢！
你要越来越好
你觉得你帅么
你认识徐黄丽吗？
你说什么都对
你说什么都答应你。
你说你怎么不胖呢
你说啥。
你说啥了
你说啥呢 卡的听不懂
你说气不气
你说演那种比较硬汉的形象总感觉差点啥
你说的对
你说的都是对的
你说的鸡汤我干了
你说都对
你谁啊
你资助我嘛
你赶紧吃
你跟王俊凯关系好吗
你还
你还不吃晚饭啊
你还会来广西马山吗？
你还年轻
你还没吃饭啊
你还没找到嘛哈哈哈
你这是在和谁说话？
你这是在哪里啊！
你这网不行啊
你那边
你那边信号不好。
你那边卡还是
你都没有精神都，，咋了？
你重复的像卡的一样
你重新开一遍呗
你长得真帅
你长的像我初恋
你饿了吗
你黑眼圈太重了
佳佳佳佳佳佳佳佳佳佳佳佳佳佳佳佳佳佳佳佳佳佳佳佳佳佳佳佳佳佳
俊俊在广州嘛
俊凯不来吗
俊凯在哪😍
保留一下回放吧
信号不好！
信号不好吗
信号那么差吗？？？卡成狗啊
倒着的！
倒过来
值得
值得大家学习
值得的
做作业去喽
做你想做的错了算我们的
做你自己！！！！！！！
做你自己就好了
做你自己很好
做公益！！
做力所能及的公益
做啥
做得好
做最真实的你
做最真实的自己
做真实的自己
做自己
做自己就好
做自己就好，过自己想过的生活
做自己想做的事
停住了
健康
偶像，可以说我名字吗
偷偷看直播
偷偷说什么呢
傅老大
傅老大呢？
傅老大来吗？
傲娇的一山
傻
傻了
傻傻傻傻
傻笑啥呢
像黄子韬
儿子
儿时男神
兄弟啊我的兄弟
先别说呢卡着呢
先去吃饭吧
先吃饭
先吃饭了
先吃饭去吧
先走了，拜拜
光看脸了
全力以赴
全都挡住了
八号是我生日！
公益
公益！
公益事业大家都支持
公益 呼吁大家一起来 明白了
公益好啊！我也喜欢
公益山好棒👍
公益 棒棒哒
公益，棒棒哒
关了重开吧
关注了
关注度嘛关注度
关注我
关键有能力了，然后想回报一下社会
关键部分又卡住
其实一山哥我想看看你高能少年团的兄弟们🌝 🌝
具体怎么做
再一次卡住
再复读一遍，谢谢
再广州吗
再得瑟
再来一遍二维码
再爱都曲终人散拉
再见
再见！
再见啦！！！爱您！
再说一遍
再说一遍也卡
再说一遍吧
再过四小时长大了
写信往哪寄啊？
冬天还要拍什么戏
准备再去吃点东西
减肥
凑合能听
几时结婚啊
凯凯不来吗？凯不来?凯凯不来吗？凯凯不来吗？凯凯不来吗？凯凯
凯凯不来吗没
凯凯在你旁边么
凯凯在吗？
凯凯本人帅吗
凯哥嘞
凯在不在你旁边？
凯宝宝呢
凯宝宝呢？
凯宝宝呢？凯宝宝呢？凯宝宝呢？
出去度个假，放松一下心情
出来再进还卡
出来飙车呀
划的太快了
刘昊然刘昊然！！！！！
刘星
刘星！
刘星⭐ ⭐
刘星！！！
刘星你好
刘星 你就长这么大了？
刘星你干嘛呢
刘星刘星刘星
刘星，别闹
刘星又考二分了
刘星哥哥
刘星哥哥生日快乐
刘星唱那就这样吧
刘星 张一山 余小二 我都爱
刘星 我来了
刘星生快生快生快生快
刘星生日快乐
刘星，生日快乐
刘星生日快乐泰勒
刘星，网很卡哎
刘星讲什么？
刘星这几天好像天天都在热搜上呢
刘星，都长这么大了！！！
刘星长大了
刘星 长大啦
刘星长大啦！！
刚以前
刚刚在你粉丝那浪了一圈
刚刚在看家有儿女
刚刚笑的好傻哦，可爱
刚好遇见
刚才八年级GV
刚才弹幕温柔媛妹啊
刚才有个男的说要嫁给你
刚来就卡
刚来就卡住了
刚来就结束了？
刚看完热血青春
刚看完高能少年团
刚看过高能少年团
刚进来
刚进来，你说什么都听你的
刚进来，再说一遍
刚进来，没听见
别
别人不卡
别光顾着何
别刷了
别刷屏
别刷屏！！！！！
别卡
别啃手
别太拼
别太累
别太累了
别忘了吃饭啊
别老说生日快乐啦朋友们
别让他跑了
别讲大道理啦
别说吃饭的事，这里还饿着开会呢
别走
别送礼物挡脸了
别那么正经
到啦
到底快吃吧
刷太快了
刷屏别刷了
刷屏太快
刷屏太快了
刷屏 眼花缭乱啊 人气棒
刷得我快看不见你了😂
刷的太快了
刷的好快啊
刷的眼花
刷的都看不见山哥脸了
刷那么快
刷频
前几天看见你本人了来我们学校拍戏了
加油
加油！
加油⛽️
加油shan
加油↖(^ω^)↗
加油一山！！！！！！！
加油一山哥❤
加油，你已经做的很好了，望你更好
加油你是最帅的
加油，你最棒
加油加油
加油，加油
加油加油再加油
加油加油加油
加油！加油！加油！
加油加油加油加油加油加油加油加油加油加油加油加油加油加油
加油加油加油加油加油加油喜欢你
加油加油加油！！！永远支持你，要天天开心哟！
加油吧
加油吧！相信你
加油吧骚年
加油哇
加油哈，越来越好，越来越棒😁
加油哥哥
加油，哥哥
加油哦
加油啊
加油山哥
加油，山哥
加油 山哥 生日快乐 生日快乐生日快乐 生日快乐
加油 山妈
加油！很棒！
😊😊😊😊😊😊加油，我们一起来
加油，我们都在
加油我支持你
加油，我支持你
加油，挺你
加油，支持
加油生日快乐
加油相信你
加油，给我们正能量啦！
加油，超喜欢你
加油高能少年
动不了啦
动不动就卡
动听的声音凸^-^凸
努力
努力了看不到结果了
努力努力努力
努力吧
努力生活努力工作努力爱身边的每一个人！
努力的人都值得被称赞
努力的生活 努力的工作 努力的爱身边的每一个人
包
北京大老爷们
北京有那个地方住宿便宜嘛
北京纯爷们儿
十句听到两句就很不错了
半截半截的
卖萌？
卡
💔卡
卡~
卡，
卡😂
卡！！！
卡！！！！
卡………………
卡kaka
卡l
卡一山。。
卡一山😘😘😂🤦‍♂️
卡，一直在卡
卡不
卡丝了
卡丝的
卡主了
卡也要看你
卡住
卡住……
卡住不动了
卡住不动了，我的妈
卡住不动了我的妈 一直重复这句哈哈
卡住了
卡住了？
卡住了😂
卡住了么
卡住了也帅气
卡住了，伤心
卡住了呢
卡住了啊
卡住了 好气哦
卡住了特别卡
卡住啦
卡住惹
卡佛祖日本语体测魔域8日本
卡出一片天
卡出了新天际
卡出了新高度
卡出去了😳
卡出去无数次
卡出回音，卡带了。
卡出天际
卡出天际了
卡出新世纪
卡出新高度啊
卡出翔了
卡出表情包了
卡出那啥了～哈哈😄
卡 别刷了
卡到一句话说三遍
卡到不会动了
卡到倒带
卡到动不了了
卡到听不到你说话
卡到崩溃
卡到心梗
卡到心痛
卡到怀疑人生
卡到我怀疑人生
卡到死
卡到没有包
卡到没有声音
卡到没朋友
卡到爆
卡到爆炸
卡到爆炸啊
卡到糊住脸
卡到绝望
卡到说话断断续续
卡到飞
卡到飞起
卡到鬼畜
卡到鬼畜 卡到鬼畜 卡到鬼畜卡到鬼畜 卡到鬼畜 卡到鬼畜
卡司
卡吗
卡，听不清
卡呀
卡呀。生日快乐。
卡咋了
卡咯
卡哇
卡哈
卡 哈哈哈
卡哦
卡哭了
卡哭了……
卡哭我，
卡啊
卡啊！
卡啊卡啊
卡啊啊啊啊
卡啊啊啊啊啊
卡啊大哥！
卡啊 山哥
卡啦
卡啦噶，
卡啦，小哥哥
卡嘛？
卡噢
卡在一个完美的位置😂😂😂
卡奶奶样了
卡好了
卡完了
卡屎了
卡山哥
卡崩了
卡带加快进…
卡 很卡
卡得不行了
卡得不要不要的
卡得你没动
卡得好难受
卡得很
卡得起飞
卡得飞起
卡愣子了
卡成GIF都说不上
卡成ppt
卡成PPT
卡成PPT😂
卡成ppt了
卡成PPt了！！！！
卡成个这
卡成了复读机哈哈哈哈
卡成复读机
卡成复读机😂
卡成复读机了
卡成复读机了，山哥
卡成照片了😂
卡成狗
卡成狗了
卡成狗，想听你讲话听不了
卡成电子狗
卡成相片了
卡成结巴
卡成表情包了
卡成这样
卡成这样！。
卡成这样还直播个毛线啊
卡成鬼畜
卡成鬼畜了😂
卡拉
卡拉卡拉
卡拉卡拉卡拉卡拉
卡拉欧克
卡掉了
卡掉了20多万人
卡撕了
卡没了
卡没声音
卡炸
卡炸了
卡点不要不要的
卡爆
卡爆了
卡爆了。。。。。
卡爆了啦卡爆了卡爆了
卡爆了 居然卡到另外的女主播上去了
卡爆炸
卡狗
卡，生日快乐
卡疯了
卡的
卡的一批
卡的一批啊
卡的一笔
卡的一起打个卡
卡的不能看
卡的不行
卡的不行不行的了
卡的不行啊
卡的不要不要的
卡的人都走了
卡的你好可爱😂
卡的像说唱
卡的卡的什么也听不懂
卡的可怕
卡的听不全啊
卡的听不清
卡的听不清楚
卡的呀
卡的呀😄
卡的呀……
卡的哟
卡的在说什么都不知道
卡的好适合截黑图
卡的好那啥……
卡的很
卡的心累
卡的快进了都
卡的想哭 啥也听不清
卡的想苦
卡的我只能决定退出去了
卡的我想扔手机
卡的我是饭都吃不下了
卡的我都想哭
卡的我都无能为力了
卡的断断续续
卡的时候就去看你以前的直播
卡的永远一个表情
卡的没谁了
卡的没魂
卡的要命
卡的要死
卡的话重新刷新一下
卡的醉了……😢
卡着不动了
卡着了
卡短片
卡老公
卡要命啦
卡走20万
卡走几十万
卡路
卡连不成句
卡阿
卡，难道是我网不好
卡飞
卡飞了
卡飞了山哥
卡飞啦
卡龙
卧槽
卧槽，刷屏
即使卡成这样，也很帅！！！
即使那么卡你也那么帅
厉害
厉害了
厉害了厉害了这么卡
厉害了张一山
厉害了 我得山哥
厉害了我的上个巨卡
厉害了我的哥
厉害了我的哥 厉害了我的哥
厉害了我的山哥
原谅你一生放荡不羁爱自由～
去
去休息吧
去吃饭
去吃饭吧
去吃饭吧！
去吃饭吧，别饿着
去吧
去吧去吧
去吧。去吧。不要太累！！
去年余罪也是五月
去看的 因为是春风啊😄
又卡
又卡住了
又卡出去了
又卡又卡
又卡进来了，听见山妈
又变帅了
又听不到了
又帅了
又没音了呢
又老了一岁
又见面会么
又长大了一岁
友爱
双眼皮呢
反了
反反复复进来
反正
反的
反的反的反的
反的反的反的反的
反的啊哥
发
发个微博说
发到你微博上
发包
发包雨
发微博
发微博上
发微博说
发红包
发红包。😃😃😃😃
发自拍吧
变白刘星
古灵精怪的你
只是个卡
只有你能做到了
只有我一个人觉得卡吗
只有我个人卡吗
只有我卡？？？
只有我的网这么卡嘛
只要你开心就好
叫凯宝宝出来
叫哥哥
可不可以换一个网
可以
可以不要刷屏了么
可以了
可以可以
可以吃播的
可以，听你的
可以听到！
可以和江一燕姐姐一起的
可以唱一下那就这样吧吗
可以管理一下吗
可以谈恋爱了
可以边吃边聊
可爱
可真卡啊
可耿直了你哈哈哈哈真可爱
可让我逮上了，可让我逮上了，可让我逮上了，可让我逮上了，
可贵了
史上最卡主播
吃了吗
吃了晚饭才有力气看直播～～～～
吃吃吃吃吃吃
吃吧
吃吧没关系
吃呗
吃手😂
吃手小山
吃手手
吃播
吃播吧
吃点东西吧
吃生日蛋糕了吗？
吃的什么
吃蛋糕了没
吃货
吃过饭了
吃饭
吃饭了
吃饭了吗
吃饭去
吃饭去吧
吃饭去吧！
吃饭吃饭吃饭
吃饭吧
吃饭吧哥
吃饭快去
吃饭没
吃饭直播吧
吃饭聊
吃饱饱哦
各位领导开餐了
同一天神器
同在东莞，却不能去叫你们
同天生日
同岁的猴子
同志
同意
同意同意！！心疼你！
同桌
同桌看到激动傻了
同款发型
向你發射了一個老母親般的微笑
吓人
听不了
听不全
听不到
听不到了哈哈哈哈哈
听不到，卡
听不到呀
听不到声音
听不明白
听不清
听不清……
听不清啊
听不清楚
听不清说话
听不见
听不见声音
听不见声音我也满足了
听不见说话
听了
听了一天你唱的那就这样吧
听你的
听你说心灵鸡汤感觉 😂
听到
听到了
听到了～
听到了你的颤音
听到了，就是有点卡
听到了，我们也会支持的
听到你咽口水的声音了哈哈哈哈
听到你说了三遍哈哈哈
听到啦
听到啦！
听声音很累啦？其实今天应该和爸爸妈妈一起的，辛苦你了
听得我好累 一句完整的都听不到 呜呜呜
听懂了
听懂啦
听明白了
听明白了！！！
听明白啦！
听歌
听见了
听见了听见了听见了
听见了哥
听见啦
听说杨紫有男朋友了。
听起来很累啊，好好休息呀
听那就这样吧
吱一声哇
吴优呢 山哥
吼吼吼
呀
呀呀呀
呀 和小哥哥一起祝操心的老妈生日快乐。
呃
呃呃
呆在北京 好开心
呜呜，你怎么才来
呜呜呜
呦呦呦
周冬雨
呵呵
呵呵😄
呵呵咱俩生日差四天，都是92年，祝你生日快乐哈
呼叫杨紫
咋不动
咋么办
咋卡里了
咋回事
咋回事呢
咋回事啊
咋快乐咋来
咋整
咋整啊
咋浪卡😒
咋这么卡
咋这么卡呢，不开心(。•ˇ‸ˇ•。)
咋这么卡咋这么卡
咋这么帅呢
和
和 v 人体骨骼
和你一起
和你一起做公益
和你一起干
和你交流很幸福
和冬雨在一起吧
和我一天生日
和我同月同日的生日
和文章好像
和杨紫吗
和杨紫在一起
和杨紫好闺蜜一辈子哦
和谁在谈恋爱？
咔咔咔
咔咔咔咔
咔咔咔咔咔
咔咔咔咔咔咔
咔咔咔咔咔咔咔
咔咔咔咔咔咔咔咔咔咔咔咔
咔咔咔咔咔咔好咔咔咔咔咔咔咔
咔咔咔啦啦
咔咔啦
咬手
咯
咯咯咯咯哥哥给哥哥咯咯咯咯
咱一块吃
咱一天生日呦
咱两一年
咱俩一天生日
哇
哇(⊙o⊙)哇，爆满了
哇y
哇！厉害了
哇咔咔
哇咔咔咔咔咔咔咔咔咔。
哇咔咔咔 赶上直播了！
哇哇
哇哇哇
哇哇哇哇
哇哇哇哇 第二次赶上你直播！！！！
哇哇哇哈哈啊哈
哇哦
哇啊啊
哇塞
哇塞哇塞
哇塞，激动
哇塞，生日快乐
哇塞 赶上直播了这是
哇好帅
哇帅帅帅
哇是本人吗
哇色😍
哈
哈哈
哈哈😄
哈哈 一山哥哥
哈哈，前男友跟你就差一个字儿，这种心情说不出来😜
哈哈卡的一句话说3遍
哈哈厉害了
哈哈哈
哈哈哈。
哈哈哈可爱的小哥哥
哈哈哈哈
哈哈哈哈哈
哈哈哈哈哈哈
哈哈哈哈哈哈哈
哈哈哈哈哈哈哈哈哈哈
哈哈哈哈哈哈哈哈哈哈哈哈哈
哈哈哈哈哈哈哈哈哈哈哈哈哈哈哈哈哈哈哈哈哈哈哈哈哈哈哈哈哈哈
哈哈哈哈哈哈哈哈哈哈哈哈，生日快乐啦啦啦
哈哈哈哈哈哈哈我都会背了哥
哈哈哈哈哈哈哈，看着你下饭
哈哈哈哈哈好哒好哒好哒
哈哈哈哈哈，字反的，看不懂
哈哈哈哈。爱你
哈哈哈 我吃好了
哈哈哈爱你哦
哈哈，字是反的
哈哈改了
哈哈，真是山妈
哈哈 这么卡他咋还滔滔不绝的说呢 说不也白说
哈喽
哈喽余罪
哈喽哈喽
哈喽哈喽哈喽哈喽哈喽哈喽哈喽哈喽哈喽
哈喽生日快乐
哈希
哈西奈德溶液
哎
哎呀
哎呀妈呀
哎呀,妈阿赶上直播了。虽然不会动。
哎呀赶上了
哎呦
哎呦，一山！！！！
哎呦喂
哎呦喂，哎呦喂，哎呦喂，哎呦喂，哎呦喂，哎呦喂，哎呦喂，哎呦喂
哎哟
哎嘛 这谁 张一山
哟哟哟
哥
哥 你和我舍友同一天生日哎
哥 你声音好有磁性 啊啊啊啊啊啊啊啊
哥，你的脸被挡住了😂
哥你都卡成PPT啦
哥 卡住了
哥 卡爆了
哥哥
哥哥今天也是我生日哦
哥哥你都卡出表情包了
哥哥光结巴
哥哥卡
哥哥吃饭去吧
哥哥哥哥
哥哥哥哥哥哥哥
哥哥，唱歌
哥哥好
哥哥帅
哥哥我也要资助
哥哥我希望你可以帮助我
哥哥扫不了
哥哥 换个网吧
哥哥，晚安！
哥哥注意休息
哥哥生快
哥哥生日快乐
哥哥生日快乐？
哥哥眼睛好小
哥哥眼睛好小！
哥哥，等我有能力
哥哥耶，太卡啦
哥哥越来越帅了
哥，唱个歌
哥啊。么么哒
哥拜拜
哥 来大东莞了呀
哥生日快乐
哥，生日快乐昂，今儿好好玩儿了吗？
哥！要一直棒下去！
哦
哦呦
哦呵呵
哦天
哭
哭唧唧
哭啦
哭死
哲理山
唉
唉唉唉唉唉唉唉唉唉唉唉卡
唉，没法好好看直播了
唠嗑真实惠
唯一追的明星
唱一个
唱一个那就算了吧好么
唱一首歌
唱一首歌吧
唱一首歌好不
唱一首那就这样吧
唱个歌
唱个歌儿吧！
唱个歌吧
唱个歌吧 二哥
唱个歌吧，山哥
唱个歌呗
唱个歌嘛
唱个歌把
唱个歌结束吧
唱个那就这样吧
唱个那就这样吧 好嘛
唱兄弟啊我的兄弟
唱歌
唱歌🎤
唱歌了
唱歌吧
唱歌吧？
唱歌吧😄
唱歌吧～～
唱歌吧，please
唱歌吧哥
！！！唱歌吧宝宝
唱歌吧山哥
唱歌吧，山哥
唱歌呀
唱歌呗
唱歌呗 哥哥
唱歌呗山哥
唱歌唱唱歌🎤唱歌啊唱歌吧🎤
唱歌唱歌
唱歌🎤唱歌🎤
唱歌唱歌😘😘
唱歌唱歌唱歌唱歌唱歌唱歌
唱歌唱歌唱歌唱歌唱歌唱歌唱歌
唱歌唱歌唱歌唱歌唱歌唱歌唱歌唱歌唱歌唱歌
唱歌，唱歌，唱歌，唱歌，唱歌，唱歌，唱歌唱歌，唱歌，唱歌，唱歌
唱歌唱歌唱歌唱歌唱歌唱歌唱歌唱歌唱歌唱歌唱歌唱歌唱歌唱歌唱歌
唱歌唱歌，山哥
唱歌啊ヽ(ﾟ∀ﾟ)ﾉヽ(ﾟ∀ﾟ)ﾉ
唱歌啊ヽ(ﾟ∀ﾟ)ﾉヽ(ﾟ∀ﾟ)ﾉ唱歌啊ヽ(ﾟ∀ﾟ)ﾉヽ(ﾟ∀ﾟ)ﾉ
唱歌啦
唱歌嘛
唱歌🎤好不好呀
唱歌好么😊
唱歌好听
唱歌，我山
唱歌波
唱歌 那就这样吧
唱歌～那就这样吧
唱说歌嘛
唱那就这样吧
唱那就这样吧😄
唱那就这样吧唱的就这样吧
唱那就这样吧，好吗？？
唱首歌
唱首歌再走呗
唱首歌吧
唱首歌吧😄
唱首歌吧，😜
唱首歌吧！山哥
唱首歌吧山山唱首歌吧山山唱首歌吧山山唱首歌吧山山唱首歌吧山山
唱首歌呗
唱首歌咯
唱首歌好不好
唱首歌 山哥
唱首歌把
唱首歌把小哥哥
唱首歌走吧
唱首那就这样吧
唱首《那就这样吧》
唱首那就这样吧😂😂😂
啊
啊！
啊，偶像
啊呀呀呀
啊哈
啊哈哈
啊哈哈 一山哥 蜜汁角度
啊啊
啊啊啊
啊啊啊！
啊啊啊，为什么这么卡！！！
啊啊啊 再撩
啊啊啊啊
啊啊啊啊！卡听不到说的啥
啊啊啊啊啊
啊啊啊啊啊啊
啊啊啊啊啊啊啊
啊啊啊啊啊啊啊啊
啊啊啊啊啊啊啊啊你又丑了
啊啊啊啊啊啊啊啊啊
啊啊啊啊啊啊啊啊啊啊
啊啊啊啊啊啊啊啊啊啊啊
啊啊啊啊啊啊啊啊啊啊啊啊啊卡炸了
啊啊啊啊啊啊啊啊啊啊啊啊啊啊啊啊啊啊啊啊啊啊啊啊啊啊啊
啊啊啊啊啊啊啊啊啊啊啊，我男朋友生日快乐
啊啊啊啊啊啊山哥赶上你直播啦！！！
啊啊啊啊啊啊山！！！我爱你！！！生日快乐
啊啊啊啊啊太可爱了吧
啊啊啊啊啊生日快乐
啊啊啊我山正能量
啊啊啊打王者都忘了直播了，山哥生日快乐
啊啊啊爱你❤
啊啊啊😱生日快乐呦
啊啦啦啦啦啦啦
啊 我还以为我错过啦
啊，终于等到你直播，还以为被盗号了😂
啥
啥 25了。。
啥也没听见
啥也没有
啥事
啥啊
啥子情况嘛
啥 我啥都听不见 呜
啥时候天津呀
啥时候播
啥时候来大西北看看
啥时候来天津呀
啥时候来天津拍戏呀
啥时候谈恋爱
啥网络呀？
啥节目
啦
啦？？？？
啦卡
啦啦
啦啦啦
啦啦啦啦
啦啦啦啦卡咔咔咔咔咔咔
啦啦啦啦啦
啦啦啦啦啦啦
啦啦啦啦啦啦啦啦啦啦
啦啦啦啦啦啦啦啦啦啦啦啦加油山哥
啦啦啦啦啦啦啦啦啦啦啦啦啦
啦啦啦啦啦旅途具体
啦啦啦，快乐生日
啦啦啦 生日快乐🎁
啦啦啦蛤
啦啦啦说的对
啵啵
喂
喂！
善良
善良山
善良的一山
善良的山山
喜欢
喜欢，
喜欢uanni
喜欢余罪
喜欢作品，喜欢你.
喜欢你
喜欢你😍
喜欢你i
喜欢你一直喜欢你
喜欢你 刘星，哈哈哈哈
喜欢你吸吸
喜欢你呀！！！！
喜欢你哦
喜欢你啊啊啊啊啊
喜欢你喔
喜欢你喜欢你
喜欢你！喜欢你！
喜欢你喜欢你喜欢你喜欢你喜欢你喜欢你💓💓
喜欢你 喜欢周冬雨 在一起 在一起 在一起 生日快乐
喜欢你很久了
喜欢你拍的戏，爱你
喜欢你是因为你的性格
喜欢你没道理
喜欢你演戏
喜欢你演的电视剧
喜欢你的声音
喜欢你的能力和温暖他人的爱心
喜欢你这样的生活态度
喜欢你那种痞帅的劲
喜欢你阿！！！
喜欢听你唱歌
喜欢听你说话
喜欢呢吗
喜欢喜欢
喜欢喜欢，你什么我都喜欢
喜欢喜欢喜欢喜欢喜欢喜欢喜欢喜欢喜欢喜欢喜欢喜欢喜欢喜欢
喜欢家有儿女 余罪
喜欢山哥
喜欢我吗
喜欢熟悉的你
喜欢的女孩
喜欢直率的你
喜欢看到真实的你
喜欢真实的你
喜欢高能少年团
喜爱你一山
喝口水吧
喝水
喧宝
嗨
嗨咯
嗨喽
嗨嗨
嗨嗨嗨
嗨，小山山
嗨皮嗨皮
嗨皮波斯得
嗯
嗯？
嗯？？？？
嗯呢
嗯哈
嗯嗯
嗯嗯！
嗯嗯 一起做公益
嗯嗯分摸摸摸摸摸哦哦弄
嗯嗯，哥哥好有爱
嗯嗯嗯
嗯嗯嗯，说的真对
嗯嗯好嘞
嗯嗯。按照自己的意愿好好生活
嗯嗯，没错没错没错没错
嗯嗯说吧
嗯好
嗯 懂
嗷嗷
嗷嗷嗷
嘎子
嘚瑟
嘤刚考完试 还好赶上直播 山山生快！
嘻嘻
嘻嘻嘻
嘻嘻嘻嘻嘻
嘻嘻终于看到真的了
嘿
嘿嘿
嘿嘿嘿
嘿嘿嘿 看着样子都累得够呛了 生日也不能休息啊，心疼一秒钟
嘿嘿～真好
噗噗噗。。owo
四舍五入下已经30了
回北京拍什么啊
回头看重播了，太卡
回家咯
回我一句呗
回我看到没有
回放！！！！！！！
回放不会也卡吧
回来再直播
回馈社会
因为你没吃饭所以饿了所以卡住啦，快去吃饭
因为刘星陪伴了我的童年～❤❤❤
因为卡没有听见
困了
困了吗？早点睡吧
图吐了
在
在上晚自习
在不断的努力去接近你
在东莞
在东莞!
在东莞？
在东莞哪里？
在东莞唉
在东莞拍戏吗？
在东菀干啥呢
在刷就看不到山妈说话了
在吃蛋糕中，哈哈😄😄😄
在哪
在哪呢
在哪里
在哪里，山哥哥
在外面看，所以开不了声音
在。尴尬的事情
在干嘛
在广州哪里，我在广州
在录啥吗
在录节目吗
在我们学校拍的o
在拍什么戏
在海南吗
在直播啥
在看什么呢？
在说什么
在路节目吗
在蹲坑？
在那支助？
在那支助？.
地点是东莞
坎坎坷坷
坎坎坷坷坎坎坷坷
坎坎坷坷坎坎坷坷看空间
坐高点嘛
坑手少年
坚持做自己
基本没有一句话是完整的
声音太小了
声音太小吗
声音太有磁性了
声音好听，爱爱你
声音好好听
声音好小！！！
声音好小二哥
声音好有磁性
声音好熟悉
声音好苏
声音很好听
声音怎么了
声音超好听
复读机
复读机 😂
复读机，哈哈
复读机哈哈哈哈
夏东海呢
夏东海被抓了
夏东海被陆毅抓了
夏冰雹
多休息
多休息，感觉你眼睛有点红
多吃点，上次看你太瘦了
多吃点饭
多吃点饭宝宝
多吃饭
多喝水
多少岁了？
多有食欲
多注意休息
多注意休息，多注意休息
多注意身体
够卡的
大哥
大哥，卡啊
大哥啊
大哥换手机啊
大哥最棒
大哥生日快樂 真是個暖哥哥❤❤
大家一起加油
大家一起献爱心
大家的卡吗
大少！
大山哥
大山山，生日快乐
大帅哥啊
大清亡了
大爱
大男神 生日快乐 说你爱我💓
大窝两岁。
大道理，学着
天呐
天呐 不要这么卡
天呐卡啊
天呐 怎么会这么卡
天呐，我竟然看到了日常张一山
天呢天呢天呢
天哪
天哪耍得真快
天啊
天地哥在后面吗😂
天天开心
天张一山😏你还记得你的俊凯宝宝吗
太卡
太卡啦
太卡啦！
太卡啦，但是好帅啊
太卡啦啦啦啦
😭太卡啦😭太卡啦
太卡啦 生日快乐🎂
太卡的
太卡，说什么都听不清
太历害了
太受欢迎了，人太多.挤得
太喜欢
太喜欢你了
太多了
太多人了
太多人评论了
太帅
太帅了
太帅了 山哥
太快
太快了
太快啦！！！！！！！
太恐怖了
太明白了
太晚了
太棒了山哥
太棒啦
太爱你
太爱你了
太疯狂
太累了
太辛苦了
太酷了
女朋友加油
女朋友呢
她们是谁
好
好~~~~~~~
好.
好！
好MAN
好vvvvvv
好一山
好不好
好丨一丨丨丶
好久结婚
好了
好了刚好了
好优秀
好像卡碟一样
好像听你唱 那就这样吧
好像在做梦啊
好像拿反了
好，公益
好准时
好厉害
好可爱
好，吃饭去吧
好吧
好吧，还是很卡
好呢
好哒
好哒好哒
好哒～老干部一样.
好哥哥
好啦好啦！
好啦白白～
好喜欢
好喜欢(｢･ω･)｢嘿张一山！我的男神呐
好喜欢你
好喜欢你！！！
好喜欢你们的高能少年团
好喜欢你呀
好喜欢你呀！
好喜欢你哦～
好喜欢你啊
好喜欢刘星
好喜欢好喜欢好喜欢好喜欢你
好喜欢小哥哥的性格
好喜欢高能少年团
好多人
好多人！
好多人卡蒙蔽
好多礼物呀
好好
好好休息
好好休息吧，不要让我们担心
好好休息！好好休息！好好休息！好好休息！
好好吃饭，好好休息，保持好心情
好好好
好好好！！！
好好好好
好好好！！都听你的！！！
好好照顾王俊凯
好好照顾自己
好好照顾自己啊
好好的
好少年
好帅
好帅٩(๑´3｀๑)۶
好帅呀
好帅哦
好帅啊
好帅啊😱
好帅啊！！！！
好帅啊 我山哥
好帅啊，生日快乐🎂🎂🎂天天开心
好帅好帅
好帅好帅好帅
好帅好帅好帅啊啊啊啊
好帅山哥
好帅！！山山
好帅，生日快乐，一山
好帅的一山
好开啊！
好心人
好心酸啊 学生党摸摸头摸摸头
好忙碌，注意休息
好快
好想一直能听到完整的话呀
好想你
好想去东莞
好想听你唱歌
好想唱生日快乐给你听
好感动
好懵逼哦
好捧
好暖
好有爱啊！
好有爱心
好有爱心哟
好有爱心山哥
好期待
好样的一山👍👍👍
好样的山哥
好棒
好棒。
好棒哦
好棒啊
好棒好棒
好棒好棒好棒
好棒，支持你
好棒！生日快乐，善良的小可爱
好正能量啊
好滴
好滴，跟着山山一起公益起来
好激动
好爱你
好的
好的！
好的ok😊
好的，但是我的消息被刷下去了
好的，努力！
好的吧
好的啊
好的好
好的好的
😙 好的好的，一起关注
好的好的，你说的都对
好的 我们也会跟你一起做公益帮助别人的
好的 我们跟你一起做公益
好的👌 ，满足你
好看
好绝望阿
好贴心
好辛苦
好长时间啊
如果能发图，我一定发一张你的大脸
妈呀人太多卡爆炸了
妈呀呀
妈呀第一次赶上直播
妈妈你好
妈妈咪
妈妈啊，见到个活的
娃娃脸
娱乐圈是不是乱
嫁给你哈哈哈哈
嫁给我吧
嫁给我吧25岁
字反lo，
字反的
字幕滚动的好快
字挡住你脸了 手机往下点
孙子
孩子叫爸爸
宇宙你最帅
宋丹丹有巴图。
完全不知道在说什么
完全听不清
完全听不见
完全看不清脸……
定住了
宝宝
宝宝今晚早点休息
宝宝没抢到红包
宝宝爱你❤
宝宝 生日快乐
宝宝生日快乐昂！
宝贝
宝贝儿 生日快乐
宝贝 生日快乐阿阿阿阿阿阿
宝贝私人教练
实力偶像派
实力派
实在卡得要死
实在君
实时直播么
室友想亲你
家有儿女什么时候播呀
家有儿女是我看大
家里有弟弟妹妹嘛
密云欢迎你
富人
对
对凯凯超好
对呀
对呀对呀 山歌加油呀
对啊，我们学校都有捐款，旧衣服捐赠，志愿者活动什么的
对对对
对，帅二，生日快乐😄
对王俊凯好点
对着吃吧干脆
小二
小二哥哥在哪里
小二啊
小伙这逼装的清新脱俗
小凯
小凯会来吗
小凯凯在吗
小凯凯在哪
小凯呢
小凯呢？
小凯和你在起吗山哥
小凯在不
小凯在不在
小凯在你旁边么
小凯在你边上不
小凯在你那边吗
小凯在吗
小凯在吗？
小凯在旁边
小凯宝宝
小凯宝宝不来了吗
小凯宝宝会来吗？
小凯宝宝呢
小凯宝宝呢，
小凯宝宝在不在你旁边
小凯宝宝在哪里？
小凯宝宝有没有看你直播，你生日快乐呢
小凯宝宝送你生日礼物了吗
小凯弟弟粉打卡
小刘星生日快乐～
小可爱
小哥
小哥你又卡住了
小哥哥
小哥哥你好帅啊
小哥哥卡惨了
小哥哥哈
小哥哥小
小哥哥特别喜欢你的😁
小哥哥生日快乐
小哥哥 给我给我高考加油吧
小哥生日快乐
小姑娘竟是
小子花钱买罪受
小孩子
小孩子气氛很少
小屌丝
小山山
小山山，生日快乐
小山山，生日粗卡！
小时候的偶像
小时候看家有儿女长大的如今你都25了
小星
小朋友长大了。😊
小流星
小猴子你最帅
小猴子，生日快乐
小猴子，生日快乐👄
小螃蟹祝山哥生日快乐
小螃蟹祝山妈生日快乐
小雪姐姐都有男朋友，你呢🙈
小鲜肉
尔
尤其是你的作品很满意
就一个字
就听见是公益了
就喜欢你的痞气
就喜欢你这么走心的……
就喜欢你这种爷们的性格 有恒心有毅力
就喜欢你那
就喜欢真实的你
就喜欢这样的爱豆偶像
就我卡嘛
就是你
就是喜欢你
就是喜欢你的认真
就是干
就是慢点
就是，我们很爱你们！
就是有点卡
就看着你就好啦
就觉得你很好
尴尬
尽力就好
居然有点像黄子涛
居然赶上了，第一次赶上直播。
居然赶上直播！
居然赶上直播啦
屏幕已经卡到停住了
山
山凯山凯山凯
山，卡
山哥
山哥===
山哥！
山哥！😍
山哥😳😳
山哥。。。
山哥haoshuai，
山哥一山哥
山哥，七个我是人格分裂的剧？
山哥乖乖吃饭注意身体
山哥人呢
山哥，今天也是我的生日，祝我生日快乐呗
山哥，今天也是我的生日，祝我生日快了
山哥。今天在我们oppo
山哥今天我也生日
山哥休息好揪心
山哥，余罪3什么时候开播呀
山哥，余罪什么时候出2
山哥，你不是要在荔枝直播吗？
山哥你不知道我等你上穿越等了好久
山哥你咋这么帅
山哥你好
山哥，你好帅
山哥，你旁边有谁？
山哥你是我偶像
山哥，你现在在哪？
山哥，你的小凯宝宝呢
山哥，你的小凯宝宝呢 山哥，你的小凯宝宝呢
山哥你要不要这么帅
山哥你要好好的
山哥别这么勉强
山哥加油
山哥 加油
山哥加油哟
山哥十八岁生日快乐
山哥卡
山哥卡的我想哭
山哥去吃饭吧
山哥口中的老百姓
山哥叨叨
山哥可以叫我家小凯让我看一眼
山哥可以给我中考加油吗？
山哥吃蛋糕了吗
山哥 听你的声音感觉你很累 多休息注意身体
山哥呀
山哥呢?
山哥哥
山哥哥你好
山哥哥，卡
山哥哥 生日快乐🎂 爱你
山哥，唱一下那就这样吧
山哥！唱个歌吧
山哥唱山歌勒，勒勒勒勒
山哥唱歌
山哥 唱歌
山哥 唱歌🎤
山哥唱歌🎤
山哥，唱歌吧
山哥唱首歌吧
山哥，唱首歌吧
山哥 唱首歌怎么样
山哥啊
山哥啊！！从头卡到尾！！
山哥啊爱你
山哥啊。生日快乐
山哥，喜欢你的真实
山哥在东莞…………………………………………
山哥声音不错哟
山哥 多注意休息啊
山哥多直播好不
山哥好
山哥。。。好😂😂😂😂
山哥好像有点累啊
山哥好帅
山哥 好有爱心
山哥好棒
山哥，好棒呀😊
山哥好比春江水
山哥 好比春江水
山哥字挡住你脸了 手机往下点呗
山哥对小凯好好
山哥，小凯发微博了
山哥山哥
山哥 山哥
山哥 山哥 加油 加油
山哥山哥 好爱你哟
山哥山哥山哥山哥
山哥山哥 生日快乐
山哥山哥，生日快乐，我昨天的生日，哈哈
山哥帅！爱山哥！
山哥帮要考试的我们加下油可以吗
山哥帮要考试的我们加个油
山哥，干啥呢
山哥很好
山哥 很棒
山哥 很累吧
山哥，快去休息吧！
山哥快去吃饭吧吧吧啊啊啊
山哥总谦虚
山哥 您那边特卡
山哥成年了。快快找个山嫂
山哥 我也今天😏
山哥，我们要高考了，可对我们说加油
山哥我偶像 我男神
山哥，我室友说你又要抠脚
山哥我明天考试
山哥，我明天考试
山哥我要嫁你啊啊啊啊啊啊啊啊啊啊啊啊啊啊啊
山哥我要嫁给你！！！
山哥，把你号码给我们，我们给你充流量
山哥拜拜 爱你
山哥 换个网吧
山哥明天看回放
山哥春风十里不如你啥时候播？
山哥，昨天送的礼物喜欢吗？菠萝包
山哥是不是想家了
山哥是我们的努力的方向
山哥最帅
山哥有点卡
山哥有爱心 ❤️
山哥棒棒棒
山哥森日快乐
山哥，永远爱你
山哥，注意休息啊
山哥注意身体
山哥热血
山哥，爱你
山哥爱你 生日快乐
山哥玩王者荣耀吗
山哥生快
山哥，生快啊啊啊啊啊啊啊啊啊啊啊啊啊啊
山哥生日快乐
山哥 生日快乐
山哥，生日快乐
山哥，生日快乐！
山哥，生日快乐🎉
山哥，生日快乐😝😝
山哥生日快乐.🎂
山哥生日快乐！
山哥生日快乐😘
山哥生日快乐❤️
山哥生日快乐！！！
山哥生日快乐🎂🎁🎈
山哥，生日快乐，做自己，爱你
山哥 生日快乐呀！！！
山哥 生日快乐呢
山哥，生日快乐啊
山哥生日快乐啦啦啦
山哥，生日快乐，爱你呦
山哥...生日快乐生日快乐
山哥，生日快乐！生日快乐！生日快乐！
山哥 生日快乐生日快乐生日快乐生日快乐生日快乐生日快乐生日
山哥生日快乐，笔芯
山哥生气快乐
山哥直播
山哥 直播了
山哥直播吃饭吧
山哥真好 爱你
山哥真的卡爆了😎
山哥累不累啊休息休息
山哥，菠萝包喜欢吗
山哥，要加油！
山哥辛苦啦
山哥！那就这样吧
山哥，麻烦你一件事，告诉凯宝宝，我们好想他呀！谢谢
山啊
山啊山
山妈
山妈一直播就好正经
山妈，余罪第二季什么时候播
山妈，凯宝贝儿？∞
山妈凯宝超喜欢你们
山妈咋不跟凯宝宝在一起呢
山妈好
山妈，好善良啊
山妈妈
山妈山妈，高能少年团啦啦啦
山妈 很喜欢你
山妈!我来了!
山妈，森日快乐
山妈，照顾好小凯宝宝～
山妈爱你
山妈生日快乐
山妈，生日快乐
山妈，生日快乐！
山妈，生日快乐😂😂
山妈，生日快乐🎂🎂🎂
山妈 生日快乐！！！俊凯今天有跟你跟一起过生日吗嘿嘿
山妈，生日快乐哈
山妈生日快乐哈哈哈
山妈生日快乐啊
山妈 生日快乐生日快乐 么么哒
山妈，请把眼睛 👀睁开 😂 😂 😂
山妈跟小凯😂
山媽🙋🙋🙋🙋
山子好
山子山子山子
山子☀️生日快乐🎂！。
山宝宝，好有爱
山山
山山😍😍😍😍
山山一起打王者啊
山山么么哒，
山山你眼中好肿！早点睡觉！休息啊
山山你那边网不行啊，老卡
山山先去吃饭，
山山叫我一声香香
山山，吃饭了吗？
山山哥加油
山山哥哥
山山哥好爱吃手手啊
山山啃手指头
山山啊
山山喜欢你，一山眼熟我
山山好帅
山山山山山
山山山山山山山山山山山山山山山山山山山山山山山山山山山山山山
山山山山山生日快乐🎊🎂
山山快吃饭
山山 想听你唱歌
山山我爱你
山山爱你哟
山山生快
山山生日快乐
山山 生日快乐
山山，生日快乐
山山男神
山弟
山弟，不是一点卡，是超级卡
山楂永远在你身边
山歌
山歌唱那就这样吧
山歌善良
山歌好
山歌放心，一定会响应你的号召的
山歌，生日快乐
山歌，生日快乐哦！
山爷 么么哒
山爷卡成收音机
山，生日快乐
山生日快乐生日快乐生日快乐生日快乐生日快乐生日生日快乐生日快
山西，山西山西，山西
岁岁平安
岁岁平安，年年有今日，
崩溃了
工作室发微博
巨卡
已经等不记看了
帅
帅！！
帅！！！
帅6
帅到卡屏
帅呆了
帅哥
帅哥，你牙齿好白，有女票么
帅哥哥
帅哥，，唱首个听听
帅哥，唱首歌听听
帅哥，有女票么
帅哥生日快乐
帅哥生日快乐！
帅哥，露个腹肌
帅哭了
帅哭我了
帅啊
帅山
帅 山哥👍
帅帅
帅帅哒
帅帅帅
帅帅帅帅帅
帅，帅帅帅帅
帅帅帅帅帅帅帅帅
帅帅帅帅帅帅帅帅帅帅帅帅帅帅帅帅帅帅帅帅帅帅帅帅
帅掉渣了
帅掺了
帅死了
帅死啦
帅死啦！！！关注你很久了！
帅气
帅气的山哥
帅炸
帅炸了
帅爆
帅爆了
帅的我网都卡啦
帅锅
希望以后你都可以常开直播哦！
希望以后能有你的好作品
希望你为我加油
希望你以后运气好点
希望你好好的，什么都好好的，拜拜，哦，对了，生日快乐！
希望你来昆明哦
希望你每天都幸运
希望你能开心
希望山哥拍好的电影
希望张哥也能祝我生日快乐
希望有会有回放
帮你说话的是你助理吗
帮助别人，快乐自己
帮助山里的孩子 😍😍
帮助留守儿童
干
干！
干什么呢
干嘛呢
干嘛呢干嘛呢你刘星
干干干
平安
年底北京偶遇！！！
年轻，😘
年轻刚刚好
年轻的很
年轻着那
并(⊙o⊙)哦
幸福
幸苦了！！
广东热吗
应该wifi
应该是注意休息
开口。
开始读北京北京了
开始谈起了 人生
开席。
开心
开心(∩_∩)(∩_∩)(∩_∩)(∩_∩)(∩_∩)(∩_∩)
开心了。
开心吧
开心就好
开心就好，做自己
开心就好 自己为重
开心开心开心开心😄
开黑
弟弟
张一山
张一山！！
张一山一太牛了
张一山么么哒
张一山余罪多会演
张一山，你去吃饭吧！
张一山你记住我叫张艺博
张一山加油！😍 😍 😍
张一山 卡！
张一山！！卡！！
张一山！卡爆了！！
张一山哥哥
张一山 唱歌唱歌
张一山天天开心
张一山张一山你忒帅
张一山张一山张一山
张一山张一山张一山张一山张一山张一山张一山张一山张一山张一山
张一山 我爱你
张一山我爱你～
张一山我爱你啊
张一山我要睡你
张一山我要睡你啊
张一山明天去长隆等你
张一山是你的线路问题吗？生日快乐
张一山是我的，都别抢
张一山棒棒哒
张一山生日快乐
张一山，生日快乐
张一山生日快乐！
张一山生日快乐🎂🎂🎂
张一山生日快乐生日快乐
张一山的优点是帅，缺点是太帅了
张一山直播啦
张一山记住我叫安宁
张一帅
张卡山！
张卡山😘😂😢
张卡山😘😂😢……
张大山生快
张山张一山。。。
张总
张总管你呢
张杰谢娜是不是离婚了
张馨一
弹屏能去掉不
弹幕刷太快都看不清😂
弹幕太多
弹幕挡住我山哥的帅脸了
弹幕挡脸，心好塞
弹幕都挡住了
当你女朋友一定很幸福山山
当公众人物压力大吗
当然
往上举😓
待会再发个微博，发一下二维码
待会发个微博再说一下吧
很卡
很卡咔咔咔咔咔咔咔咔咔咔咔咔
很卡哎
很卡啊啊啊啊
很喜欢
很喜欢你
很喜欢你，，一直做自己
很喜欢你在少年团的表现🤗🤗
很喜欢看你演的余罪
很喜欢高能少年团的你
很好
很好啊
很帅
很暖哦，一山哥
很有心
很有意义
很有爱心
很期待你的春风十里不如你
很棒
很棒加油 生日快乐
很棒很棒很棒很棒
很爱你
很真
很累吧这角度卡得蜜汁帅阿
很酷
很长远的
徐小斌
得做
微博总掉我的天
微博翻牌
德行
心仪你
心仪的就是你
心灵鸡汤
心灵鸡汤励志山。哈哈。
心疼你
心疼你，快去吃饭
心疼心疼
心疼我山
必须支持哈哈哈哈哈哈哈哈
必须等你的作品
忒卡
忙完了好好休息
快乐
🎂快乐
快乐快乐
快乐快乐～
快乐快乐快乐
快了
快出余罪
快去吃
快去吃啦
快去吃点饭吧，也不早了
快去吃饭
快去吃饭吧
快去吃饭吧！照顾好自己
快去吃饭啦山山
快去吃饭嘛
快去吧
快去睡吧
快吃饭
快吃饭去
快吃饭去吧
快吃饭吧
快吃饭吧😙
快找女朋友
快把饭吃了
快点去吃饭吧
快点吃饭吧 八点了都
快点回北京吧
快点寻媳妇
快点找个二嫂
快进了。。
怎么不出去嗨皮一下
怎么不去快手直播
怎么不吃饭
怎么不回复我们说的话小哥哥
怎么不用wifi
怎么不看评论啊，都看不见脸
怎么不说话了，一山哥
怎么中分了
怎么了
怎么会这么卡
怎么做
怎么办
怎么办，好喜欢啊！
怎么加入？
怎么卡？？？
怎么卡成这个样子
怎么参与啊
怎么可以那么帅
怎么好像住了
怎么感觉一山直播那么不耐烦呢？
怎么扫二维码
怎么捐啊
怎么样都支持你
怎么没图像了
怎么玩
怎么看不到人
怎么看不见人了
怎么真么卡
怎么老卡
怎么老卡呢
怎么资助
怎么还卡呀
怎么这么卡
怎么这么卡？？
怎么这么卡😭😭😭
怎么这么卡呢
怎么这么卡啊
怎么这么卡啊，东莞网络不好
怎么这么卡啊？是不是人太多了啊
怎么这么正经😁
怎么那么卡
怎么那么卡啊
怎么那么帅呢
怎么都把我挤没啦
怎么黑屏了
怎麼沒聲音
怪不得我这么爱你
总是干活，不要累坏了，宝宝们会心疼的
恩
恩 一直努力
恩，加油山哥
恩，对
恩，山哥超棒棒的，加油哇
恩恩
惊声尖叫
想你
想你咯
想你来西安
想去找你
想去看你录节目，想去看你录节目，想去看你录节目
想听你唱歌
想听你唱歌🎤
想听你唱歌哟
想听你唱歌啰
想听你唱歌 那就这样吧
想听你的歌声
想听你的歌声，山哥
想听你的那就这样吧
想听唱歌
想听山哥唱歌
想听山哥唱歌唱歌唱歌唱歌唱歌唱歌唱歌唱歌唱歌唱歌
想听歌
想听歌 哥哥
想听歌小哥哥
想听那就这样吧
想听 那就这样吧
想嫁你
想我这样的人 一定还有很多
想看余罪
想看余罪！！！！！
想看你
想看你吃饭
想看你的脸
想看俊凯
想看女装人格
想看春风十里
想睡你张一山
想知道你的闹钟铃声是什么歌？
想见小凯
想陪你一起溜达
感觉你像我爸爸，在讲道理
感觉你咋就那么不相信我们听懂了呢、
感觉你太帅了
感觉你好累
感觉你很励志，今天你生日，希望你越来越好，加油！加油！加油！
感觉你旁边有人haha
感觉你累累的诶。
感觉山哥好累噢
感觉我的卡到了一定的境界
感谢你一直照顾我们大哥。生日快乐
愤怒
愿望
慢慢
慢慢人更多
慢点
慧姐
懂
懂了山哥
懂了懂了
懂懂懂
懂的
懂的懂得
成～
成为老干部实力派
成结巴了
我
我22岁，咱两差三岁耶
我zhou了
我一会来
我一句也没听清楚说什么。
我上班看你直播是有多爱你
我不吃饭了……
我不是陈新颖咋
我也25
我也不怎么过生日
我也今天生日！！！
我也会努力的，像你一样
我也卡
我也喜欢你
我也在东莞啊！
我也在做公益
我也在 约不
我也想知道《余罪3》什么时候上映
我也想被你资助
我也是
我也是4G
我也是东莞的啊
我也有在支付宝做一些捐助活动
我也来凑热闹
我也没吃饭呢
我也爱你
我也生日
我也金牛
我今天也生日呃
我今天也过生日
我今天做了一个视频
我今天生日
我今天看你来oppo了
我从小就喜欢你了
我他吗居然喜欢你
我以为我卡
我以为是回房
我以为是我wifi信号不好
我以为是我卡呢😊
我以为是我的卡呢
我以后要嫁给你😍
我们
我们一山长大了 😊
我们一样大 我后天生日
我们一直在
我们一起来
我们一起陪你做公益
我们之间的信任呢
我们也会好好努力
我们也会跟你一起做公益帮助别人的
我们也帮你
我们会一直陪伴你
我们会一起做的
我们会想你的
我们俩同一天
我们做事花钱买罪受
我们在同一个城市
我们好好的
我们家演员张一山加油
我们帮你
我们开心啊
我们想听歌
我们想听歌啊
我们想看你直播吃饭
我们支持你
我们永远支持你加油
我们永远支持你哦！
我们没问题
我们爱你哦
我们的童年
我们知道了
我们舍友上课在看家有儿女
我们要和你一起努力
我们跟着你
我们都会支持你的
我们都会祝福的
我们都会这样做的尽自己所能帮到能帮助的人
我们都看不了
我们陪你一起做公益
我们陪你做公益正能量，你能给我们个爱的抱抱吗
我们陪你吧
我们高四狗集体看你直播
我会好好回报你的
我会看重播的
我俩同一天生日
我做题去了
我刘星永远年轻
我刚刚在重温家有儿女哈哈哈哈
我刚来 就走了
我刚看完家有儿女
我卡
我卡。
我卡 还是你卡
我去支教了能感受到这些
我去！这个屏幕，我都怀疑是快进！
我只爱你
我只要你
我叫夏冰雹。。。😂
我叫张一婷
我叫张一婷噢 喜欢你
我叫张一婷噢 生日快乐 太辛苦就早点休息
我可是看家有儿女长大的
我可能认识了一个假一山
我同学超级喜欢山哥
我听到了
我听的我知道
我吼吼
我和你同岁为啥我是你的迷妹！！爱你
我哥你真的超级卡
我喜欢ing
我喜欢七个我
我喜欢你
我喜欢你，也希望你能幸福，祝你生日快乐
我喜欢你张一山
我喜欢你我喜欢你我喜欢里
我喜欢魏晨
我在上课
我在你录制现场
我在公车上看你直播
我在学校也做公益活动
我在看你的小兵张嘎😂
我在认真地听着呢
我在这
我在重新看回放吧
我在长春等你
我天
我好喜欢你
我好爱你
我妈妈也是今天晚上生日，我在吃饺子，一山，你吃饺子了吗？
我室友超级无敌喜欢你，但因为她有事，看不了你直播，我替她祝你生日快乐
我家薛宝也一样很辛苦
我对象
我就是
我就问春分十里不如你什么时候播？
我就静静地看着这些礼物
我居然赶上了
我山个最帅
我山了不起
我山哥
我山哥 不知道你看到没 再一次生日快乐
我山哥，人呢
我山哥威武
我山哥帅爆了
我山生日快乐
我山生日快乐 春风十里不如你❤️
我山累出三眼皮
我山累出了三眼皮
我已经重进了6次！！！
我很像你
我很喜欢你，在这里祝你生日快乐
我心仪的是你
我快二十四了
我快吧
我怎么听到你正在大喘气类
我怎么想都不知道我只比你大五岁.
我怎么看不到
我想加入，怎么加入
我想听
我想当演员
我想看你再上快乐大本营
我想睡你张一山
我想问山哥一个问题
我感觉我注定就是你女朋友了，哈哈哈哈哈
我才来
我把你娶走吧😘
我放弃
我明天生日
我明天生日😂
我明天生日唉，生日快乐哟
我明天过生日矮
我明白我明白
我昨天生日哈哈哈开心
我是乡下的😂😂😂
我是你千万粉丝中的一个
我是卡住了嘛😂
我是女二
我是张凤山的朋友
我是晨晨
我是看着你电视长大的。
我最喜欢你
我最喜欢你了
我最快
我有吃的
我来了
我来了😊
我来了这就要走了吗
我来啦
我梦见过你
我正在看家有儿女
我比你小3岁呦
我比你晚12天过生日呢😊
我永远支持你，加油
我没有抢到没有
我没有时间看
我没钱
我没钱在直播上送你礼物，等我有钱送你礼物，现在只有祝福
我洗完澡了你还在播
我点开了直播？？？？？ 超卡
我爱你
我爱你！！
我爱你！！！
我爱你 啦啦啦
我爱你，小二
我爱你山
我爱你张一山
我爱你我爱你
我爱你我爱你我爱你
我爱你我爱你我爱你我爱你我爱你我爱你我爱你我爱你我爱你我爱你
我现在在看家有儿女
我用流量看直播。
我男人生日快乐
我男人，生日快乐
我男神
我的一山
我的为什么这么卡呀
我的二哥
我的亲哥呀，卡的我一句完整的话都 听不到
我的你
我的刘星
我的哥
我的哥，是我这卡吗？
我的大宝贝
我的天
我的天发生了什么
我的天哪
我的天啊，你还在直播
我的天啊，这直播卡的
我的天好帅啊啊啊啊啊啊啊
我的天，男朋友男朋友生日快乐
我的天，能让我好好看你直播吗，卡啊我的哥
我的妈
我的妈呀
我的妈呀 卡住啦
我的妈 这个刷屏
我的山山
我的愿望希望你关注我一下
我的男神
我的网卡的不得了
我的话都被埋没了
我的青春
我看不到我了
我看到一个兵长，不知道为什么
我真的不知道你在说什么。。。
我真的给
我知道
我知道了
我老公，从小一起长大的
我老公看余罪后就爱上你了
我要上课了，回去接着看重播，一切安好。加油！一起加油！！
我要俊凯
我要做配的上你的粉丝，大家一起加油
我要去上课了
我要去支教了😂😂😂😂😂😂
我要嫁给你
我要嫁给你！！！
我要看你吃嘞
我要看小凯
我要看董子建
我要追你的剧
我认识你可不是因为真人秀！！！突然觉得好开心
我走了
我跟你一起做
我蹲在路由器旁边
我还以为是之前的直播，点进来一看居然是真的在直播！！！！
我还以为自己网卡
我还在上课😂
我还想看家有儿女
我还是喜欢你
我这儿卡吗
我都24了
我都卡成鬼畜了
我都听不清你在说什么。
我都看不见我刷的
我非常喜欢你的作品
或者先去吃饭吧不要饿到了
截图呗
截屏啊
所以
手机往上拿点好吗，视屏不好看
手机拿正呗
手机拿高一点
手机烫的赶脚要废了
才下班就来了
才看 干什么事
扎心了
打把穿岳
打游戏吗山哥
打王者不，山哥
打王者开黑
扶贫我吧
找一个网好点的
找个女朋友吧
找个好人就嫁了吧
找个对象
找个网好点的地方
找女朋友
找女朋友吧
承包山哥的盛世美颜
把努力变成一种习惯
把头低点
把我都卡出去了
把脸往上点看不到啦
把饭吃了
抢不到
报不了名啊
拉
拉卡拉
拉拉拉拉
拍余罪了吗
拍余罪呢？
拍啥戏呀
拍完了吗七个我
拍戏
拍戏很累吧
拜
拜托啦，换个位置直播
拜拜
拜拜、
拜拜👋
拜拜咯
拿个镜子看字
拿的有些问题
指甲好吃吗😉
挺喜欢你
挺喜欢你那直性子
挺好
挺好了
挺好的
挺有意义的
挺辛苦
换4G吧
换wifi
换个网
换个角度
换个角度，😍
换种方式，直播吃东西
撒拉嘿哟
支持
支持♥！
支持一山做公益
支持你
支持你哟
支持你小山山
支持你的
支持公益事业
支持山哥
支持山哥一起公益
支持山哥做公益
支持张一山
支持支持
支持支持你
收到
收到大哥收到大哥
收到收到。
放假了？？
放开自我，是吗？上真人秀就开心玩呗
放心
放荡不羁才是真山哥
整容了吗？
断断续续的，听不清楚
断音
新戏什么时候上
旁边旁边是谁
旁边是谁啊
旁边的人
旁边的经济人能不能不插话，看看山山的黑眼圈。能不能温柔点
旁边说话的是谁？
旁边那人谁啊
无敌卡
无热血不少年
无热血，不少年
无热血不少年@
无热血，不少年 加油一山哥
无聊
无论怎样还是要照顾好自己的身体
无锡刘研的250台，张家港吴新胜的80台
既然不鼓励算了😢
早吃啦！！！！！！
早点休息
早点休息吧
早点吃饭吧
早点睡吧
早点结束去休息休息吧
时间好快
昊然呢
明天体考，沾沾你的福气
明天拍戏码
明天有重播吗
明天的高能少年团 期待期待
明天等你的高能少年团！
明天职护考le
明天要播的节目
明天要考计算机了咋办
明年有机会就去山区做护士
明星就是明星啊
明星是不是很抠门
明星缺少私人空间
明来了
明白
明白！
明白了
明白你了
明白你的愿望
明白啦
明白明白明白了
星哥生日快乐
星哥 生日快乐
春风什么时候播
春风什么时候播，想看！什么时候播，想看！什么时候播，想看！
春风化雨
春风十里 不及你
春风十里不如你
春风十里不如你什么时候才能见面
春风十里不如你什么时候播
春风十里不如你，什么时候播啊
春风十里不如你呀～
春风十里不如你啥时候上映？？？？？
春风十里不如你啥时候能看啊？
春风十里不如你好久放
春风十里不如你超级好看
春风十里什么时候播？
春风十里几号上映啊
春风十里几时可以看
春风十里好久播啊
昨天才在上海拍戏
是
是不是就我一个人卡的懵逼啊
是不是很辛苦
是不是看的人多了，网不行啊
是人太多卡吗？
是你卡
是你吗
是你那网不好吗
是卡
是呀
是呀，你最好看
是啊
是啊，余罪下架了
是因为人太多了吗
是因为粉丝多
是在咬手吗
是我卡吗
是我卡嘛
是我幻听吗？为什么一直都是同一句话
是我开启方式不对吗
是是不是 喜欢周冬雨？
是滴是滴
是现在直播吗？
是的
是真张一山吗？
是超级卡
是还在直播吗
晃眼
晚上多吃点饭
晚上好
晚上记得吃饭
晚安
晚安么么么。
晚自习ing
暑假去支教😊
暖心的山
暖暖的
暖男
更喜欢你了
更新好快
最卡的直播
最喜欢你
最好
最好的我喜欢最好的你
最帅
最怕空气突然安静
最有趣
最棒了
最棒的张一山
最爱你
最爱你跟小凯
最爱山哥
最真实的最好
最近在忙什么
最近拍什么戏
有上快乐大本营吗
有人发文字吗
有人在说话
有偶像包袱
有多饿
有女朋友了吗
有意义的事情
有文化，
有新节目吗？
有时差 特意定闹钟 熬夜看你
有没有余罪3啊啊啊啊啊啊？
有点儿卡
有点卡
有点卡啊
有点卡山哥
有点小卡
有爱
有爱心
有爱心❤❤❤❤❤❤❤❤
有爱心善良的人
有爱的山宝宝
有的有的
有蚊子
有资助贵州的小朋友吗
有钱人哪
有钱任性啊
有黑眼圈
期待
期待七个我
期待《余罪2》
期待你
期待你的作品
期待你的新剧播出
期待你的新戏
期待你的春风十里不如你！！ 等了好久！
期待哦
期待明晚看你和杨紫
期待春风
期待春风十里不如你
期待更好的你
期待，望比韩版的好
期待期待
期待的心肝都没有了
木啊
木有
木马
本人15哈哈哈
本来不卡
杀寇决
来一个
来一首
来了
来了，我终于赶上了！
来唱歌吧
来啦
来我们唱歌
来江苏
来济南吧
来深圳
来深圳吗
来湖南常德吧
来点根烟
来西安！
来跑男
来长春
来长沙
来首春风十里不如你💓
来首歌
来首，那就这样吧
来香港
杨紫
杨紫去了那一期
杨紫呢
杨紫呢？
杨紫呢杨紫呢
杨紫嘞？
杨紫妹子的生日祝福收到了吗
杨紫姐姐呢
杨紫搁哪呢
杨紫是你姐姐啊！
杨紫来了?
杨紫来吗？
杨紫杨紫
杨紫杨紫杨紫呢
林诗逸你在看吗！
果然是妈
某人被暴揍了
染个我？
根本听不到
根本就听不顺溜
棒
棒棒
棒棒哒
棒棒哒！
棒棒哒👍
棒棒棒
棒棒的
森日快乐
森日快乐呀
楼下呢
欧买噶
欧巴
歇歇吧
歌也好听
正吃呢，你吃啥啊
正在写作业
正好是我中考后
正常了
正能量
正能量偶像
正能量偶像，棒棒哒
正能量啊
正能量山
正能量的偶像 你就是我的目标
死有余辜，活有余罪。❤
每一天都要快乐
每个人为了一件事就要付出代价
每周都在高能见呀
每天都看家有儿女睡觉
每天都要笑一笑
每年一山生日都做公益
每次卡
每次说重点就卡
每次进来都卡
比女生的皮肤还好
❤比心
比心比心笔芯心
比我多一个字
比我大2岁，好快
毕竟
永远十八
永远支持你
永远支持你哦！
永远爱你
永远爱你，支持你
求jd
求偶遇
求公益工作
求唱歌
求山山飞吻一枚！！！！！！！！
求王者id
没
没了
没事你也可以边吃饭一边直播……哈哈哈
没人？
没人啊
没关系！
没关系，爱你爱你
没别的话说，越来越好，一直这样下去
没吃
没吃呢
没听到
没听到卡住了
没听懂
没听明白
没听明白啊
没听见
没听过一句完整的话。
没呢
没声
没声了
没声音了
没懂
没抢到
没抢的
没明白
没明白！
没有
没有人啊
没有 卡
没有 哈哈哈
没有哎
没有看到二维码
没有规矩不成方圆
没有诶
没毛病
没毛病，悟空
没没没没没没没没没没没没
没没没没没没没没没没没没没没没没没没没没没
没话聊了
没赶上开始，赶上了结束
没钱啊
没钱送东西
没错
没问题
注意休息
注意休息⚠️
注意休息呐~
注意睡眠哦
注意身体
注意身体~么么扎！
注意身体健康哦
注意身体呀
注意身体哦
注意身体啊
注意身体山哥
注意身体，快去吃啊
注意身体注意身体注意身体注意身体
注意身体注意身体注意身体注意身体注意身体注意身体注意身体注意
注意身体，要好好注意
活久见
流星
流星你又长大一岁
流星你最帅
流星哥哥
流星哥哥，生日快乐
流星流星
流量
流量爆炸
浩二呢
海浪祝张一山生日快乐
液！
溜达
溜达哈哈挺好呀
溜达好啊
滚床单
满满一碗鸡汤
漂
漂亮
演小二的时候都没有黑眼圈，果然人红了就很累啊，注意休息
演技在线男神
演技派
演老炮时和小刚导演对戏时害怕么
激动
激情少年，未来一起加油！！
灯红酒绿惹人醉 山哥带你混社会
炒鸡卡
炒鸡卡贼卡呀
点赞
烟花
焦灼
照顾好你自己
照顾好我凯凯
照顾好自己
照顾好自己，不要太累
照顾好自己喔！
照顾好自己，山哥
爱
爱一山
爱了你那么久
爱你
爱你~
爱你。
爱你👄
爱你❤❤❤
爱你❤❤❤❤
爱你！！！！！
爱你(^з^)
爱你❤ 一山哥
爱你，一起做公益，一起努力
爱你么么哒
爱你 么么哒
爱你 么么 拜拜
爱你们
爱你你，爱你爱你
爱你吆
爱你呀
爱你呀。好爱
爱你呦
爱你呦😘
爱你哟
爱你哟么么哒生日快乐
爱你哦
爱你哦❤
爱你哦山哥哥
爱你啊
爱你啊😊
爱你噢
爱你山
爱你 山哥
爱你，山哥
爱你 山妈妈
爱你爱你
爱你 爱你
爱你，爱你
爱你😍爱你😍
爱你❤爱你❤
爱你爱你❤❤❤
爱你爱你❤❤❤❤
爱你爱你爱你
爱你爱你爱你冰冰爱你爱你爱你爱你爱你爱你
爱你爱你爱你爱你
爱你爱你爱你。 生日快乐🎂🎂
爱你爱你还是爱你
爱你爱到不能自拔
爱你，爱心的一山
爱你❤ 生日快乐
爱你老公
爱你阿！！
爱奴
爱张一山
爱心一山
爱心呀
爱心大使
爱心山❤️
爱心山💖💖💖💖💖💖
爱您
爱我，爱我
爱我的大山山
爱死你
爱死你了
爱爱
爱爱爱不完
爱爱爱爱，
爱看高能少年团
牛逼
特别卡
特别卡😂
特别卡特别卡
特别喜欢你
特别喜欢喜欢你
特别喜欢看你演的余罪
特别帅！
特别有意义
特别的卡
特卡
特效卡
猜猜
猴哥儿！
猴子🐒，生快
王俊凯
王俊凯呢
王俊凯呢一山哥
王俊凯哥哥呢
王俊凯王俊凯我
王俊凯现在好吗？
王俊凯现在好吗？王俊凯现在好吗？
王俊凯给你发生日祝福啦
王俊凯还好吗？
王文敬张一山
王文敬爱你
王文静爱你
王玮佳就很有爱心
王者荣耀
玩cf手游吗吗！！！！！！！！！！！！！！
玩王者荣耀吗
玩的开心就好啦
现在也卡
现在也很卡
现在又卡
现在可以了
现在在哪？？？
现在在哪儿？
现在在哪呢
现在在哪里
现在在哪里啊
现在在干嘛
现在天天晚上都是看着家有儿女才睡觉
现在好了
现在还有吗
现在还特别喜欢看家有儿女
理解
理解理解
生
生也快，日也快
生了快乐
生快
生快🎂
生快😚😚😚
生快 一山山山山山山山山
生快呀
生快啊啊啊啊
生快啊 山哥
生快小子
生快流星
生快生快
生快 生快
生快生快么么哒
生快生快哦
生快生快。爱你爱你😍
生快生快生快
生快生快生快生快
生快生快生快生快 一山生快
生快生快生快生快生快
生快生快生快生快生快生快生快生快生快生快生快生快生快生快生快生快生快
生日
生日乐乐乐乐乐乐乐乐
生日和你同一天噢
生日和我同一天，幸运
生日哭唧唧
生日嗨皮
生日嗨皮🎂
生日嗨皮！！！
生日嗨皮嗨皮！！
生日垮了
生日快
生日快！
生日快乐
🎂生日快乐
✨✨✨生日快乐
生！日快乐
生日🎂快乐
生日🎂快乐，，
生日快 乐
生日快乐~
生日快乐 💗🍰
生日快乐 🌹🌹🌹
生日快乐!
生日快乐.
生日快乐！
生日快乐，~
生日快乐🎂
生日快乐🍰 🌹
生日快乐🎂 🎂 🎂
生日快乐！！
生日快乐～🎂
生日快乐🎂🎂
生日快乐！！！
生日快乐……😌
生日快乐🎂🎂🎂
生日快乐🎂🎂🎂🎂
生日快乐！🎂🎂🎊🎊
生日快乐🎊🎈🎉🎁🎂
生日快乐🎂🎂🎂🎂🎂🍰
生日快乐🎁🎈🎊🎂🎁🎈🎊🎂🎁
生日快乐13
生日快乐13哥
生日快乐！13哥!
生日快乐 happy birthday
生日快乐！l love you
生日快乐\^O^/
生日快乐!(^O^)y
生日快乐\^O^/，希望你每天都开开心心的
生日快乐 wuli一山
生日快乐Zray
生日快乐一山
生日快乐 一山
生日快乐，一山
🎂🎂生日快乐一山一山一山一山
生日快乐一山一山亮晶晶
生日快乐一山哥
生日快乐 一山哥
生日快乐，一山哥
生日快乐一山哥！
生日快乐一山哥🎂 🎂 🎂 🎇 🎇 🎇 🎁 🎁 🎁 🎀 🎀 🎀 ❤ ❤ ...
生日快乐，一山哥哥
生日快乐，一山哥哥，
生日快乐，一山哥生日快乐
生日快乐，一起长大
生日快乐三哥
生日快乐！不要太累
生日快乐么么
生日快乐么么么
生日快乐么么么么么么
生日快乐么么么哒
生日快乐么么哒
生日快乐 么么哒
生日快乐，么么哒
生日快乐，么么哒～
生日快乐么么哒！
生日快乐，么么哒，张一山
生日快乐么么哒比比心😘😘❤
生日快乐么么哒，爱你
生日快乐 么么扎
生日快乐🥂🥂么么晒
生日快乐乐的
生日快乐二哥
生日快乐，亲
生日快乐，但这个角度很迷啊
生日快乐余罪
生日快乐，你要越来越好
生日快乐，做自己最好！
生日快乐刘星
生日快乐 刘星
生日快乐！刘星
生日快乐，刘星！！
生日快乐，刘星二哥
生日快乐刘星，很喜欢看家有儿女
生日快乐刚刚查完三模成绩 没办法高考了
生日快乐去
生日快乐吖
生日快乐吖！🎂
生日快乐呀
生日快乐呀 刘星⭐😊😊😊
生日快乐呀哈哈哈哈
生日快乐呀 好喜欢你🎂
生日快乐呀山哥
生日快乐呀 山哥
生日快乐呀。山总
生日快乐呀，希望你为我加油！
生日快乐呢
生日快乐呦
生日快乐呦💚
生日快乐，呵呵
生日快乐 哇 亲闺蜜巨喜欢你 她明天过生日 梦想是认识你
生日快乐哈
生日快乐 哈
生日快乐哈~
生日快乐哈！
生日快乐哈！！！
生日快乐哈 一山
生日快乐，哈哈，今年有什么目标啊
生日快乐哈哈哈
生日快乐哈哈哈~
生日快乐哈哈哈哈
生日快乐哈哈哈哈哈哈哈哈
生日快乐哟
生日快乐哟 ⭐
生日快乐哟～
生日快乐哟哟哟
生日快乐哟爱你哟一山
生日快乐哟生日快乐啊
生日快乐哟老公
生日快乐哥
生日快乐 哥
生日快乐！哥哥！
生日快乐哥哥❤
生日快乐哦
生日快乐哦😊
生日快乐哦，山哥
生日快乐哦 山山山山山山山
生日快乐啊
生日快乐啊！
生日快乐啊🎂
生日快乐啊？，
生日快乐啊！！！
生日快乐啊一山
生日快乐啊 刘星
生日快乐啊，刘星
生日快乐啊刘星。
生日快乐啊，哈哈哈哈哈哈哈哈哈哈哈哈
生日快乐啊哥
生日快乐啊啊啊
生日快乐啊啊啊！！！
生日快乐啊啊啊啊啊
生日快乐啊啊啊啊啊啊
生日快乐啊啊啊啊啊啊啊啊啊啊啊
生日快乐啊 在等外卖小哥 心碎
生日快乐啊宝宝
生日快乐啊宝贝
生日快乐啊山哥
生日快乐啊我的张
生日快乐啊，生日快乐啊，
生日快乐啊生日快乐山哥，没出去玩吗
生日快乐啦
生日快乐啦啦啦
生日快乐~啦啦啦
生日快乐啦啦啦啦
生日快乐啦啦啦啦啦
生日快乐喔
生日快乐！喜欢你
生日快乐！喜欢你，你会越来越好
生日快乐。喜欢你搞笑喜欢你人好多年
生日快乐嗷ovo
生日快乐嘿嘿
生日快乐噢
生日快乐，天天开心
生日快乐，天天开心，😂😂😂，山哥今年有什么目标啊
生日快乐！太卡
生日快乐，好喜欢你
生日快乐，好帅
生日快乐宝宝
生日快乐宝贝
生日快乐小凯好不
生日快乐小哥哥
生日快乐，小哥哥
生日快乐小山山
生日快乐小猴子
生日快乐小猴子许愿
生日快乐，小男神
生日快乐 小逗比
生日快乐 就是有点卡噢
生日快乐山
生日快乐🎂山
生日快乐！！山
生日快乐山哥
生日快乐 山哥
生日快乐，山哥
生日快乐！！山哥
生日快乐🎂山哥。
生日快乐，山哥。
生日快乐山哥~~~
生日快乐山哥。！
生日快乐山哥哥
生日快乐山妈
生日快乐，山妈
生日快乐，山妈妈
生日快乐，山子。记住我，啊瓜不兮。
生日快乐山宝宝
生日快乐山山
生日快乐 山山
生日快乐，山山
生日快乐山山山山山山山山哥哥哥哥哥哥哥哥
生日快乐 山弟弟
生日快乐 山歌加油
生日快乐，希望你每天开心
生日快乐！ 希望你越来越好 过自己喜欢的生活❤❤❤❤❤❤
生日快乐！开心快乐每一天！
生日快乐张一山哥哥
生日快乐🎂张一山小哥哥
生日快乐 张小哥
生日快乐快乐
生日快乐 快乐
生日快乐快乐呀
生日快乐快乐快乐
生日快乐快乐快乐啊
生日快乐快乐快乐快乐
生日快乐快乐，我的山
生日快乐，快快乐乐
生日快乐，怎么可以那么帅？
生日快乐 想听你唱歌 那就这样吧
生日快乐🎊🎊🎁🎁🎂，我
生日快乐，我今天也生日，男神祝我生日快乐吧
生日快乐！我们一直都在
生日快乐 我余罪哥
生日快乐我哥
生日快乐😍我好喜欢你
生日快乐我山
生日快乐 我山
生日快乐，我山
生日快乐我山哥
生日快乐 我山哥
生日快乐 我山哥。❤
生日快乐！我山哥！！
生日快乐我山山
生日快乐我山山生日快乐我山山
生日快乐，我明天生日，差一天
生日快乐，我是崔书博
生日快乐我爱你
生日快乐 我爱你
生日快乐，我爱你
生日快乐，我的亲
生日快乐，我的哥
生日快乐、我的宝宝
生日快乐我的宝贝张一山
生日快乐我的山
生日快乐 我的山
生日快乐我的山山
生日快乐我的流星
生日快乐我的男神
生日快乐，我的男神
生日快乐我的童年
生日快乐 我的童年欢喜
生日快乐我的老公
生日快乐我老公
生日快乐！我送不了你礼物，因为我还小😭😭
生日快乐支持你
生日快乐星哥☺
生日快乐最爱你💕
生日快乐！期待你的每一部戏^_^
生日快乐，来晚了
生日快乐，每天都要开心
生日快乐比心，！！！
生日快乐，永远年轻，永远快乐，没烦恼
生日快乐，永远开心，不忘初心，永做自己！
生日快乐，永远爱你，山哥
生日快乐，沾沾你的喜气，保佑我后面考试和面试要过
生日快乐爱你
生日快乐 爱你
生日快乐，爱你
生日快乐，爱你❤
生日快乐，爱你么么哒
生日快乐爱你呦
生日快乐，爱你呦
生日快乐爱你爱你
生日快乐生日快
生日快乐生日快乐
生日快乐，生日快乐
生日快乐生日快乐！
生日快乐生日快乐🎂
生日快乐生日快乐\^O^/
生日快乐生日快乐好棒
生日快乐生日快乐爱你爱你
生日快乐生日快乐生日快乐
生日快乐！生日快乐！生日快乐！
生日快乐生日快乐生日快乐！
生日快乐生日快乐生日快乐生日快乐
生日快乐，生日快乐，生日快乐，生日快乐
生日快乐生日快乐生日快乐生日快乐生日快乐
生日快乐生日快乐生日快乐生日快乐生日快乐生日快乐
生日快乐生日快乐生日快乐生日快乐生日快乐生日快乐生日快乐
生日快乐生日快乐生日快乐生日快乐生日快乐生日快乐生日快乐亭子
生日快乐生日快乐生日快乐生日快乐生日快乐生日快乐生日快乐生日
生日快乐生日快乐生日快乐重要的事情说三遍
生日快乐，生日快乐男神
生日快乐男神
生日快乐 男神
生日快乐🎂🎂男神
生日快乐🎂🎊🎁🎊🎂男神
生日快乐，真的不要太累 要注意休息😊
生日快乐，罪儿
生日快乐老公
生日快乐 老公
生日快乐。老公
生日快乐老艺术家
生日快乐，脸挡了
生日快乐 要哭了😭
生日快乐，要开开心心
生日快乐，超级喜欢你
生日快乐，越来越好
生日快乐越来越帅
生日快乐，越来越帅
生日快乐，跟你一起长大
生日快乐，金牛座的小弟～
生日快乐阿
生日快了
生日快了！
生日快了😻
生日快了，大山哥😊
生日快咯
生日快啊啊啊
生日快樂
生日快樂！
生日快樂🎂
生日快樂一山大哥
生日快樂，今天剛好立夏哈
生日怎么过呢
生日愿望?
生日有什么愿望！生日有什么愿望！生日有什么愿望！生日有什么愿望！
生日爆乐
生日礼物
生日礼物🎁
生日粗卡
生日粗卡生日粗卡生日粗卡生日粗卡生日粗卡生日粗卡生日粗卡生日粗卡
生日要开心呢
生曰快乐
生死快乐
生气快乐
生气快乐山哥
生气快咯
生气路车
生活快乐！
生生日快乐🎂🎁
用4G
用4G啊
用流量
电视剧吗
电话都不接了
男朋友
男朋友生日快乐
男神
男神在直播耶
男神，好帅呀
男神我来啦！
男神生日快乐
男神，生日快乐
男神生日快乐我来啦
留下弹幕
留回放好吗
疯了我快
痞帅
痞帅男神
痞帅痞帅的你
痞帅痞帅的张一山。25岁快乐。
白了
白白
盖楼
直
直播倒立我就看
直播吃
直播吃饭
直播吃饭吧
直播哦
直播多久？
直播直播
直播让我赶上了
直男视角😂😂😂😂😂😂😂😂😂😂😂
相当卡
相当的卡
看一会我要去复习了备战高考
看不了啊
看不到
看不到人
看不到人了#
看不到呢
看不到脸
看不到脸啊
看不清
看不清看不清
看不见
看不见了啊
看不见人呀
看不见啊
看不见我啊
看不见脸。。。。。。。。
看你困的
看你好困
看你好累阿
看你的电影预告看哭了
😂看你笑我也想笑
看你贼下饭！！！！！！！
看你都快着了
看到了
看到你电视就开了好开心
看到你的努力加油
看到你直播
看到吗
看到啦
看到啦。
看到山哥人气这么高，再卡我也认了
看到我
看到我了吗
看到有人叫你老公
看吧看不到脸啊
看好你
看得到吗
看得到我吗
看得眼睛都花了
看我
看我看我看我
看我看我看我看我
看的胃疼
看看你
看看看
看着就饱了
看着看着微博就停止了
看着都感觉你好几天没睡咯
看见了
看见听见了，你吃饭去吧
看见我不
看评论
真人吗
真卡
真卡！！！
真卡听不清你说啥
真卡啊
真厉害
真厉害，我的山哥
真喜欢你
真好
真实在 干活 哈哈
真实最重要
真帅
真帅～
真心有点卡
真心稀饭
真是卡呀
真是卡成PPT
真是张义山啊
真棒
真棒！
真棒呀
真棒真棒
真的也
真的卡
真的卡。
真的卡啊 哈哈
真的可以吃
真的好喜欢你
真的好爱你
真的很棒
真的是张一山
真的炒鸡喜欢你
真的炒鸡喜欢你 就是真实嘿嘿 就知道你有爱心
真的炒鸡有耐心
真的瘦
真能量
眼是不是肿了
眼熬夜熬红了？
眼睛小
眼神里都是戏
眼累吗
眼袋又重了
瞬间没了
知道
知道！！！！
知道了
知道了 因为老爸就在乡村支教了20年了
知道啦
知道啦，听你的
知道知道
破壳快乐
破壳快乐🐣
确实
确实酱紫
确确实实
礼物刷屏呀 人气爆满
礼物刷的都看不清你的脸了
礼物太多挡住你了
礼物挡住了你的脸😂
礼物都挡着山山的脸啦
社会我山哥，生日快乐🎉
祝一山哥生日哈皮
祝一山生日快乐
祝你他妈生日快乐
祝你以后越来越好
祝你梦想成真
祝你生如快乐
祝你生日快乐
祝你生日快乐！
祝你生日快乐😊
祝你生日快乐😊😊😊
祝你生日快乐啦
祝你生日快乐，，祝你生日快乐祝你生日快乐
祝你生活快乐
祝我俩生日快乐
祝我明天考试顺利啊啊啊啊
祝每一个愿望都实现
神豪来一个
秀色可餐，不用吃饭了。
稀饭你~
程立雪也喜欢你
穿越火线皮肤就有你
突然一直播提醒我杨紫
竟然直播了
笑得帅飞
笑起来真好看
笔芯
笔芯哈哈
笨蛋山
第一
第一？
第一个！
第一次看一山哥哥直播！！！！！
第一次看明星直播，有点激动
第一次看直播厉害了
等会不是要转场吗 快去吃饭吧
等你回北京
等你的余罪
等好久了
等我有钱了，一定会帮的
等我等我等我啊
等着看你和杨紫的那期节目
等等
答应我一声好吗老公
简直卡到爆 说一句生日快乐就先退了 山哥哥
粗卡粗卡小山山
素颜
紧跟你的步伐 虽然不富裕 但会尽一点微薄之力
累了多休息
累了，就休息，不想干就罢工，世界使然，偶尔做一下自己
累吗
累就多注意休息
红包
红包吗
红包呗
红包红包。😃😃😘😘
红包红包红包红包红包
红包里
红红火火
终于正常了
终于见到真人的ID了
终于赶上一场直播
终于赶上一次了
终于进来了
经纪人叔叔不要说话
给你一个么么哒
给你一颗小心心
给你实现它
给你我的小心心
给你放几天假哦！
给你点赞
给我中考加油可以不
给我们个抱抱再走
给我没唱歌ge
绝对喜欢的
网不好
网卡啊
网卡，想哭
网有点卡
网络问题
罗婉瑜我爱你
美女
美好时光就用来直播了
美的美的
翻牌子把哈哈哈我想听歌
翻牌子 春风十里不如你
老二啊
老公
老公。
老公！！！！
老公(╯з╰)
老公你说什么就是什么
老公卡
老公 去吃饭好了
老公吃饭哇
老公呢
老公哈哈哈
老公太卡
老公好帅
老公我们去吃饭
老公有点卡
老公爱你爱你
老公生日快乐
老公！生日快乐
老公，生日快乐🎁🎈
老公生日快乐！！！
老公真帅
老公老公
老公 老公
老公老公！！
老公老公我爱你😚
老公老公生日快乐
老公老公老公老公老公老公老公
老公老公说什么都对
老公要亲亲
老公说的话必须得听懂
老卡
老啦😄
老干部老干部
老艺术家你的网不太好呀
老贵了
考勤卡咔咔咔咔咔咔啦啦啦啊啦啦
而为啥我这么卡
而为难
耶
耶耶耶
耿直。
耿直的山哥
聊半道天，朋友说你在直播，我就跑来了
聊天挺厉害啦，根本回复不了啊
聊点什么
聊点别的吧
聘书
肚子疼
肥了
肥蟹祝你生日快乐👏
肯手指……
能
能不能不要一直舔着脸，我都看不到你的正面
能不能不这么卡啊
能不能别刷了？
能不能叫王俊凯也直播
能不能找个好点的网
能不能照顾好自己
能不能看一下网络呀
能不能都不说话
能不能镜头换个角度啊，看不见你face了都，全是各种礼物挡严实了～～😢...
能做你的助理真是幸运
能听到
能听到 就是有点卡
能唱一首歌给我听吗？你最爱的
能少刷点不 我都看不见我二哥 你们都挡住了
能帮帮我吗
能录下来看回放吗
能换4g吗
能换个位置直播吗
能看到吗
能看回放么
能看得到吗
能看看小凯吗
能看见我嘛
能量山哥
脖子上挂个啥？
脖子上是什么啊
脚早点好哈
脸卡住了
腊肉男神 😘
腿好了吗？🤓
腿好了吗？？？😞😞😞😞😞😞😞
自助我一下😝😝😝
自己也要照顾好
自己快乐最重要
自己说
自己都养活不起
自带鬼畜
舍不得
艾玛
艾玛，人还不多呢
艾玛……卡的要死😂
花钱买罪受
苏州月光码头
菇凉想追你
菠萝包
萌
萨拉嘿呦
萨瓦迪卡
落日谣！
蓝瘦香菇
虽然你看不到。但是也要祝你生日快乐
虽然卡，但我能静静这样看着你也挺好
虽然妥协很累，但是你依旧为我们带来了快乐
蛋糕
蛋糕没有吃鸡蛋
蜜汁视角
蜜汁角度，各种卡
行
行了，老公。你最棒
行动
行行行
衣服跟塑料儿布似的！
表情包速成班
表白你❤❤❤❤❤❤❤❤
表白刘星
表白小哥哥
表示表示
表表白
装逼
西安
要不你就边吃饭边和我们聊
要你开开心心的要你开开心心的
要多注意身体
要帮你转发吗
要幸福要幸福
要怎么支持
要炸了
要珍惜在家待着的时光
要看见我
要见你本人
要记得照顾好自己
要记得爱我哦
要高考的我都来看你直播
见到个活的
角度
角度不好
认了
让他给你放假
让我们看看房间呗
让社会感受到我们的热情
记住你
记得吃饭！
记得吃饭！！！！
记得啦
记得家有儿女那个分肉饼的戏吗
讲讲座哪？？？？
讲讲黑幕吧 潜规则什么的
评论都把脸挡没了
该不会在东莞拍高能少年团吧？
说一句卡一次！
说一句话卡一会
说一遍
说什么
说你为啥这么帅
说到重要就卡
说加油！！！😂
说啥了
说大话
说好的跟我们无关呢
说得好
说得对
说明白了
说点别的吧
说的什么
说的好
说的好对
说的挺好的啊
说的是啥
说话
说话吖
说话呀
说话啊
说话好直爽
说说话能顺畅点儿吗
说这些干嘛
诶呦呦呦呦呦要有营养哟哟哟哟哟哟哟哟
诶诶诶
请求直播延时
请问浩然在吗(¬‿¬)
谁卡呀
谁发蛋糕档住了
谁吖
谁和你说的第一个生日快乐呀
谁在你旁边
谁在你边上说话 ？？ 伯泉哥？
谁在和你说话
谁在和你说话！
谁在说话
谁说话
谁说骗人啊
谈个恋爱
谜一样的卡
谢谢二哥上的课 我会努力的哦
谢谢，你也开心
谢谢你对小凯的照顾
谢谢你山哥在节目中照顾小凯
谢谢你的付出
谢谢你的努力
谢谢侬
谢谢对小凯的照顾呢
谢谢山哥对小凯的照顾
豁哟
贫
贾乃亮
资助?
资助我资助我
赞
赞尼
走了
走出大山 来看一山
赵本山金钱多
赶上了你直播的尾巴
赶上你的脚步啊
赶上直播了
赶上直播好开心
赶到了
赶紧去吃饭
赶紧吃饭
赶紧吃饭去吧😘😘
赶紧嫁了赶紧嫁了赶紧嫁了赶紧嫁了！！！！！！！！！！！！
赶紧找个照顾你的人
赶紧找女朋友
趁年轻
超像的
超卡
超卡的
超喜欢余罪
超喜欢你的
超喜欢你的！！
超期待柒个我！
超期待这部戏
超爱你
超爱你的
超级卡
超级卡！！！！
超级卡呀
超级卡啊
超级卡好吗。。
超级卡耶
超级喜欢你
超级喜欢你可怎么办呢
超级喜欢你超级喜欢你
超级喜欢张一山
超级帅！
超级期待柒个我
超级爱你❤
超级超级卡
越来越好
越来越帅
越来越帅了
越来越帅了，越来越有男人味
越来越成熟
越看越帅！
越说越有：道理
跟不上了
跟你一天生日，开森呦
跟你一起做公益
跟兄弟互动一下吗
跟我们聊哈
跟着你一起zuogongyi
跟着公益山一起做公益
辛苦
辛苦了
辛苦了，山哥
辛苦你
辛苦啦
辛苦辛苦
边上是谁呀
边吃边播
边吃边播吧……
边吃边聊
边吃边聊更放松哈哈哈
边吃边聊边吃边聊边吃边聊边吃边聊边吃边聊边吃边聊边吃边聊b c
边吃饭边播
过一年少一年
过来吃烤肉
过生日了还在做好事
过生日呀
运气是有多好，被我赶上直播
近期又拍电视剧了没
还不容易直播一次还这么卡
还以为是我的问题
还卡
还喜欢听你唱歌
还在录节目吗
还在录高能少年团？
还好
还好今晚没课 可以看到你的直播
还好哈哈哈
😄 ，还年轻着呢
还很年轻
还拍余罪不
还是卡
还是卡呀
还是帅的
还是很卡
还是短发好看
还有一个工作人员啊
还有五年
还有余罪3吗
还有余罪3吗还有余罪3吗
还有很多人在过着苦日子
还有念词儿的
还有最新的这期节目和杨紫一起啊啊啊啊啊啊啊啊啊啊
还有谁
还没
还没吃呢
还没吃饭？
还没完？
还能不能好好看你了😔 😔 😔
还能好好看直播吗
这不是余罪么
这不是余罪吗
这个卡
这个声音也真的是
这个直播要多久？
这个角度不错 很帅
这个角度 哈哈
这么卡
这么卡呢啊
这么卡啊
这么卡就让他去吃饭了
这么卡，看不见
这么可爱
这么多人
这么多年辛苦了
这么好的你以后不知道会便宜谁😄
这么官方
这么快
这也太卡
这人数飙的
这刷的太快了吧
这卡得呀。。。。
这卡的也不知道说啥好了
这卡的我只能看见蛋糕🍰
这可能是个假的直播
这大眼
这小中分 帅的
这尼玛卡成表情包
这是哪里啊
这是哪里啊？？？
这是哪里？？？这是哪里啊
这是喝大了吧！！！！！！！
这是嘛
这是在干嘛
这是在聊什么
这是正在直播吗还是录像？
这是被扒网线了啊
这是谁在说话
这是退出了吗
这样很好喜欢你这样
这样看超帅的
这网
这能看到吗
这问题有坑
进不来
进来好难啊！
进来就被挤出去，挤出去再挤进来
远着呢
连不成句
连无线啊
迟来的生日快乐
迷妹
追到爆炸
退圈😘
遇见你很幸运
那么卡
那些送礼物的别送了好不好
那你快去吧，我们吃过了。
那你饿不饿
那就这样吧
那就这样吧！
那就这样吧，想听
那就这样吧 那就这样吧 那就这样吧那就这样吧那就这样吧
那很好
那快去吃饭吧
那我们要偶遇你
都 25岁了 真快
都加油
都卡，还是我的卡
都听你的
都听你的～(●--●)
都听你的～好的哥～_(:з」∠)_
都在刷生日快乐啊，金牛座♉吗
都在这表白
都好看
都好看不到你帅气的脸
都是你的迷妹
都是善良的人
都是好人美女帅哥呗
都是小仙女
都有黑眼圈了注意休息
都没听见你刚才说啥
都没听见说啥
都看不到你了
都看不到脸啦
都看不到自己发的信息
都看不见脸
都长这呢大了
酒店吗
酷
醉了
重复机了
重开吧
重耳什么时候播
重耳传什么时候播
金牛山 生日快乐
金牛座的好男孩，生日快乐👑👑
金牛金牛 我是处女
镜像 反的
镜头拿好
镜面啊
长得帅说什么都对
闪闪
问题没有
阿呀呀
随便你说啥…真的…如果不想重复就不重复了吧……
随便说点啥都行…不想重复就不重复了吧
难道只有我卡吗
震惊
露个面吧，让俊凯。。
静止的画面
静静地隔着屏幕看着你
非常六
非常卡
面对男生哦
韩红是不是你姑姑？
领悟力很强
额
饭随爱豆
饭随爱豆，和你一起做公益💗
饿了吃手指
饿死了
香香
马悦想和你生孩子
骄傲的少年
高的很快乐长大后期末
高能
高能中过生日
高能了啊
高能团里，我会永远支持你的
高能少年团
高能少年团❤️
高能少年团，加油
高能少年团嘉宾会是谁呢？
高能少年团好好看
高能少年团张一山
高能少年团很好看，我会继续支持的
高能少年团最喜欢努力不抱怨的山哥哥，真的很棒，真男人
高能少年团杨紫来了是真的
高能少年团里最爱谁？
高能我山哥
高能里面最喜欢你
鬼畜哈哈哈
鬼畜视频
鱼儿好
鸡汤boy
鹿晗直播
黄金右手
黑凤梨
黑卡拉
黑屏
黑屏！
黑屏了
黑眼圈太重了，多注意
黑眼圈好重
