/home/kovean/WORK/live-comment-spark/data/libsvm_data/20170606XX1o-UYEdX9PkDUF_libsvm_data.txt
The lower bound on the log likelihood of the entire corpus: -2364283.37675
The upper bound on perplexity: 2385.75411988
The topics described by their top-weighted terms:
+-----+------------------------+---------------------------------------------------------------------+
|topic|termIndices             |termWeights                                                          |
+-----+------------------------+---------------------------------------------------------------------+
|0    |[130684, 230165, 51883] |[1.4187630539733532E-5, 1.1324725782477917E-5, 9.64393857884986E-6]  |
|1    |[9592, 147439, 1280]    |[3.111972011029147E-5, 2.0744398439855494E-5, 1.4919340813846202E-5] |
|2    |[120799, 118989, 193555]|[1.3883173762453515E-5, 9.733324345501066E-6, 9.447577900970348E-6]  |
|3    |[149048, 204834, 36413] |[9.277446887345112E-6, 9.20370587827366E-6, 7.407327305511102E-6]    |
|4    |[38236, 237731, 11803]  |[8.221874156546686E-5, 1.2128061827644236E-5, 1.1251256471644616E-5] |
|5    |[68078, 154892, 225553] |[1.6428955850967647E-5, 1.4929539781463314E-5, 1.1634256152024226E-5]|
|6    |[182488, 139054, 249586]|[4.8924853798907735E-5, 2.672056910393998E-5, 1.894976897646673E-5]  |
|7    |[234162, 102552, 30939] |[9.678473507733799E-6, 9.295413835095119E-6, 9.02347759975545E-6]    |
|8    |[253543, 63420, 15653]  |[4.8189022335458985E-5, 1.43920524102851E-5, 1.3041662221416534E-5]  |
|9    |[31105, 132703, 234466] |[1.731173709505367E-5, 1.7236185947728626E-5, 1.5272992676992126E-5] |
+-----+------------------------+---------------------------------------------------------------------+

+-----+------------------------------------------------------+----------------------------------------------------------------------------------------------------------------------------------------------------------------------------------------------------------------+
|label|features                                              |topicDistribution                                                                                                                                                                                               |
+-----+------------------------------------------------------+----------------------------------------------------------------------------------------------------------------------------------------------------------------------------------------------------------------+
|1.0  |(258815,[209188],[1.0])                               |[0.04889605090858265,0.05001808402254862,0.0491190569689574,0.04891841517441347,0.05131552762364311,0.04911709386680513,0.0514757394517767,0.5511348727676291,0.050522827678799856,0.049482331536844046]        |
|2.0  |(258815,[1553,178300,191675,258163],[1.0,1.0,1.0,1.0])|[0.019509968746701765,0.019959546892237855,0.019599371406141226,0.01951836272560755,0.02047819176320803,0.019596511969041292,0.020542245125525018,0.0195878374537118,0.8214637722604956,0.019744191657329824]   |
|3.0  |(258815,[120799,166476],[1.0,1.0])                    |[0.032550927792087556,0.033297014898144774,0.7012097778183207,0.0325647423066223,0.03415900351765979,0.03269567156432394,0.03426835391788533,0.03268085480890037,0.03363315903507988,0.03294049434097541]       |
|4.0  |(258815,[253597],[1.0])                               |[0.048898111871753094,0.552055144206657,0.049121061975610045,0.048916762985564605,0.05131285303909862,0.04911509256535979,0.0514841627725354,0.049092106414288315,0.050522997298802524,0.049481706870330606]    |
|5.0  |(258815,[28053],[1.0])                                |[0.04890226145420128,0.050022535967580085,0.049126594566207195,0.048921956886426365,0.5532886833949489,0.04911686755598586,0.05149683309613829,0.04909879872478245,0.0505360777488804,0.04948939060484938]      |
|6.0  |(258815,[29300],[1.0])                                |[0.04889351198816072,0.05001328585741853,0.04911625484934314,0.048913927160508706,0.0513100737430943,0.049111538703502856,0.5535538308529894,0.04908845602931744,0.05051952600996513,0.04947959480569985]       |
|7.0  |(258815,[29300,79084],[1.0,1.0])                      |[0.03255305332627917,0.03329861587592662,0.03270046804133735,0.03256638575084267,0.03416213061327547,0.0326968050228537,0.702762396987909,0.03268203889340709,0.03363503793820624,0.032943067549962686]         |
|8.0  |(258815,[29300,114867],[1.0,1.0])                     |[0.03254963179692315,0.03329508091200866,0.03269770365347488,0.03256311545880354,0.03415773955331209,0.032694075194653546,0.702792262490249,0.032679522628048574,0.03363134580064979,0.032939522511876956]      |
|9.0  |(258815,[63420,134878],[1.0,1.0])                     |[0.03255241607714759,0.03329819575502437,0.03270198334010395,0.03256648077465814,0.03416292602266365,0.03269772679149093,0.03427175840413706,0.03269006357981029,0.7021145444727941,0.03294390478216988]        |
|10.0 |(258815,[169709],[1.0])                               |[0.048895277478723534,0.050014906535439455,0.049121319198736996,0.04891777135378808,0.05131184030741915,0.04911536487569467,0.0514818339202123,0.5511363080325943,0.050521416150256376,0.04948396214713518]     |
|11.0 |(258815,[130684,165082,173500],[1.0,1.0,1.0])         |[0.7759193743741634,0.024957355144580542,0.02451006506626555,0.02441462061505482,0.02560480379043673,0.02450797304680042,0.025689322611065372,0.02449600848629809,0.02520972953634217,0.024690747328992887]     |
|12.0 |(258815,[130684,158731,165082],[1.0,1.0,1.0])         |[0.02440168692554132,0.024955372616923065,0.024507404790340973,0.7759548821613445,0.025602284963296012,0.024505228107254185,0.025684484133349835,0.024493461332643924,0.02520667836737499,0.024688516601931117] |
|13.0 |(258815,[38236,191675],[1.0,1.0])                     |[0.03254999676532701,0.03329549966167707,0.03269790412553236,0.03256293396811914,0.7026705649353248,0.03269394414061298,0.03427195823512256,0.03267928754790273,0.033638914893002275,0.0329389957273791]        |
|14.0 |(258815,[1553,231078],[1.0,1.0])                      |[0.032555443231583575,0.033315745651749155,0.701143717652094,0.032569210904435965,0.034168652309729645,0.032698939889552116,0.03427679312416573,0.03268486320843859,0.033640043801559695,0.03294659022669159]   |
|15.0 |(258815,[67078],[1.0])                                |[0.5509552533767315,0.05001616603647074,0.04911777510148119,0.04891454092314525,0.05131417810237431,0.049112363918199745,0.05147607202869015,0.04909129055359062,0.05052132702133021,0.04948103293798634]       |
|16.0 |(258815,[49263],[1.0])                                |[0.04889986575364159,0.050025182878042265,0.049126331318708895,0.04892623895284658,0.05132384459567097,0.5510795885256368,0.051487783815319675,0.04910841509870243,0.05053218537940864,0.04949056368202218]     |
|17.0 |(258815,[134136],[1.0])                               |[0.04890636582036485,0.0500281950207248,0.04913313856785429,0.04892320430560877,0.5532645387051761,0.049125426141144506,0.05149235587667123,0.04909995804727865,0.05053183457352393,0.04949498294165274]        |
|18.0 |(258815,[37675,173556],[1.0,1.0])                     |[0.03255346334847418,0.033298141529513596,0.03270004616156819,0.03256765975874861,0.03416193745674247,0.032697106850689016,0.7027614654527169,0.032681834130670065,0.03363479357366544,0.032943551737211633]    |
|19.0 |(258815,[67078],[1.0])                                |[0.5509563287734572,0.050016205157731315,0.049117765571617115,0.04891453548927299,0.05131340799157925,0.04911235523280735,0.05147604152195724,0.04909113455293748,0.05052121026397014,0.049481015444669686]     |
|20.0 |(258815,[1280,24780,68078],[1.0,1.0,1.0])             |[0.024396010324383977,0.02495912248923919,0.024507321586233925,0.024406287854237953,0.7771458755313669,0.024512387604552845,0.025684413419056352,0.024493756768136615,0.025206689023380514,0.024688135399411667]|
+-----+------------------------------------------------------+----------------------------------------------------------------------------------------------------------------------------------------------------------------------------------------------------------------+
only showing top 20 rows

